waveforms/tb_mul_P8E0.vcd
$date
	Fri Dec 24 12:41:59 2021
$end
$version
	Icarus Verilog
$end
$timescale
	1s
$end
$scope module tb_mul $end
$var wire 8 ! pout [7:0] $end
$var reg 1 " diff_pout $end
$var reg 8 # p1 [7:0] $end
$var reg 8 $ p2 [7:0] $end
$var reg 8 % pout_expected [7:0] $end
$var reg 9 & test_no [8:0] $end
$scope module mul_inst $end
$var wire 8 ' p1 [7:0] $end
$var wire 8 ( p2 [7:0] $end
$var wire 1 ) pout_sign $end
$var wire 4 * pout_reg_len [3:0] $end
$var wire 8 + pout_mant [7:0] $end
$var wire 4 , pout_k [3:0] $end
$var wire 1 - pout_is_zero $end
$var wire 1 . pout_is_inf $end
$var wire 8 / pout [7:0] $end
$var wire 1 0 p2_sign $end
$var wire 1 1 p2_reg_s $end
$var wire 4 2 p2_reg_len [3:0] $end
$var wire 8 3 p2_mant [7:0] $end
$var wire 4 4 p2_k [3:0] $end
$var wire 1 5 p2_is_zero $end
$var wire 1 6 p2_is_inf $end
$var wire 1 7 p1_sign $end
$var wire 1 8 p1_reg_s $end
$var wire 4 9 p1_reg_len [3:0] $end
$var wire 8 : p1_mant [7:0] $end
$var wire 4 ; p1_k [3:0] $end
$var wire 1 < p1_is_zero $end
$var wire 1 = p1_is_inf $end
$scope module mul_core_inst $end
$var wire 1 > _exp_1 $end
$var wire 1 ? _exp_2 $end
$var wire 1 @ _exp_4 $end
$var wire 1 A _exp_carry_1 $end
$var wire 1 B _exp_carry_2 $end
$var wire 16 C _mant_fractional_part_left_1 [15:0] $end
$var wire 1 . pout_is_inf $end
$var wire 1 - pout_is_zero $end
$var wire 4 D pout_k [3:0] $end
$var wire 8 E pout_mant [7:0] $end
$var wire 4 F pout_reg_len [3:0] $end
$var wire 1 ) pout_sign $end
$var wire 4 G reg_len [3:0] $end
$var wire 1 0 p2_sign $end
$var wire 4 H p2_reg_len [3:0] $end
$var wire 8 I p2_mant [7:0] $end
$var wire 4 J p2_k [3:0] $end
$var wire 1 5 p2_is_zero $end
$var wire 1 6 p2_is_inf $end
$var wire 1 7 p1_sign $end
$var wire 4 K p1_reg_len [3:0] $end
$var wire 8 L p1_mant [7:0] $end
$var wire 4 M p1_k [3:0] $end
$var wire 1 < p1_is_zero $end
$var wire 1 = p1_is_inf $end
$var wire 4 N mant_len [3:0] $end
$var wire 8 O mant_fractional_part_left [7:0] $end
$var wire 1 P mant_carry $end
$var wire 1 Q k_is_oob $end
$var wire 8 R f2 [7:0] $end
$var wire 8 S f1 [7:0] $end
$var wire 16 T _mant_2 [15:0] $end
$var wire 16 U _mant_1 [15:0] $end
$var wire 4 V _k_4 [3:0] $end
$var wire 4 W _k_3 [3:0] $end
$var wire 4 X _k_2 [3:0] $end
$var wire 4 Y _k_1 [3:0] $end
$var wire 1 Z _exp_3 $end
$var wire 4 [ F2 [3:0] $end
$var wire 4 \ F1 [3:0] $end
$scope function c2 $end
$var reg 8 ] a [7:0] $end
$upscope $end
$scope function max $end
$var reg 8 ^ a [7:0] $end
$var reg 8 _ b [7:0] $end
$upscope $end
$scope function min $end
$var reg 8 ` a [7:0] $end
$var reg 8 a b [7:0] $end
$upscope $end
$upscope $end
$scope module posit_decode_p1 $end
$var wire 8 b bits [7:0] $end
$var wire 8 c u_bits [7:0] $end
$var wire 1 7 sign $end
$var wire 1 8 reg_s $end
$var wire 4 d reg_len [3:0] $end
$var wire 4 e mant_len [3:0] $end
$var wire 8 f mant [7:0] $end
$var wire 3 g leading_zeros [2:0] $end
$var wire 3 h leading_ones [2:0] $end
$var wire 4 i k [3:0] $end
$var wire 1 < is_zero $end
$var wire 1 = is_inf $end
$scope function c2 $end
$var reg 8 j a [7:0] $end
$upscope $end
$scope module clo_inst_o $end
$var wire 8 k bits [7:0] $end
$var wire 3 l leading_ones [2:0] $end
$var wire 3 m index_highest_set [2:0] $end
$scope module highest_set_inst $end
$var wire 8 n bits [7:0] $end
$var wire 3 o index [2:0] $end
$scope begin _gen[0] $end
$upscope $end
$scope begin _gen[1] $end
$upscope $end
$scope begin _gen[2] $end
$upscope $end
$scope begin _gen[3] $end
$upscope $end
$scope begin _gen[4] $end
$upscope $end
$scope begin _gen[5] $end
$upscope $end
$scope begin _gen[6] $end
$upscope $end
$scope begin _gen[7] $end
$upscope $end
$upscope $end
$upscope $end
$scope module clo_inst_z $end
$var wire 8 p bits [7:0] $end
$var wire 3 q leading_ones [2:0] $end
$var wire 3 r index_highest_set [2:0] $end
$scope module highest_set_inst $end
$var wire 8 s bits [7:0] $end
$var wire 3 t index [2:0] $end
$scope begin _gen[0] $end
$upscope $end
$scope begin _gen[1] $end
$upscope $end
$scope begin _gen[2] $end
$upscope $end
$scope begin _gen[3] $end
$upscope $end
$scope begin _gen[4] $end
$upscope $end
$scope begin _gen[5] $end
$upscope $end
$scope begin _gen[6] $end
$upscope $end
$scope begin _gen[7] $end
$upscope $end
$upscope $end
$upscope $end
$upscope $end
$scope module posit_decode_p2 $end
$var wire 8 u bits [7:0] $end
$var wire 8 v u_bits [7:0] $end
$var wire 1 0 sign $end
$var wire 1 1 reg_s $end
$var wire 4 w reg_len [3:0] $end
$var wire 4 x mant_len [3:0] $end
$var wire 8 y mant [7:0] $end
$var wire 3 z leading_zeros [2:0] $end
$var wire 3 { leading_ones [2:0] $end
$var wire 4 | k [3:0] $end
$var wire 1 5 is_zero $end
$var wire 1 6 is_inf $end
$scope function c2 $end
$var reg 8 } a [7:0] $end
$upscope $end
$scope module clo_inst_o $end
$var wire 8 ~ bits [7:0] $end
$var wire 3 !" leading_ones [2:0] $end
$var wire 3 "" index_highest_set [2:0] $end
$scope module highest_set_inst $end
$var wire 8 #" bits [7:0] $end
$var wire 3 $" index [2:0] $end
$scope begin _gen[0] $end
$upscope $end
$scope begin _gen[1] $end
$upscope $end
$scope begin _gen[2] $end
$upscope $end
$scope begin _gen[3] $end
$upscope $end
$scope begin _gen[4] $end
$upscope $end
$scope begin _gen[5] $end
$upscope $end
$scope begin _gen[6] $end
$upscope $end
$scope begin _gen[7] $end
$upscope $end
$upscope $end
$upscope $end
$scope module clo_inst_z $end
$var wire 8 %" bits [7:0] $end
$var wire 3 &" leading_ones [2:0] $end
$var wire 3 '" index_highest_set [2:0] $end
$scope module highest_set_inst $end
$var wire 8 (" bits [7:0] $end
$var wire 3 )" index [2:0] $end
$scope begin _gen[0] $end
$upscope $end
$scope begin _gen[1] $end
$upscope $end
$scope begin _gen[2] $end
$upscope $end
$scope begin _gen[3] $end
$upscope $end
$scope begin _gen[4] $end
$upscope $end
$scope begin _gen[5] $end
$upscope $end
$scope begin _gen[6] $end
$upscope $end
$scope begin _gen[7] $end
$upscope $end
$upscope $end
$upscope $end
$upscope $end
$scope module posit_encode_inst $end
$var wire 1 *" exp $end
$var wire 1 . is_inf $end
$var wire 1 - is_zero $end
$var wire 4 +" k [3:0] $end
$var wire 8 ," mant [7:0] $end
$var wire 4 -" reg_len [3:0] $end
$var wire 1 ) sign $end
$var wire 9 ." regime_bits [8:0] $end
$var wire 8 /" posit [7:0] $end
$var wire 8 0" bits_assembled [7:0] $end
$var wire 8 1" bits [7:0] $end
$scope function c2 $end
$var reg 8 2" a [7:0] $end
$upscope $end
$scope function is_negative $end
$var reg 4 3" k [3:0] $end
$upscope $end
$scope function shl $end
$var reg 8 4" bits [7:0] $end
$var reg 8 5" rhs [7:0] $end
$upscope $end
$upscope $end
$upscope $end
$upscope $end
$enddefinitions $end
#0
$dumpvars
b11 5"
b0 4"
b10 3"
b1110000 2"
b1110000 1"
b1110000 0"
b0 /"
b1110 ."
b100 -"
b0 ,"
b10 +"
0*"
b0 )"
b11111110 ("
b0 '"
b111 &"
b11111110 %"
b111 $"
b0 #"
b111 ""
b0 !"
b0 ~
b1001 }
b1001 |
b0 {
b111 z
b0 y
b1111 x
b1000 w
b0 v
b0 u
b0 t
b11111110 s
b0 r
b111 q
b11111110 p
b111 o
b0 n
b111 m
b0 l
b0 k
b1001 j
b1001 i
b0 h
b111 g
b0 f
b1111 e
b1000 d
b0 c
b0 b
bx a
bx `
bx _
bx ^
b10 ]
b1111 \
b1111 [
0Z
b10 Y
b10 X
b10 W
b10 V
b100000000000000 U
b100000000000000 T
b10000000 S
b10000000 R
0Q
0P
b0 O
b11 N
b1001 M
b0 L
b1000 K
b1001 J
b0 I
b1000 H
b100 G
b100 F
b0 E
b10 D
b0 C
0B
0A
0@
0?
0>
0=
1<
b1001 ;
b0 :
b1000 9
08
07
06
15
b1001 4
b0 3
b1000 2
01
00
b0 /
0.
1-
b10 ,
b0 +
b100 *
0)
b0 (
b0 '
b1 &
b0 %
b0 $
b0 #
0"
b0 !
$end
#10
b10000000 !
b10000000 /
b10000000 /"
1.
0"
10
b10000000 }
b10000000 v
0-
17
b10000000 j
b10000000 c
b10000000 %
05
16
b10000000 $
b10000000 (
b10000000 u
0<
1=
b10000000 #
b10000000 '
b10000000 b
b10 &
#20
b11 +
b11 E
b11 ,"
b11 O
1@
1B
1Z
b10011 2"
1P
b111110100000 C
b100 N
b11010000 S
b100111110100000 T
b11 *
b11 F
b11 -"
b11 G
b1 ."
b1001111101000000 U
b11000100 R
b1110 ]
b1110 3"
b1010 :
b1010 L
b1010 f
b100 e
b100 \
0Q
b1110 ,
b1110 D
b1110 +"
b1110 V
b11 9
b11 K
b11 d
b10001 3
b10001 I
b10001 y
b101 x
b101 [
b10 2
b10 H
b10 w
b1110 W
b1110 ;
b1110 M
b1110 i
b1101 X
b1101 Y
b1111 4
b1111 J
b1111 |
b10 g
b10 q
b101 r
b101 t
b1 z
b1 &"
b110 '"
b110 )"
b10011100 %"
b10011100 ("
b11101101 !
b11101101 /
b11101101 /"
b11001010 p
b11001010 s
b1100010 ~
b1100010 #"
b10010011 0"
b100 5"
b1 4"
b11101101 1"
b110100 k
b110100 n
b110001 v
0.
1)
b11010 c
0"
b1111 }
07
b1110 j
b11101101 %
06
b11001111 $
b11001111 (
b11001111 u
0=
b11010 #
b11010 '
b11010 b
b11 &
#30
1@
1B
1Z
b10 ."
b101 N
1P
b10 *
b10 F
b10 -"
b10 G
b0 ]
b0 3"
b0 ,
b0 D
b0 +"
b0 V
b1000100 2"
b0 W
b0 g
b0 q
b1 h
b1 l
b111 r
b111 t
b100 +
b100 E
b100 ,"
b100 O
b1111 X
b101 e
b101 \
b110 m
b110 o
b100111000000 C
b1111 Y
b0 ;
b0 M
b0 i
b10 9
b10 K
b10 d
b1000100 !
b1000100 /
b1000100 /"
b100100111000000 T
b11101100 R
b10001000 %"
b10001000 ("
b1110110 ~
b1110110 #"
18
b1000100 0"
b101 5"
b10 4"
b1000100 1"
b1001001110000000 U
b10100000 S
b1101110 p
b1101110 s
b11011 3
b11011 I
b11011 y
b111011 v
0)
b10010000 k
b10010000 n
0"
b11000101 }
17
b0 j
b1000 :
b1000 L
b1000 f
b1001000 c
b1000100 %
b11000101 $
b11000101 (
b11000101 u
b10111000 #
b10111000 '
b10111000 b
b100 &
#40
b100 N
b110 ."
b11 *
b11 F
b11 -"
b11 G
b1 ]
b1 3"
b1 ,
b1 D
b1 +"
b1 V
b100 e
b100 \
b1 W
b11 9
b11 K
b11 d
b0 X
b0 Y
b1 ;
b1 M
b1 i
b1100010 2"
b10 h
b10 l
b10 +
b10 E
b10 ,"
b10 O
b101 m
b101 o
b100110000000 C
b100100110000000 T
b10011110 !
b10011110 /
b10011110 /"
b11100000 R
b10001110 %"
b10001110 ("
b1001001100000000 U
b10101000 S
b110100 p
b110100 s
b1110000 ~
b1110000 #"
b11100010 0"
b100 5"
b110 4"
b10011110 1"
b11001010 k
b11001010 n
b11000 3
b11000 I
b11000 y
b111000 v
1)
b101 :
b101 L
b101 f
b1100101 c
0"
b11001000 }
07
b1 j
b10011110 %
b11001000 $
b11001000 (
b11001000 u
b1100101 #
b1100101 '
b1100101 b
b101 &
#50
b10 e
b10 \
b101 9
b101 K
b101 d
b1 N
b111110 ."
b11 ;
b11 M
b11 i
b110 *
b110 F
b110 -"
b110 G
b100 ]
b100 3"
b100 X
b100 h
b100 l
b100 ,
b100 D
b100 +"
b100 V
b100 Y
b1 4
b1 J
b1 |
b1111101 2"
b11 m
b11 o
b0 z
b0 &"
0@
0B
0Z
b10 {
b10 !"
b111 '"
b111 )"
b1 +
b1 E
b1 ,"
b1 O
b100 x
b100 [
b100 W
b101 ""
b101 $"
b10011000000000 C
b1111101 !
b1111101 /
b1111101 /"
b11 2
b11 H
b11 w
0P
b110011000000000 T
b10001000 R
b111100 %"
b111100 ("
b1111101 0"
b1 5"
b111110 4"
b1111101 1"
11
b11000010 ~
b11000010 #"
b110011000000000 U
b11000000 S
b1010 p
b1010 s
0)
b1 3
b1 I
b1 y
b1100001 v
b11110100 k
b11110100 n
0"
00
b1 }
b11 j
b10 :
b10 L
b10 f
b1111010 c
b1111101 %
b1100001 $
b1100001 (
b1100001 u
b1111010 #
b1111010 '
b1111010 b
b110 &
#60
0@
0B
0Z
b100 N
b1 ."
b10011 2"
0P
b11 *
b11 F
b11 -"
b11 G
b1110 ]
b1110 3"
b11 +
b11 E
b11 ,"
b11 O
b1110 ,
b1110 D
b1110 +"
b1110 V
b1 z
b1 &"
b0 {
b0 !"
b110 '"
b110 )"
b1 g
b1 q
b101 x
b101 [
b111 ""
b111 $"
b1110 W
b0 h
b0 l
b110 r
b110 t
b1111 4
b1111 J
b1111 |
b10 2
b10 H
b10 w
b11101101 !
b11101101 /
b11101101 /"
b1110 X
b101 e
b101 \
b111000000000 C
b111 m
b111 o
b1110 Y
b1111 ;
b1111 M
b1111 i
b10 9
b10 K
b10 d
b100111000000000 T
01
b10010011 0"
b100 5"
b1 4"
b11101101 1"
b10000000 R
b10111110 %"
b10111110 ("
b100111000000000 U
b10011100 S
b10110000 p
b10110000 s
1)
b1000000 ~
b1000000 #"
08
b1001110 k
b1001110 n
0"
10
b1111 }
b0 3
b0 I
b0 y
b100000 v
b1111 j
b111 :
b111 L
b111 f
b100111 c
b11101101 %
b11100000 $
b11100000 (
b11100000 u
b100111 #
b100111 '
b100111 b
b111 &
#70
b100 N
b100 e
b100 \
b11 *
b11 F
b11 -"
b11 G
b11 9
b11 K
b11 d
b1110 ]
b1110 3"
b1101 X
b1110 ,
b1110 D
b1110 +"
b1110 V
b1101 Y
b1110 ;
b1110 M
b1110 i
b1110 W
b10 g
b10 q
b10100 2"
b101 r
b101 t
1@
1B
1Z
b100 +
b100 E
b100 ,"
b100 O
b10100 !
b10100 /
b10100 /"
1P
b1000010000000 C
b11100000 R
b10001110 %"
b10001110 ("
b101000010000000 T
b10100 0"
b100 5"
b1 4"
b10100 1"
b1110000 ~
b1110000 #"
b1010000100000000 U
b10111000 S
b11010000 p
b11010000 s
0)
b11000 3
b11000 I
b11000 y
b111000 v
b101110 k
b101110 n
0"
00
b111000 }
b1110 j
b111 :
b111 L
b111 f
b10111 c
b10100 %
b111000 $
b111000 (
b111000 u
b10111 #
b10111 '
b10111 b
b1000 &
#80
b10 ."
b10 4"
b101 N
b10 *
b10 F
b10 -"
b10 G
b0 X
b0 Y
b10 4
b10 J
b10 |
b0 ]
b0 3"
b1010011 2"
b0 z
b0 &"
b0 ,
b0 D
b0 +"
b0 V
b11 {
b11 !"
b111 '"
b111 )"
b10011 +
b10011 E
b10011 ,"
b10011 O
b11 x
b11 [
b100 ""
b100 $"
0@
0B
0Z
b10011000000000 C
b100 2
b100 H
b100 w
b10101101 !
b10101101 /
b10101101 /"
b0 W
b110011000000000 T
0P
11
b11010011 0"
b101 5"
b10101101 1"
b11000000 R
b10110 %"
b10110 ("
b110011000000000 U
b10001000 S
b11011100 p
b11011100 s
1)
b11101000 ~
b11101000 #"
b100010 k
b100010 n
0"
10
b10 }
b100 3
b100 I
b100 y
b1110100 v
b10001 j
b1 :
b1 L
b1 f
b10001 c
b10101101 %
b10001100 $
b10001100 (
b10001100 u
b10001 #
b10001 '
b10001 b
b1001 &
#90
0Q
b10 e
b10 \
b0 N
b101 9
b101 K
b101 d
b111 *
b111 F
b111 -"
b111 G
b1100 ;
b1100 M
b1100 i
b1 ."
b1010 ]
b1010 3"
b1010 ,
b1010 D
b1010 +"
b1010 V
b100 g
b100 q
b11 r
b11 t
b1010 W
b11 z
b11 &"
b1 2"
1@
1B
1Z
b0 {
b0 !"
b100 '"
b100 )"
b1001 X
b11 x
b11 [
b111 ""
b111 $"
b0 +
b0 E
b0 ,"
b0 O
b1 !
b1 /
b1 /"
b1001 Y
b1101 4
b1101 J
b1101 |
b100 2
b100 H
b100 w
1P
b100000000 C
b11010000 R
b11100100 %"
b11100100 ("
b100000100000000 T
b1 0"
b0 5"
b1 4"
b1 1"
01
b11010 ~
b11010 #"
b1000001000000000 U
b10100000 S
b11110100 p
b11110100 s
0)
b101 3
b101 I
b101 y
b1101 v
b1010 k
b1010 n
0"
00
b1101 }
b1100 j
b1 :
b1 L
b1 f
b101 c
b1 %
b1101 $
b1101 (
b1101 u
b101 #
b101 '
b101 b
b1010 &
#100
b1 ."
b10110 2"
b110 +
b110 E
b110 ,"
b110 O
b1 4"
b100 N
b11 *
b11 F
b11 -"
b11 G
b1110 ]
b1110 3"
b1110 ,
b1110 D
b1110 +"
b1110 V
b11 z
b11 &"
b0 g
b0 q
0@
0B
0Z
b0 {
b0 !"
b100 '"
b100 )"
b1100000000000 C
b10 h
b10 l
b111 r
b111 t
b11101010 !
b11101010 /
b11101010 /"
b11 x
b11 [
b1110 W
b111 ""
b111 $"
b1110 X
b100 e
b100 \
b101100000000000 T
b101 m
b101 o
b1101 4
b1101 J
b1101 |
b100 2
b100 H
b100 w
0P
b1110 Y
b1 ;
b1 M
b1 i
b11 9
b11 K
b11 d
b10010110 0"
b100 5"
b11101010 1"
b10000000 R
b11101110 %"
b11101110 ("
b101100000000000 U
b10110000 S
b110010 p
b110010 s
1)
01
b10000 ~
b10000 #"
18
b11001100 k
b11001100 n
0"
10
b1101 }
b0 3
b0 I
b0 y
b1000 v
b1 j
b110 :
b110 L
b110 f
b1100110 c
b11101010 %
b11111000 $
b11111000 (
b11111000 u
b1100110 #
b1100110 '
b1100110 b
b1011 &
#110
b10 ."
b101 N
b10 *
b10 F
b10 -"
b10 G
b0 ]
b0 3"
b0 ,
b0 D
b0 +"
b0 V
b1000111 2"
1@
1B
1Z
b0 W
b0 g
b0 q
b111 +
b111 E
b111 ,"
b111 O
b11 h
b11 l
b111 r
b111 t
1P
b1000111 !
b1000111 /
b1000111 /"
b1111 X
b11 e
b11 \
b111000000000 C
b100 m
b100 o
b11010000 R
b11100100 %"
b11100100 ("
b1111 Y
b10 ;
b10 M
b10 i
b100 9
b100 K
b100 d
b100111000000000 T
b11010 ~
b11010 #"
b1000111 0"
b101 5"
b10 4"
b1000111 1"
b1001110000000000 U
b11000000 S
b10110 p
b10110 s
b101 3
b101 I
b101 y
b1101 v
0)
18
b11101000 k
b11101000 n
0"
b11110011 }
17
b10 j
b100 :
b100 L
b100 f
b1110100 c
b1000111 %
b11110011 $
b11110011 (
b11110011 u
b10001100 #
b10001100 '
b10001100 b
b1100 &
#120
b101 x
b101 [
b10 2
b10 H
b10 w
b100 N
b1111 4
b1111 J
b1111 |
b11 *
b11 F
b11 -"
b11 G
b1 ."
b1110 ]
b1110 3"
b1110 ,
b1110 D
b1110 +"
b1110 V
1@
1B
1Z
b1 z
b1 &"
b10001 2"
b110 '"
b110 )"
1P
b1110 W
b1 +
b1 E
b1 ,"
b1 O
b10 g
b10 q
b11000100000 C
b0 h
b0 l
b101 r
b101 t
b1101 X
b100 e
b100 \
b100011000100000 T
b111 m
b111 o
b11101111 !
b11101111 /
b11101111 /"
b1101 Y
b1110 ;
b1110 M
b1110 i
b11 9
b11 K
b11 d
b11001100 R
b10011000 %"
b10011000 ("
b1000110001000000 U
b10110000 S
b11010010 p
b11010010 s
b10010001 0"
b100 5"
b1 4"
b11101111 1"
b1100110 ~
b1100110 #"
08
b101100 k
b101100 n
1)
b10011 3
b10011 I
b10011 y
b110011 v
b110 :
b110 L
b110 f
b10110 c
0"
00
b1111 }
b1110 j
b11101111 %
b110011 $
b110011 (
b110011 u
b11101010 #
b11101010 '
b11101010 b
b1101 &
#130
b101 N
b10 *
b10 F
b10 -"
b10 G
0@
0B
0Z
b1111 ]
b1111 3"
0P
b1111 ,
b1111 D
b1111 +"
b1111 V
b110101 2"
b1111 W
b0 g
b0 q
b10101 +
b10101 E
b10101 ,"
b10101 O
b1 h
b1 l
b111 r
b111 t
b10101110100000 C
b1111 X
b101 e
b101 \
b110 m
b110 o
b110101110100000 T
b110101 !
b110101 /
b110101 /"
b1111 Y
b0 ;
b0 M
b0 i
b10 9
b10 K
b10 d
b10101000 S
b1101010 p
b1101010 s
b110101110100000 U
b10100100 R
b10101100 %"
b10101100 ("
b110101 0"
b101 5"
b1 4"
b110101 1"
18
b10010100 k
b10010100 n
b1010010 ~
b1010010 #"
0)
b1010 :
b1010 L
b1010 f
b1001010 c
0"
b101001 }
b1001 3
b1001 I
b1001 y
b101001 v
07
b0 j
b110101 %
b101001 $
b101001 (
b101001 u
b1001010 #
b1001010 '
b1001010 b
b1110 &
#140
b101 N
b10 *
b10 F
b10 -"
b10 G
b0 4"
b10 ."
b0 ]
b0 3"
b101 5"
b0 ,
b0 D
b0 +"
b0 V
b1111 ;
b1111 M
b1111 i
b1111 X
b1111 Y
b0 4
b0 J
b0 |
b0 W
b1001011 !
b1001011 /
b1001011 /"
b0 z
b0 &"
b1 g
b1 q
b1001011 2"
b1 {
b1 !"
b111 '"
b111 )"
1@
1B
1Z
b0 h
b0 l
b110 r
b110 t
b1001011 1"
b101 x
b101 [
b110 ""
b110 $"
b101 e
b101 \
b111 m
b111 o
b1001011 0"
b1011 +
b1011 E
b1011 ,"
b1011 O
b10 2
b10 H
b10 w
b10 9
b10 K
b10 d
1P
b1011000100000 C
b101011000100000 T
11
b11010100 R
b1010100 %"
b1010100 ("
08
b1010110001000000 U
b11010000 S
b10010110 p
b10010110 s
b10101010 ~
b10101010 #"
b1101000 k
b1101000 n
0"
10
b0 }
b10101 3
b10101 I
b10101 y
b1010101 v
17
b1111 j
b10100 :
b10100 L
b10100 f
b110100 c
b1001011 %
b10101011 $
b10101011 (
b10101011 u
b11001100 #
b11001100 '
b11001100 b
b1111 &
#150
b100 N
b110 ."
b11 *
b11 F
b11 -"
b11 G
b1 ]
b1 3"
b100 5"
b110 4"
b1 ,
b1 D
b1 +"
b1 V
b100 x
b100 [
b1 W
b11 2
b11 H
b11 w
b0 X
b0 Y
b1 4
b1 J
b1 |
b1100100 !
b1100100 /
b1100100 /"
b1100100 2"
b10 {
b10 !"
b1100100 1"
b101 ""
b101 $"
b1100100 0"
b100 +
b100 E
b100 ,"
b100 O
b1000000010000 C
b101000000010000 T
b10101000 R
b110100 %"
b110100 ("
b1010000000100000 U
b11110100 S
b10000100 p
b10000100 s
b11001010 ~
b11001010 #"
b1111010 k
b1111010 n
b101 3
b101 I
b101 y
b1100101 v
b11101 :
b11101 L
b11101 f
b111101 c
0"
b1 }
b11000011 j
b1100100 %
b10011011 $
b10011011 (
b10011011 u
b11000011 #
b11000011 '
b11000011 b
b10000 &
#160
b11 e
b11 \
b100 9
b100 K
b100 d
b101 x
b101 [
b10 2
b10 H
b10 w
b1101 ;
b1101 M
b1101 i
b1101 X
b100 N
b1 ."
b1101 Y
b0 4
b0 J
b0 |
b11 *
b11 F
b11 -"
b11 G
b11000 !
b11000 /
b11000 /"
b1110 ]
b1110 3"
b100 5"
b1 4"
b11000 2"
b11 g
b11 q
b1 {
b1 !"
b1110 ,
b1110 D
b1110 +"
b1110 V
b11000 1"
b100 r
b100 t
b110 ""
b110 $"
b11000 0"
b1000 +
b1000 E
b1000 ,"
b1000 O
1@
1B
1Z
b10000110000000 C
b1110 W
b110000110000000 T
1P
b11010000 R
b1010110 %"
b1010110 ("
b1100001100000000 U
b11110000 S
b11100000 p
b11100000 s
b10101000 ~
b10101000 #"
b11110 k
b11110 n
b10100 3
b10100 I
b10100 y
b1010100 v
b111 :
b111 L
b111 f
b1111 c
0"
00
b0 }
07
b1101 j
b11000 %
b1010100 $
b1010100 (
b1010100 u
b1111 #
b1111 '
b1111 b
b10001 &
#170
b101 e
b101 \
b10 9
b10 K
b10 d
b1110 X
b1 4"
b101 N
b1111 ;
b1111 M
b1111 i
b1110 Y
b1111 4
b1111 J
b1111 |
b10 *
b10 F
b10 -"
b10 G
b1111 ]
b1111 3"
b101001 2"
b1 g
b1 q
b1 z
b1 &"
b1111 ,
b1111 D
b1111 +"
b1111 V
b110 r
b110 t
b0 {
b0 !"
b110 '"
b110 )"
b1001 +
b1001 E
b1001 ,"
b1001 O
b101 x
b101 [
b111 ""
b111 $"
1@
1B
1Z
b1001001000000 C
b10 2
b10 H
b10 w
b11010111 !
b11010111 /
b11010111 /"
b1111 W
b101001001000000 T
1P
01
b10101001 0"
b101 5"
b11010111 1"
b10111100 R
b10100000 %"
b10100000 ("
b1010010010000000 U
b11100000 S
b10001110 p
b10001110 s
1)
b1011110 ~
b1011110 #"
b1110000 k
b1110000 n
0"
10
b1111 }
b1111 3
b1111 I
b1111 y
b101111 v
b1111 j
b11000 :
b11000 L
b11000 f
b111000 c
b11010111 %
b11010001 $
b11010001 (
b11010001 u
b111000 #
b111000 '
b111000 b
b10010 &
#180
b100 x
b100 [
b1110 ."
b11 2
b11 H
b11 w
b1110 4
b1110 J
b1110 |
b11 N
b100 *
b100 F
b100 -"
b100 G
b10 z
b10 &"
b1 X
b101 '"
b101 )"
b1 Y
b11 ;
b11 M
b11 i
b10 ]
b10 3"
b1110100 2"
b0 g
b0 q
b10 ,
b10 D
b10 +"
b10 V
b100 h
b100 l
b111 r
b111 t
b100 +
b100 E
b100 ,"
b100 O
b10 e
b10 \
b11 m
b11 o
1@
1B
1Z
b10001000000000 C
b101 9
b101 K
b101 d
b1110100 !
b1110100 /
b1110100 /"
b10 W
b110001000000000 T
b11100000 R
b11000110 %"
b11000110 ("
1P
b111000 ~
b111000 #"
18
b1110100 0"
b11 5"
b1110 4"
b1110100 1"
b1100010000000000 U
b11100000 S
b1000 p
b1000 s
b1100 3
b1100 I
b1100 y
b11100 v
0)
b11110110 k
b11110110 n
0"
b1110 }
17
b11 j
b11 :
b11 L
b11 f
b1111011 c
b1110100 %
b11100100 $
b11100100 (
b11100100 u
b10000101 #
b10000101 '
b10000101 b
b10011 &
#190
b11110000 S
b111 :
b111 L
b111 f
b11 e
b11 \
b100 9
b100 K
b100 d
0Q
b10 ;
b10 M
b10 i
b11 h
b11 l
b0 N
b1111110 ."
b100 m
b100 o
b111 *
b111 F
b111 -"
b111 G
b1111110 !
b1111110 /
b1111110 /"
b101 ]
b101 3"
b0 5"
b1111110 4"
b1111110 2"
b101 ,
b101 D
b101 +"
b101 V
b1111110 1"
b1111110 0"
b0 +
b0 E
b0 ,"
b0 O
b0 z
b0 &"
1@
1B
1Z
b1110000000 C
b11 {
b11 !"
b111 '"
b111 )"
b100 X
b11 x
b11 [
b101 W
b100001110000000 T
b100 ""
b100 $"
b100 Y
b10 4
b10 J
b10 |
b100 2
b100 H
b100 w
1P
b1000011100000000 U
b10010000 R
b11100 %"
b11100 ("
b10000 p
b10000 s
11
b11100010 ~
b11100010 #"
b11101110 k
b11101110 n
b1 3
b1 I
b1 y
b1110001 v
b1110111 c
0"
b10 }
b10 j
b1111110 %
b10001111 $
b10001111 (
b10001111 u
b10001001 #
b10001001 '
b10001001 b
b10100 &
#200
b1010110 2"
b101 e
b101 \
b10110 +
b10110 E
b10110 ,"
b10110 O
b10 9
b10 K
b10 d
b101 N
b10 ."
b10 *
b10 F
b10 -"
b10 G
b0 ;
b0 M
b0 i
b0 ]
b0 3"
b0 ,
b0 D
b0 +"
b0 V
b1 h
b1 l
b1 z
b1 &"
b110 m
b110 o
b0 {
b0 !"
b110 '"
b110 )"
1@
1B
1Z
b10110011000000 C
b1111 X
b101 x
b101 [
b111 ""
b111 $"
b0 W
b110110011000000 T
b1111 Y
b1111 4
b1111 J
b1111 |
b10 2
b10 H
b10 w
b10101010 !
b10101010 /
b10101010 /"
1P
b11101000 R
b10001010 %"
b10001010 ("
b1101100110000000 U
b11110000 S
b1000110 p
b1000110 s
01
b1110100 ~
b1110100 #"
b11010110 0"
b101 5"
b10 4"
b10101010 1"
b10111000 k
b10111000 n
b11010 3
b11010 I
b11010 y
b111010 v
1)
b11100 :
b11100 L
b11100 f
b1011100 c
0"
b1111 }
07
b0 j
b10101010 %
b11000110 $
b11000110 (
b11000110 u
b1011100 #
b1011100 '
b1011100 b
b10101 &
#210
b10 N
b101 *
b101 F
b101 -"
b101 G
b10 x
b10 [
b101 2
b101 H
b101 w
b1100 X
b1100 Y
b1100 4
b1100 J
b1100 |
b11111001 !
b11111001 /
b11111001 /"
b1 ."
b1100 ]
b1100 3"
b10 5"
b1 4"
b100 z
b100 &"
b11111001 1"
b1100 ,
b1100 D
b1100 +"
b1100 V
b11 '"
b11 )"
b111 2"
0@
0B
0Z
b10000111 0"
b11 +
b11 E
b11 ,"
b11 O
b1100 W
b11001000000000 C
0P
b111001000000000 T
b11000000 R
b11110010 %"
b11110010 ("
b1100 ~
b1100 #"
b111001000000000 U
b10011000 S
b1110010 p
b1110010 s
b10 3
b10 I
b10 y
b110 v
b10001100 k
b10001100 n
0"
b1100 }
b1000110 j
b110 :
b110 L
b110 f
b1000110 c
b11111001 %
b11111010 $
b11111010 (
b11111010 u
b1000110 #
b1000110 '
b1000110 b
b10110 &
