waveforms/tb_mul_P32E2.vcd
$date
	Fri Dec 24 09:48:47 2021
$end
$version
	Icarus Verilog
$end
$timescale
	1s
$end
$scope module tb_mul $end
$var wire 32 ! pout [31:0] $end
$var reg 1 " diff_pout $end
$var reg 32 # p1 [31:0] $end
$var reg 32 $ p2 [31:0] $end
$var reg 32 % pout_expected [31:0] $end
$var reg 33 & test_no [32:0] $end
$scope module mul_inst $end
$var wire 32 ' p1 [31:0] $end
$var wire 32 ( p2 [31:0] $end
$var wire 1 ) pout_sign $end
$var wire 6 * pout_reg_len [5:0] $end
$var wire 32 + pout_mant [31:0] $end
$var wire 6 , pout_k [5:0] $end
$var wire 1 - pout_is_zero $end
$var wire 1 . pout_is_inf $end
$var wire 2 / pout_exp [1:0] $end
$var wire 32 0 pout [31:0] $end
$var wire 1 1 p2_sign $end
$var wire 1 2 p2_reg_s $end
$var wire 6 3 p2_reg_len [5:0] $end
$var wire 32 4 p2_mant [31:0] $end
$var wire 6 5 p2_k [5:0] $end
$var wire 1 6 p2_is_zero $end
$var wire 1 7 p2_is_inf $end
$var wire 2 8 p2_exp [1:0] $end
$var wire 1 9 p1_sign $end
$var wire 1 : p1_reg_s $end
$var wire 6 ; p1_reg_len [5:0] $end
$var wire 32 < p1_mant [31:0] $end
$var wire 6 = p1_k [5:0] $end
$var wire 1 > p1_is_zero $end
$var wire 1 ? p1_is_inf $end
$var wire 2 @ p1_exp [1:0] $end
$scope module mul_core_inst $end
$var wire 64 A _mant_fractional_part_left_1 [63:0] $end
$var wire 1 . pout_is_inf $end
$var wire 1 - pout_is_zero $end
$var wire 6 B pout_k [5:0] $end
$var wire 32 C pout_mant [31:0] $end
$var wire 6 D pout_reg_len [5:0] $end
$var wire 1 ) pout_sign $end
$var wire 6 E reg_len [5:0] $end
$var wire 2 F pout_exp [1:0] $end
$var wire 1 1 p2_sign $end
$var wire 1 2 p2_reg_s $end
$var wire 6 G p2_reg_len [5:0] $end
$var wire 32 H p2_mant [31:0] $end
$var wire 6 I p2_k [5:0] $end
$var wire 1 6 p2_is_zero $end
$var wire 1 7 p2_is_inf $end
$var wire 2 J p2_exp [1:0] $end
$var wire 1 9 p1_sign $end
$var wire 1 : p1_reg_s $end
$var wire 6 K p1_reg_len [5:0] $end
$var wire 32 L p1_mant [31:0] $end
$var wire 6 M p1_k [5:0] $end
$var wire 1 > p1_is_zero $end
$var wire 1 ? p1_is_inf $end
$var wire 2 N p1_exp [1:0] $end
$var wire 6 O mant_len [5:0] $end
$var wire 32 P mant_fractional_part_left [31:0] $end
$var wire 1 Q mant_carry $end
$var wire 1 R k_is_oob $end
$var wire 32 S f2 [31:0] $end
$var wire 32 T f1 [31:0] $end
$var wire 64 U _mant_2 [63:0] $end
$var wire 64 V _mant_1 [63:0] $end
$var wire 6 W _k_4 [5:0] $end
$var wire 6 X _k_3 [5:0] $end
$var wire 6 Y _k_2 [5:0] $end
$var wire 6 Z _k_1 [5:0] $end
$var wire 1 [ _exp_carry_2 $end
$var wire 1 \ _exp_carry_1 $end
$var wire 3 ] _exp_4 [2:0] $end
$var wire 3 ^ _exp_3 [2:0] $end
$var wire 3 _ _exp_2 [2:0] $end
$var wire 3 ` _exp_1 [2:0] $end
$var wire 6 a F2 [5:0] $end
$var wire 6 b F1 [5:0] $end
$scope function c2 $end
$var reg 32 c a [31:0] $end
$upscope $end
$scope function max $end
$var reg 32 d a [31:0] $end
$var reg 32 e b [31:0] $end
$upscope $end
$scope function min $end
$var reg 32 f a [31:0] $end
$var reg 32 g b [31:0] $end
$upscope $end
$upscope $end
$scope module posit_decode_p1 $end
$var wire 32 h bits [31:0] $end
$var wire 32 i u_bits [31:0] $end
$var wire 1 9 sign $end
$var wire 1 : reg_s $end
$var wire 6 j reg_len [5:0] $end
$var wire 6 k mant_len [5:0] $end
$var wire 32 l mant [31:0] $end
$var wire 5 m leading_zeros [4:0] $end
$var wire 5 n leading_ones [4:0] $end
$var wire 6 o k [5:0] $end
$var wire 1 > is_zero $end
$var wire 1 ? is_inf $end
$var wire 2 p exp [1:0] $end
$scope function c2 $end
$var reg 32 q a [31:0] $end
$upscope $end
$scope module clo_inst_o $end
$var wire 32 r bits [31:0] $end
$var wire 5 s leading_ones [4:0] $end
$var wire 5 t index_highest_set [4:0] $end
$scope module highest_set_inst $end
$var wire 32 u bits [31:0] $end
$var wire 5 v index [4:0] $end
$scope begin _gen[0] $end
$upscope $end
$scope begin _gen[1] $end
$upscope $end
$scope begin _gen[2] $end
$upscope $end
$scope begin _gen[3] $end
$upscope $end
$scope begin _gen[4] $end
$upscope $end
$scope begin _gen[5] $end
$upscope $end
$scope begin _gen[6] $end
$upscope $end
$scope begin _gen[7] $end
$upscope $end
$scope begin _gen[8] $end
$upscope $end
$scope begin _gen[9] $end
$upscope $end
$scope begin _gen[10] $end
$upscope $end
$scope begin _gen[11] $end
$upscope $end
$scope begin _gen[12] $end
$upscope $end
$scope begin _gen[13] $end
$upscope $end
$scope begin _gen[14] $end
$upscope $end
$scope begin _gen[15] $end
$upscope $end
$scope begin _gen[16] $end
$upscope $end
$scope begin _gen[17] $end
$upscope $end
$scope begin _gen[18] $end
$upscope $end
$scope begin _gen[19] $end
$upscope $end
$scope begin _gen[20] $end
$upscope $end
$scope begin _gen[21] $end
$upscope $end
$scope begin _gen[22] $end
$upscope $end
$scope begin _gen[23] $end
$upscope $end
$scope begin _gen[24] $end
$upscope $end
$scope begin _gen[25] $end
$upscope $end
$scope begin _gen[26] $end
$upscope $end
$scope begin _gen[27] $end
$upscope $end
$scope begin _gen[28] $end
$upscope $end
$scope begin _gen[29] $end
$upscope $end
$scope begin _gen[30] $end
$upscope $end
$scope begin _gen[31] $end
$upscope $end
$upscope $end
$upscope $end
$scope module clo_inst_z $end
$var wire 32 w bits [31:0] $end
$var wire 5 x leading_ones [4:0] $end
$var wire 5 y index_highest_set [4:0] $end
$scope module highest_set_inst $end
$var wire 32 z bits [31:0] $end
$var wire 5 { index [4:0] $end
$scope begin _gen[0] $end
$upscope $end
$scope begin _gen[1] $end
$upscope $end
$scope begin _gen[2] $end
$upscope $end
$scope begin _gen[3] $end
$upscope $end
$scope begin _gen[4] $end
$upscope $end
$scope begin _gen[5] $end
$upscope $end
$scope begin _gen[6] $end
$upscope $end
$scope begin _gen[7] $end
$upscope $end
$scope begin _gen[8] $end
$upscope $end
$scope begin _gen[9] $end
$upscope $end
$scope begin _gen[10] $end
$upscope $end
$scope begin _gen[11] $end
$upscope $end
$scope begin _gen[12] $end
$upscope $end
$scope begin _gen[13] $end
$upscope $end
$scope begin _gen[14] $end
$upscope $end
$scope begin _gen[15] $end
$upscope $end
$scope begin _gen[16] $end
$upscope $end
$scope begin _gen[17] $end
$upscope $end
$scope begin _gen[18] $end
$upscope $end
$scope begin _gen[19] $end
$upscope $end
$scope begin _gen[20] $end
$upscope $end
$scope begin _gen[21] $end
$upscope $end
$scope begin _gen[22] $end
$upscope $end
$scope begin _gen[23] $end
$upscope $end
$scope begin _gen[24] $end
$upscope $end
$scope begin _gen[25] $end
$upscope $end
$scope begin _gen[26] $end
$upscope $end
$scope begin _gen[27] $end
$upscope $end
$scope begin _gen[28] $end
$upscope $end
$scope begin _gen[29] $end
$upscope $end
$scope begin _gen[30] $end
$upscope $end
$scope begin _gen[31] $end
$upscope $end
$upscope $end
$upscope $end
$upscope $end
$scope module posit_decode_p2 $end
$var wire 32 | bits [31:0] $end
$var wire 32 } u_bits [31:0] $end
$var wire 1 1 sign $end
$var wire 1 2 reg_s $end
$var wire 6 ~ reg_len [5:0] $end
$var wire 6 !" mant_len [5:0] $end
$var wire 32 "" mant [31:0] $end
$var wire 5 #" leading_zeros [4:0] $end
$var wire 5 $" leading_ones [4:0] $end
$var wire 6 %" k [5:0] $end
$var wire 1 6 is_zero $end
$var wire 1 7 is_inf $end
$var wire 2 &" exp [1:0] $end
$scope function c2 $end
$var reg 32 '" a [31:0] $end
$upscope $end
$scope module clo_inst_o $end
$var wire 32 (" bits [31:0] $end
$var wire 5 )" leading_ones [4:0] $end
$var wire 5 *" index_highest_set [4:0] $end
$scope module highest_set_inst $end
$var wire 32 +" bits [31:0] $end
$var wire 5 ," index [4:0] $end
$scope begin _gen[0] $end
$upscope $end
$scope begin _gen[1] $end
$upscope $end
$scope begin _gen[2] $end
$upscope $end
$scope begin _gen[3] $end
$upscope $end
$scope begin _gen[4] $end
$upscope $end
$scope begin _gen[5] $end
$upscope $end
$scope begin _gen[6] $end
$upscope $end
$scope begin _gen[7] $end
$upscope $end
$scope begin _gen[8] $end
$upscope $end
$scope begin _gen[9] $end
$upscope $end
$scope begin _gen[10] $end
$upscope $end
$scope begin _gen[11] $end
$upscope $end
$scope begin _gen[12] $end
$upscope $end
$scope begin _gen[13] $end
$upscope $end
$scope begin _gen[14] $end
$upscope $end
$scope begin _gen[15] $end
$upscope $end
$scope begin _gen[16] $end
$upscope $end
$scope begin _gen[17] $end
$upscope $end
$scope begin _gen[18] $end
$upscope $end
$scope begin _gen[19] $end
$upscope $end
$scope begin _gen[20] $end
$upscope $end
$scope begin _gen[21] $end
$upscope $end
$scope begin _gen[22] $end
$upscope $end
$scope begin _gen[23] $end
$upscope $end
$scope begin _gen[24] $end
$upscope $end
$scope begin _gen[25] $end
$upscope $end
$scope begin _gen[26] $end
$upscope $end
$scope begin _gen[27] $end
$upscope $end
$scope begin _gen[28] $end
$upscope $end
$scope begin _gen[29] $end
$upscope $end
$scope begin _gen[30] $end
$upscope $end
$scope begin _gen[31] $end
$upscope $end
$upscope $end
$upscope $end
$scope module clo_inst_z $end
$var wire 32 -" bits [31:0] $end
$var wire 5 ." leading_ones [4:0] $end
$var wire 5 /" index_highest_set [4:0] $end
$scope module highest_set_inst $end
$var wire 32 0" bits [31:0] $end
$var wire 5 1" index [4:0] $end
$scope begin _gen[0] $end
$upscope $end
$scope begin _gen[1] $end
$upscope $end
$scope begin _gen[2] $end
$upscope $end
$scope begin _gen[3] $end
$upscope $end
$scope begin _gen[4] $end
$upscope $end
$scope begin _gen[5] $end
$upscope $end
$scope begin _gen[6] $end
$upscope $end
$scope begin _gen[7] $end
$upscope $end
$scope begin _gen[8] $end
$upscope $end
$scope begin _gen[9] $end
$upscope $end
$scope begin _gen[10] $end
$upscope $end
$scope begin _gen[11] $end
$upscope $end
$scope begin _gen[12] $end
$upscope $end
$scope begin _gen[13] $end
$upscope $end
$scope begin _gen[14] $end
$upscope $end
$scope begin _gen[15] $end
$upscope $end
$scope begin _gen[16] $end
$upscope $end
$scope begin _gen[17] $end
$upscope $end
$scope begin _gen[18] $end
$upscope $end
$scope begin _gen[19] $end
$upscope $end
$scope begin _gen[20] $end
$upscope $end
$scope begin _gen[21] $end
$upscope $end
$scope begin _gen[22] $end
$upscope $end
$scope begin _gen[23] $end
$upscope $end
$scope begin _gen[24] $end
$upscope $end
$scope begin _gen[25] $end
$upscope $end
$scope begin _gen[26] $end
$upscope $end
$scope begin _gen[27] $end
$upscope $end
$scope begin _gen[28] $end
$upscope $end
$scope begin _gen[29] $end
$upscope $end
$scope begin _gen[30] $end
$upscope $end
$scope begin _gen[31] $end
$upscope $end
$upscope $end
$upscope $end
$upscope $end
$scope module posit_encode_inst $end
$var wire 2 2" exp [1:0] $end
$var wire 1 . is_inf $end
$var wire 1 - is_zero $end
$var wire 6 3" k [5:0] $end
$var wire 32 4" mant [31:0] $end
$var wire 6 5" reg_len [5:0] $end
$var wire 1 ) sign $end
$var wire 33 6" regime_bits [32:0] $end
$var wire 32 7" posit [31:0] $end
$var wire 32 8" bits_assembled [31:0] $end
$var wire 32 9" bits [31:0] $end
$scope function c2 $end
$var reg 32 :" a [31:0] $end
$upscope $end
$scope function is_negative $end
$var reg 6 ;" k [5:0] $end
$upscope $end
$scope function shl $end
$var reg 32 <" bits [31:0] $end
$var reg 32 =" rhs [31:0] $end
$upscope $end
$upscope $end
$upscope $end
$upscope $end
$enddefinitions $end
#0
$dumpvars
b11011 ="
b1110 <"
b10 ;"
b1110000000000000000000000000000 :"
b1110000000000000000000000000000 9"
b1110000000000000000000000000000 8"
b0 7"
b1110 6"
b100 5"
b0 4"
b10 3"
b0 2"
b0 1"
b11111111111111111111111111111110 0"
b0 /"
b11111 ."
b11111111111111111111111111111110 -"
b11111 ,"
b0 +"
b11111 *"
b0 )"
b0 ("
b100001 '"
b0 &"
b100001 %"
b0 $"
b11111 #"
b0 ""
b111101 !"
b100000 ~
b0 }
b0 |
b0 {
b11111111111111111111111111111110 z
b0 y
b11111 x
b11111111111111111111111111111110 w
b11111 v
b0 u
b11111 t
b0 s
b0 r
b100001 q
b0 p
b100001 o
b0 n
b11111 m
b0 l
b111101 k
b100000 j
b0 i
b0 h
bx g
bx f
bx e
bx d
b10 c
b111101 b
b111101 a
b0 `
b0 _
b0 ^
b0 ]
0\
0[
b10 Z
b10 Y
b10 X
b10 W
b100000000000000000000000000000000000000000000000000000000000000 V
b100000000000000000000000000000000000000000000000000000000000000 U
b10000000000000000000000000000000 T
b10000000000000000000000000000000 S
0R
0Q
b0 P
b11001 O
b0 N
b100001 M
b0 L
b100000 K
b0 J
b100001 I
b0 H
b100000 G
b0 F
b100 E
b100 D
b0 C
b10 B
b0 A
b0 @
0?
1>
b100001 =
b0 <
b100000 ;
0:
09
b0 8
07
16
b100001 5
b0 4
b100000 3
02
01
b0 0
b0 /
0.
1-
b10 ,
b0 +
b100 *
0)
b0 (
b0 '
b1 &
b0 %
b0 $
b0 #
0"
b0 !
$end
#10
b10000000000000000000000000000000 !
b10000000000000000000000000000000 0
b10000000000000000000000000000000 7"
1.
0"
11
b10000000000000000000000000000000 '"
b10000000000000000000000000000000 }
0-
19
b10000000000000000000000000000000 q
b10000000000000000000000000000000 i
b10000000000000000000000000000000 %
06
17
b10000000000000000000000000000000 $
b10000000000000000000000000000000 (
b10000000000000000000000000000000 |
0>
1?
b10000000000000000000000000000000 #
b10000000000000000000000000000000 '
b10000000000000000000000000000000 h
b10 &
#20
b100101011111001001000010111 +
b100101011111001001000010111 C
b100101011111001001000010111 4"
b100101011111001001000010111 P
0[
1Q
1\
b11001101001000101101100011100000 T
b10 @
b10 N
b10 p
b10011010010001011011000111 <
b10011010010001011011000111 L
b10011010010001011011000111 l
b11010 k
b11010 b
b11 ;
b11 K
b11 j
b111110 =
b111110 M
b111110 o
b1 /
b1 F
b1 2"
b11011 O
b101100101011111001001000010111 :"
b1 ]
b10010101111100100100001011101100000010100000010111011100000000 A
b10 *
b10 D
b10 5"
b10 E
b1 6"
b10 m
b10 x
b1 ^
b110010101111100100100001011101100000010100000010111011100000000 U
b111111 c
b111111 ;"
b11101 y
b11101 {
b0 _
b1100101011111001001000010111011000000101000000101110111000000000 V
b11111101010011001111110100010000 S
0R
b111111 ,
b111111 B
b111111 3"
b111111 W
b100 `
b10 8
b10 J
b10 &"
b111110101001100111111010001 4
b111110101001100111111010001 H
b111110101001100111111010001 ""
b0 #"
b0 ."
b111111 X
b1 $"
b1 )"
b11111 /"
b11111 1"
b111111 Y
b11011 !"
b11011 a
b11110 *"
b11110 ,"
b111110 Z
b0 5
b0 I
b0 %"
b10 3
b10 G
b10 ~
b1010000010101100110000001011100 -"
b1010000010101100110000001011100 0"
b11010011010100000110110111101001 !
b11010011010100000110110111101001 0
b11010011010100000110110111101001 7"
b11001011001011011101001001110000 w
b11001011001011011101001001110000 z
12
b10101111101010011001111110100010 ("
b10101111101010011001111110100010 +"
b10101100101011111001001000010111 8"
b11101 ="
b1 <"
b11010011010100000110110111101001 9"
b110100110100100010110110001110 r
b110100110100100010110110001110 u
b1010111110101001100111111010001 }
0.
1)
b11010011010010001011011000111 i
0"
b0 '"
09
b111110 q
b11010011010100000110110111101001 %
07
b10101000001010110011000000101111 $
b10101000001010110011000000101111 (
b10101000001010110011000000101111 |
0?
b11010011010010001011011000111 #
b11010011010010001011011000111 '
b11010011010010001011011000111 h
b11 &
#30
b11000 O
0[
b101 *
b101 D
b101 5"
b101 E
b11000 !"
b11000 a
b101 3
b101 G
b101 ~
b10000110011011100000110010111010 !
b10000110011011100000110010111010 0
b10000110011011100000110010111010 7"
b11110 6"
b11 5
b11 I
b11 %"
b11 c
b11 ;"
0\
b10000110011011100000110010111010 9"
b11010 ="
b11110 <"
b11 ,
b11 B
b11 3"
b11 W
b100 $"
b100 )"
b0 _
b1111001100100011111001101000110 :"
b1 /
b1 F
b1 2"
b11011 *"
b11011 ,"
b0 m
b0 x
b1 ]
b1 n
b1 s
b11111 y
b11111 {
b11111001100100011111001101000110 8"
b100100011111001101000110 +
b100100011111001101000110 C
b100100011111001101000110 4"
b100100011111001101000110 P
b1 ^
b11 X
b11 Y
b11011 k
b11011 b
b11110 t
b11110 v
b10010001111100110100011010100101000011110110011110000000000000 A
1Q
b11 Z
b0 =
b0 M
b0 o
b10 ;
b10 K
b10 j
b110010001111100110100011010100101000011110110011110000000000000 U
b0 8
b0 J
b0 &"
b11010001001110111101010000000000 S
b1110101110110001000010101110 -"
b1110101110110001000010101110 0"
b0 `
b0 @
b0 N
b0 p
b11110001010001001110111101010000 ("
b11110001010001001110111101010000 +"
1:
b1100100011111001101000110101001010000111101100111100000000000000 V
b11110101111001010100001100110000 T
b1110001010000110101011110011000 w
b1110001010000110101011110011000 z
b101000100111011110101000 4
b101000100111011110101000 H
b101000100111011110101000 ""
b1111000101000100111011110101000 }
b10001110101111001010100001100110 r
b10001110101111001010100001100110 u
0"
01
b11 '"
19
b0 q
b111010111100101010000110011 <
b111010111100101010000110011 L
b111010111100101010000110011 l
b1000111010111100101010000110011 i
b10000110011011100000110010111010 %
b1111000101000100111011110101000 $
b1111000101000100111011110101000 (
b1111000101000100111011110101000 |
b10111000101000011010101111001101 #
b10111000101000011010101111001101 '
b10111000101000011010101111001101 h
b100 &
#40
0Q
0\
b1 @
b1 N
b1 p
b11011 O
b10 6"
b11010 k
b11010 b
b10 *
b10 D
b10 5"
b10 E
b11 ;
b11 K
b11 j
b0 c
b0 ;"
b10100000101111000000101110000101 !
b10100000101111000000101110000101 0
b10100000101111000000101110000101 7"
b0 ,
b0 B
b0 3"
b0 W
b1 =
b1 M
b1 o
b10100000101111000000101110000101 9"
b11101 ="
b10 <"
b1011111010000111111010001111011 :"
b10 n
b10 s
b0 X
b11 /
b11 F
b11 2"
b1 #"
b1 ."
b11101 t
b11101 v
0[
b11 ]
b0 $"
b0 )"
b11110 /"
b11110 1"
b11011111010000111111010001111011 8"
b111010000111111010001111011 +
b111010000111111010001111011 C
b111010000111111010001111011 4"
b111010000111111010001111011 P
b0 Y
b11011 !"
b11011 a
b11 ^
b11111 *"
b11111 ,"
b11101000011111101000111101111001011001110001010010001000000000 A
b0 Z
b111111 5
b111111 I
b111111 %"
b10 3
b10 G
b10 ~
b11 _
b111101000011111101000111101111001011001110001010010001000000000 U
b11 `
b10 8
b10 J
b10 &"
b10101100100000100101010100100000 T
b110101001101111101101010101100 w
b110101001101111101101010101100 z
02
b111101000011111101000111101111001011001110001010010001000000000 V
b10110101001110101001101010010000 S
b10011001010110001010110010101100 -"
b10011001010110001010110010101100 0"
b11001010110010000010010101010010 r
b11001010110010000010010101010010 u
b1100110101001110101001101010010 ("
b1100110101001110101001101010010 +"
b1011001000001001010101001 <
b1011001000001001010101001 L
b1011001000001001010101001 l
b1100101011001000001001010101001 i
0"
11
b111111 '"
b11010100111010100110101001 4
b11010100111010100110101001 H
b11010100111010100110101001 ""
b110011010100111010100110101001 }
09
b1 q
b10100000101111000000101110000101 %
b11001100101011000101011001010111 $
b11001100101011000101011001010111 (
b11001100101011000101011001010111 |
b1100101011001000001001010101001 #
b1100101011001000001001010101001 '
b1100101011001000001001010101001 h
b101 &
#50
b11010 !"
b11010 a
b11 3
b11 G
b11 ~
b11000 k
b11000 b
b101 ;
b101 K
b101 j
b111110 5
b111110 I
b111110 %"
b11001 O
b1110 6"
b1 Z
b11 =
b11 M
b11 o
b100 *
b100 D
b100 5"
b100 E
b10001101110101110101000111000011 !
b10001101110101110101000111000011 0
b10001101110101110101000111000011 7"
b10 c
b10 ;"
b10 #"
b10 ."
b100 n
b100 s
b10 ,
b10 B
b10 3"
b10 W
b11101 /"
b11101 1"
b10001101110101110101000111000011 9"
b11011 t
b11011 v
b11011 ="
b1110 <"
b1110010001010001010111000111101 :"
b1 /
b1 F
b1 2"
b10 X
0[
b1 ]
b11110010001010001010111000111101 8"
b1010001010111000111101 +
b1010001010111000111101 C
b1010001010111000111101 4"
b1010001010111000111101 P
b10 Y
b1 ^
b10100010101110001111011001011110111101111010001100000000000 A
b10 8
b10 J
b10 &"
b10101101011111000110010000100000 S
b11001101001010000011100110111100 -"
b11001101001010000011100110111100 0"
1\
b0 _
1Q
b100010100010101110001111011001011110111101111010001100000000000 U
b110010110101111100011001000010 ("
b110010110101111100011001000010 +"
b100 `
b10 @
b10 N
b10 p
b1000101000101011100011110110010111101111011110100011000000000000 V
b11001011111000110010000110000000 T
b1010110100000111001101111000 w
b1010110100000111001101111000 z
b1011010111110001100100001 4
b1011010111110001100100001 H
b1011010111110001100100001 ""
b11001011010111110001100100001 }
b11110101001011111000110010000110 r
b11110101001011111000110010000110 u
0"
b111110 '"
b11 q
b100101111100011001000011 <
b100101111100011001000011 L
b100101111100011001000011 l
b1111010100101111100011001000011 i
b10001101110101110101000111000011 %
b11100110100101000001110011011111 $
b11100110100101000001110011011111 (
b11100110100101000001110011011111 |
b1111010100101111100011001000011 #
b1111010100101111100011001000011 '
b1111010100101111100011001000011 h
b110 &
#60
b11011 O
1[
b10 *
b10 D
b10 5"
b10 E
b10 6"
b10111100101101101100011111010111 !
b10111100101101101100011111010111 0
b10111100101101101100011111010111 7"
b0 c
b0 ;"
b0 ,
b0 B
b0 3"
b0 W
b10111100101101101100011111010111 9"
b11 8
b11 J
b11 &"
b11101 ="
b10 <"
b1000011010010010011100000101001 :"
b0 #"
b0 ."
b0 /
b0 F
b0 2"
b1 $"
b1 )"
b11111 /"
b11111 1"
b0 X
0\
b0 ]
b11000011010010010011100000101001 8"
b11010010010011100000101001 +
b11010010010011100000101001 C
b11010010010011100000101001 4"
b11010010010011100000101001 P
b1 m
b1 x
b11011 !"
b11011 a
b11110 *"
b11110 ,"
b100 ^
b1101001001001110000010100110010111111100000110111101000000000 A
b0 n
b0 s
b11110 y
b11110 {
b0 5
b0 I
b0 %"
b10 3
b10 G
b10 ~
b111111 Y
b11011 k
b11011 b
b11 _
b101101001001001110000010100110010111111100000110111101000000000 U
b11111 t
b11111 v
b10111000010110000100101000100000 S
b1001000111101001111011010111010 -"
b1001000111101001111011010111010 0"
b111111 Z
b111111 =
b111111 M
b111111 o
b10 ;
b10 K
b10 j
12
b10110111000010110000100101000100 ("
b10110111000010110000100101000100 +"
b11 `
b0 @
b0 N
b0 p
b1011010010010011100000101001100101111111000001101111010000000000 V
b11111010110001000011010110100000 T
b10110000101001110111100101001010 w
b10110000101001110111100101001010 z
b11100001011000010010100010 4
b11100001011000010010100010 H
b11100001011000010010100010 ""
b1011011100001011000010010100010 }
0:
b1001111010110001000011010110100 r
b1001111010110001000011010110100 u
0"
b0 '"
b111111 q
b111101011000100001101011010 <
b111101011000100001101011010 L
b111101011000100001101011010 l
b100111101011000100001101011010 i
b10111100101101101100011111010111 %
b10100100011110100111101101011110 $
b10100100011110100111101101011110 (
b10100100011110100111101101011110 |
b100111101011000100001101011010 #
b100111101011000100001101011010 '
b100111101011000100001101011010 h
b111 &
#70
0Q
b11010 k
b11010 b
b11 ;
b11 K
b11 j
b11010 O
b1 6"
b11 *
b11 D
b11 5"
b11 E
b111110 Z
b111110 =
b111110 M
b111110 o
b111110 c
b111110 ;"
b111110 ,
b111110 B
b111110 3"
b111110 W
b11111101000111010101000111100 :"
b10 m
b10 x
b11 /
b11 F
b11 2"
b11101 y
b11101 {
b111110 X
0[
b11 ]
b11101000111010101000111100 +
b11101000111010101000111100 C
b11101000111010101000111100 4"
b11101000111010101000111100 P
b11101000111010101000111100011111001010001101010010110000000000 A
b11111101000111010101000111100 !
b11111101000111010101000111100 0
b11111101000111010101000111100 7"
b111110 Y
b11 ^
b111101000111010101000111100011111001010001101010010110000000000 U
b10 8
b10 J
b10 &"
b10001010011001000110010100100000 S
b1011110101100110111001101011010 -"
b1011110101100110111001101011010 0"
0\
b11 _
b11111101000111010101000111100 8"
b11100 ="
b1 <"
b11111101000111010101000111100 9"
b10100001010011001000110010100100 ("
b10100001010011001000110010100100 +"
b11 `
b1 @
b1 N
b1 p
b111101000111010101000111100011111001010001101010010110000000000 V
b11100010000110011110101001100000 T
b11010001110111100110000101011000 w
b11010001110111100110000101011000 z
0)
b101001100100011001010010 4
b101001100100011001010010 H
b101001100100011001010010 ""
b1010000101001100100011001010010 }
b101110001000011001111010100110 r
b101110001000011001111010100110 u
0"
01
b1010000101001100100011001010010 '"
b111110 q
b11000100001100111101010011 <
b11000100001100111101010011 L
b11000100001100111101010011 l
b10111000100001100111101010011 i
b11111101000111010101000111100 %
b1010000101001100100011001010010 $
b1010000101001100100011001010010 (
b1010000101001100100011001010010 |
b10111000100001100111101010011 #
b10111000100001100111101010011 '
b10111000100001100111101010011 h
b1000 &
#80
b11001 O
b100 *
b100 D
b100 5"
b100 E
0[
b111101 c
b111101 ;"
b111101 ,
b111101 B
b111101 3"
b111101 W
b111101 X
b111101 Y
b111101 Z
b111111 5
b111111 I
b111111 %"
b1 #"
b1 ."
b1 <"
b1100011010111001110100110010 :"
b0 $"
b0 )"
b11110 /"
b11110 1"
b10 /
b10 F
b10 2"
b11011 !"
b11011 a
b11111 *"
b11111 ,"
b10 ]
b11010111001110100110010 +
b11010111001110100110010 C
b11010111001110100110010 4"
b11010111001110100110010 P
b10 3
b10 G
b10 ~
1Q
b11110011100101000110001011001110 !
b11110011100101000110001011001110 0
b11110011100101000110001011001110 7"
b10 ^
b110101110011101001100100111000000110111000000000100100000000 A
b1 8
b1 J
b1 &"
b1 _
b100110101110011101001100100111000000110111000000000100100000000 U
02
b10001100011010111001110100110010 8"
b11011 ="
b11110011100101000110001011001110 9"
b11110110011110001101010110010000 S
b10100001001100001110010101001100 -"
b10100001001100001110010101001100 0"
b1 `
b0 @
b0 N
b0 p
b1001101011100111010011001001110000001101110000000001001000000000 V
b10100000111001000100011000100000 T
b11011101111100011011101110011100 w
b11011101111100011011101110011100 z
1)
b1011110110011110001101010110010 ("
b1011110110011110001101010110010 +"
b100010000011100100010001100010 r
b100010000011100100010001100010 u
0"
11
b111111 '"
b111011001111000110101011001 4
b111011001111000110101011001 H
b111011001111000110101011001 ""
b101111011001111000110101011001 }
b10001000001110010001000110001 q
b1000001110010001000110001 <
b1000001110010001000110001 L
b1000001110010001000110001 l
b10001000001110010001000110001 i
b11110011100101000110001011001110 %
b11010000100110000111001010100111 $
b11010000100110000111001010100111 (
b11010000100110000111001010100111 |
b10001000001110010001000110001 #
b10001000001110010001000110001 '
b10001000001110010001000110001 h
b1001 &
#90
b11010 O
b11000 k
b11000 b
b11 *
b11 D
b11 5"
b11 E
b1 6"
b101 ;
b101 K
b101 j
b111110 c
b111110 ;"
b111110 ,
b111110 B
b111110 3"
b111110 W
b111100 =
b111100 M
b111100 o
b111110 X
b100 m
b100 x
1[
b111101 Y
b11011 y
b11011 {
b111101 Z
b1 5
b1 I
b1 %"
b10000000010001010001010111011 :"
b0 #"
b0 ."
b10 8
b10 J
b10 &"
b10 $"
b10 )"
b11111 /"
b11111 1"
b0 /
b0 F
b0 2"
b10001010001010111011 +
b10001010001010111011 C
b10001010001010111011 4"
b10001010001010111011 P
b11010 !"
b11010 a
b11101 *"
b11101 ,"
b0 ]
b10001010001010111011000111111011011101101100000000000000 A
b10000000010001010001010111011 !
b10000000010001010001010111011 0
b10000000010001010001010111011 7"
b11 3
b11 G
b11 ~
1Q
b100 ^
b100000010001010001010111011000111111011011101101100000000000000 U
b11110000100011010001100100000000 S
b101000111101110010111001101110 -"
b101000111101110010111001101110 0"
b11 _
b10000000010001010001010111011 8"
b11100 ="
b1 <"
b10000000010001010001010111011 9"
12
b11010111000010001101000110010000 ("
b11010111000010001101000110010000 +"
b11 `
b1 @
b1 N
b1 p
b1000000100010100010101110110001111110110111011011000000000000000 V
b10001001010111101000100110000000 T
b11110101110110101000010111011000 w
b11110101110110101000010111011000 z
0)
b11100001000110100011001000 4
b11100001000110100011001000 H
b11100001000110100011001000 ""
b1101011100001000110100011001000 }
b1010001001010111101000100110 r
b1010001001010111101000100110 u
0"
01
b1 '"
b111100 q
b100101011110100010011 <
b100101011110100010011 L
b100101011110100010011 l
b101000100101011110100010011 i
b10000000010001010001010111011 %
b1101011100001000110100011001000 $
b1101011100001000110100011001000 (
b1101011100001000110100011001000 |
b101000100101011110100010011 #
b101000100101011110100010011 '
b101000100101011110100010011 h
b1010 &
