waveforms/tb_mul_P8E0.vcd
$date
	Mon Dec 20 09:42:00 2021
$end
$version
	Icarus Verilog
$end
$timescale
	1s
$end
$scope module tb_mul $end
$var wire 8 ! pout [7:0] $end
$var reg 1 " diff_pout $end
$var reg 8 # p1 [7:0] $end
$var reg 8 $ p2 [7:0] $end
$var reg 8 % pout_expected [7:0] $end
$var reg 9 & test_no [8:0] $end
$scope module mul_inst $end
$var wire 8 ' p1 [7:0] $end
$var wire 2 ( p1_exp [-1:0] $end
$var wire 8 ) p2 [7:0] $end
$var wire 2 * p2_exp [-1:0] $end
$var wire 2 + pout_exp [-1:0] $end
$var wire 3 , pout_reg_len [2:0] $end
$var wire 1 - pout_reg_s $end
$var wire 8 . pout_regime_bits [7:0] $end
$var wire 1 / pout_sign $end
$var wire 8 0 pout_mant [7:0] $end
$var wire 8 1 pout_k [7:0] $end
$var wire 1 2 pout_is_zero $end
$var wire 1 3 pout_is_inf $end
$var wire 8 4 pout [7:0] $end
$var wire 1 5 p2_sign $end
$var wire 1 6 p2_reg_s $end
$var wire 3 7 p2_reg_len [2:0] $end
$var wire 8 8 p2_reg_bits [7:0] $end
$var wire 8 9 p2_mant [7:0] $end
$var wire 8 : p2_k [7:0] $end
$var wire 1 ; p2_is_zero $end
$var wire 1 < p2_is_inf $end
$var wire 1 = p1_sign $end
$var wire 1 > p1_reg_s $end
$var wire 3 ? p1_reg_len [2:0] $end
$var wire 8 @ p1_reg_bits [7:0] $end
$var wire 8 A p1_mant [7:0] $end
$var wire 8 B p1_k [7:0] $end
$var wire 1 C p1_is_zero $end
$var wire 1 D p1_is_inf $end
$scope module mul_core_inst $end
$var wire 8 E exp [7:0] $end
$var wire 1 F exp_carry $end
$var wire 1 G exp_carry_I $end
$var wire 16 H mant_fraction_only [15:0] $end
$var wire 1 3 pout_is_inf $end
$var wire 1 2 pout_is_zero $end
$var wire 8 I pout_k [7:0] $end
$var wire 8 J pout_mant [7:0] $end
$var wire 3 K pout_reg_len [2:0] $end
$var wire 1 - pout_reg_s $end
$var wire 8 L pout_regime_bits [7:0] $end
$var wire 1 / pout_sign $end
$var wire 3 M reg_len [2:0] $end
$var wire 16 N prod_mantissae_adjusted [15:0] $end
$var wire 16 O prod_mantissae [15:0] $end
$var wire 1 5 p2_sign $end
$var wire 8 P p2_regime_bits [7:0] $end
$var wire 1 6 p2_reg_s $end
$var wire 3 Q p2_reg_len [2:0] $end
$var wire 8 R p2_mant [7:0] $end
$var wire 8 S p2_k [7:0] $end
$var wire 1 ; p2_is_zero $end
$var wire 1 < p2_is_inf $end
$var wire 1 = p1_sign $end
$var wire 8 T p1_regime_bits [7:0] $end
$var wire 1 > p1_reg_s $end
$var wire 3 U p1_reg_len [2:0] $end
$var wire 8 V p1_mant [7:0] $end
$var wire 8 W p1_k [7:0] $end
$var wire 1 C p1_is_zero $end
$var wire 1 D p1_is_inf $end
$var wire 8 X mant_len [7:0] $end
$var wire 1 Y mant_carry $end
$var wire 8 Z k_adjusted_III [7:0] $end
$var wire 8 [ k_adjusted_II [7:0] $end
$var wire 8 \ k_adjusted_I [7:0] $end
$var wire 8 ] k [7:0] $end
$var wire 8 ^ final_mant [7:0] $end
$var wire 8 _ f2 [7:0] $end
$var wire 8 ` f1 [7:0] $end
$var wire 8 a exp_adjusted_III [7:0] $end
$var wire 8 b exp_adjusted_II [7:0] $end
$var wire 8 c exp_adjusted_I [7:0] $end
$var wire 3 d F2 [2:0] $end
$var wire 3 e F1 [2:0] $end
$scope function max $end
$var reg 8 f a [7:0] $end
$var reg 8 g b [7:0] $end
$upscope $end
$scope function min $end
$var reg 8 h a [7:0] $end
$var reg 8 i b [7:0] $end
$upscope $end
$upscope $end
$scope module posit_decode_p1 $end
$var wire 8 j bits [7:0] $end
$var wire 2 k exp [-1:0] $end
$var wire 8 l u_bits [7:0] $end
$var wire 1 = sign $end
$var wire 8 m regime_bits [7:0] $end
$var wire 1 > reg_s $end
$var wire 3 n reg_len [2:0] $end
$var wire 8 o mant [7:0] $end
$var wire 3 p leading_zeros [2:0] $end
$var wire 3 q leading_ones [2:0] $end
$var wire 8 r k [7:0] $end
$var wire 1 C is_zero $end
$var wire 1 D is_inf $end
$scope function c2 $end
$var reg 8 s a [7:0] $end
$upscope $end
$scope function min $end
$var reg 8 t a [7:0] $end
$var reg 8 u b [7:0] $end
$upscope $end
$scope module clo_inst_o $end
$var wire 8 v bits [7:0] $end
$var wire 3 w leading_ones [2:0] $end
$var wire 3 x index_highest_set [2:0] $end
$scope module highest_set_inst $end
$var wire 8 y bits [7:0] $end
$var wire 3 z index [2:0] $end
$scope begin _gen[0] $end
$upscope $end
$scope begin _gen[1] $end
$upscope $end
$scope begin _gen[2] $end
$upscope $end
$scope begin _gen[3] $end
$upscope $end
$scope begin _gen[4] $end
$upscope $end
$scope begin _gen[5] $end
$upscope $end
$scope begin _gen[6] $end
$upscope $end
$scope begin _gen[7] $end
$upscope $end
$upscope $end
$upscope $end
$scope module clo_inst_z $end
$var wire 8 { bits [7:0] $end
$var wire 3 | leading_ones [2:0] $end
$var wire 3 } index_highest_set [2:0] $end
$scope module highest_set_inst $end
$var wire 8 ~ bits [7:0] $end
$var wire 3 !" index [2:0] $end
$scope begin _gen[0] $end
$upscope $end
$scope begin _gen[1] $end
$upscope $end
$scope begin _gen[2] $end
$upscope $end
$scope begin _gen[3] $end
$upscope $end
$scope begin _gen[4] $end
$upscope $end
$scope begin _gen[5] $end
$upscope $end
$scope begin _gen[6] $end
$upscope $end
$scope begin _gen[7] $end
$upscope $end
$upscope $end
$upscope $end
$upscope $end
$scope module posit_decode_p2 $end
$var wire 8 "" bits [7:0] $end
$var wire 2 #" exp [-1:0] $end
$var wire 8 $" u_bits [7:0] $end
$var wire 1 5 sign $end
$var wire 8 %" regime_bits [7:0] $end
$var wire 1 6 reg_s $end
$var wire 3 &" reg_len [2:0] $end
$var wire 8 '" mant [7:0] $end
$var wire 3 (" leading_zeros [2:0] $end
$var wire 3 )" leading_ones [2:0] $end
$var wire 8 *" k [7:0] $end
$var wire 1 ; is_zero $end
$var wire 1 < is_inf $end
$scope function c2 $end
$var reg 8 +" a [7:0] $end
$upscope $end
$scope function min $end
$var reg 8 ," a [7:0] $end
$var reg 8 -" b [7:0] $end
$upscope $end
$scope module clo_inst_o $end
$var wire 8 ." bits [7:0] $end
$var wire 3 /" leading_ones [2:0] $end
$var wire 3 0" index_highest_set [2:0] $end
$scope module highest_set_inst $end
$var wire 8 1" bits [7:0] $end
$var wire 3 2" index [2:0] $end
$scope begin _gen[0] $end
$upscope $end
$scope begin _gen[1] $end
$upscope $end
$scope begin _gen[2] $end
$upscope $end
$scope begin _gen[3] $end
$upscope $end
$scope begin _gen[4] $end
$upscope $end
$scope begin _gen[5] $end
$upscope $end
$scope begin _gen[6] $end
$upscope $end
$scope begin _gen[7] $end
$upscope $end
$upscope $end
$upscope $end
$scope module clo_inst_z $end
$var wire 8 3" bits [7:0] $end
$var wire 3 4" leading_ones [2:0] $end
$var wire 3 5" index_highest_set [2:0] $end
$scope module highest_set_inst $end
$var wire 8 6" bits [7:0] $end
$var wire 3 7" index [2:0] $end
$scope begin _gen[0] $end
$upscope $end
$scope begin _gen[1] $end
$upscope $end
$scope begin _gen[2] $end
$upscope $end
$scope begin _gen[3] $end
$upscope $end
$scope begin _gen[4] $end
$upscope $end
$scope begin _gen[5] $end
$upscope $end
$scope begin _gen[6] $end
$upscope $end
$scope begin _gen[7] $end
$upscope $end
$upscope $end
$upscope $end
$upscope $end
$scope module posit_encode_inst $end
$var wire 2 8" exp [-1:0] $end
$var wire 1 3 is_inf $end
$var wire 1 2 is_zero $end
$var wire 8 9" k [7:0] $end
$var wire 8 :" mant [7:0] $end
$var wire 3 ;" reg_len [2:0] $end
$var wire 1 - reg_s $end
$var wire 8 <" regime_bits [7:0] $end
$var wire 1 / sign $end
$var wire 8 =" posit [7:0] $end
$var wire 8 >" bits_assembled [7:0] $end
$var wire 8 ?" bits [7:0] $end
$scope function c2 $end
$var reg 8 @" a [7:0] $end
$upscope $end
$scope function shl $end
$var reg 8 A" bits [7:0] $end
$var reg 8 B" rhs [7:0] $end
$upscope $end
$upscope $end
$upscope $end
$upscope $end
$enddefinitions $end
#0
$dumpvars
b111 B"
b0 A"
b0xxxxxxx @"
bx ?"
bx >"
bx ="
b0 <"
b0 ;"
b110 :"
b0 9"
bz 8"
b110 7"
b10101000 6"
b110 5"
b1 4"
b10101000 3"
b111 2"
b1010110 1"
b111 0"
b0 /"
b1010110 ."
b111 -"
b10 ,"
b11111111 +"
b11111111 *"
b0 )"
b1 ("
b1011 '"
b10 &"
b1 %"
b101011 $"
b0 #"
b101011 ""
b111 !"
b100100 ~
b111 }
b0 |
b100100 {
b101 z
b11011010 y
b101 x
b10 w
b11011010 v
b111 u
b0 t
b1 s
b1 r
b10 q
b0 p
b1101 o
b11 n
b110 m
b1101101 l
b0 k
b1101101 j
b110 i
b0 h
b11111010 g
b0 f
b100 e
b101 d
b0 c
b1 b
b1 a
b11101000 `
b10101100 _
b110 ^
b0 ]
b0 \
b0 [
b0 Z
1Y
b101 X
b1 W
b1101 V
b11 U
b110 T
b11111111 S
b1011 R
b10 Q
b1 P
b1001101111100000 O
b100110111110000 N
b10 M
b0 L
b0 K
b110 J
b0 I
b110111110000 H
0G
0F
b0 E
0D
0C
b1 B
b1101 A
b110 @
b11 ?
1>
0=
0<
0;
b11111111 :
b1011 9
b1 8
b10 7
06
05
bx 4
03
02
b0 1
b110 0
0/
b0 .
0-
b0 ,
bz +
b0 *
b101011 )
b0 (
b1101101 '
b1 &
b11010100 %
b101011 $
b1101101 #
x"
bx !
$end
#10
b101 X
b1 ,"
b10 M
b0 :
b0 S
b0 *"
b0 ("
b0 4"
b1 )"
b1 /"
b111 5"
b111 7"
b0 1
b0 I
b0 9"
b0 Z
b11010 0
b11010 J
b11010 :"
b11010 ^
b0 p
b0 |
b101 d
b110 0"
b110 2"
b0 h
b0 f
b1 a
b11010001000000 H
b1 q
b1 w
b111 }
b111 !"
b10 7
b10 Q
b10 &"
b0 [
b101 e
b1 b
b111010001000000 N
b110 x
b110 z
b1 t
b0 \
b10 ?
b10 U
b10 n
1Y
16
b10 8
b10 P
b10 %"
b11111000 _
b1000010 3"
b1000010 6"
b0 ]
b0 B
b0 W
b0 r
b1110100010000000 O
b11110000 `
b1000110 {
b1000110 ~
b10111100 ."
b10111100 1"
1>
b10 @
b10 T
b10 m
b10111000 v
b10111000 y
15
b0 +"
b11110 9
b11110 R
b11110 '"
b1011110 $"
1=
b0 s
b11100 A
b11100 V
b11100 o
b1011100 l
b1110000 %
b10100010 $
b10100010 )
b10100010 ""
b10100100 #
b10100100 '
b10100100 j
b10 &
#20
b100 X
b11 M
b100 e
b1 1
b1 I
b1 9"
b1 Z
b11 ?
b11 U
b11 n
b1 h
b1 f
b1 [
b0 t
b1 \
b1 ]
b1 B
b1 W
b1 r
b10 q
b10 w
b100 0
b100 J
b100 :"
b100 ^
b101 x
b101 z
b1000101000000 H
b101000101000000 N
b11010000 _
b1010110 3"
b1010110 6"
b1010001010000000 O
b11001000 `
b101100 {
b101100 ~
b10101000 ."
b10101000 1"
b1 A"
b110 @
b110 T
b110 m
b11010010 v
b11010010 y
b10100 9
b10100 R
b10100 '"
b1010100 $"
1/
b1001 A
b1001 V
b1001 o
b1101001 l
b10101100 +"
0=
b1 s
b1101101 %
b10101100 $
b10101100 )
b10101100 ""
b1101001 #
b1101001 '
b1101001 j
b11 &
#30
b100 d
b11 7
b11 Q
b11 &"
b0 ,"
b1 :
b1 S
b1 *"
b100 X
b10 )"
b10 /"
b11 M
b101 0"
b101 2"
b1 1
b1 I
b1 9"
b1 Z
b1011 0
b1011 J
b1011 :"
b1011 ^
b0 p
b0 |
b1 h
b1 f
b1 a
b10111001000000 H
b1 q
b1 w
b111 }
b111 !"
b1 [
b101 e
b1 b
b110111001000000 N
b110 x
b110 z
b11100000 _
b100110 3"
b100110 6"
b1 t
b1 \
b10 ?
b10 U
b10 n
1Y
b110 8
b110 P
b110 %"
b11011000 ."
b11011000 1"
b0 A"
b1 ]
b0 B
b0 W
b0 r
b1101110010000000 O
b11111100 `
b1000000 {
b1000000 ~
b1100 9
b1100 R
b1100 '"
b1101100 $"
0/
1>
b10 @
b10 T
b10 m
b10111110 v
b10111110 y
b1 +"
1=
b0 s
b11111 A
b11111 V
b11111 o
b1011111 l
b11000011 %
b10010100 $
b10010100 )
b10010100 ""
b10100001 #
b10100001 '
b10100001 j
b100 &
#40
b1 X
b10 d
b110 M
b101 7
b101 Q
b101 &"
b100 e
b100 1
b100 I
b100 9"
b100 Z
b11111110 ,"
b11 ?
b11 U
b11 n
b100 h
b100 f
b11 :
b11 S
b11 *"
b100 [
b100 )"
b100 /"
b0 t
b100 \
b11 0"
b11 2"
b100 ]
b1 B
b1 W
b1 r
b10 q
b10 w
b1 0
b1 J
b1 :"
b1 ^
b101 x
b101 z
b0 a
b11100000000000 H
b0 b
b111100000000000 N
0Y
b11000000 _
b1010 3"
b1010 6"
b111100000000000 O
b10100000 `
b110110 {
b110110 ~
b11110 8
b11110 P
b11110 %"
b11110100 ."
b11110100 1"
b110 @
b110 T
b110 m
b11001000 v
b11001000 y
b10 9
b10 R
b10 '"
b1111010 $"
b100 A
b100 V
b100 o
b1100100 l
05
b11 +"
0=
b1 s
b111110 %
b1111010 $
b1111010 )
b1111010 ""
b1100100 #
b1100100 '
b1100100 j
b101 &
#50
b100 X
b11 M
b0 ("
b0 4"
b1 1
b1 I
b1 9"
b1 Z
b0 p
b0 |
b11101000 _
b1 )"
b1 /"
b111 5"
b111 7"
b1 h
b1 f
b1 a
b110 0
b110 J
b110 :"
b110 ^
b10 q
b10 w
b111 }
b111 !"
b101 d
b110 0"
b110 2"
b1 [
b100 e
b1 b
b1101010100000 H
b101 x
b101 z
b1 ,"
b11010 9
b11010 R
b11010 '"
b10 7
b10 Q
b10 &"
b0 t
b1 \
b11 ?
b11 U
b11 n
1Y
b101101010100000 N
b0 :
b0 S
b0 *"
b1001010 3"
b1001010 6"
b1 ]
b1 B
b1 W
b1 r
b1011010101000000 O
b11001000 `
b101100 {
b101100 ~
16
b10 8
b10 P
b10 %"
b10110100 ."
b10110100 1"
1>
b110 @
b110 T
b110 m
b11010010 v
b11010010 y
15
b0 +"
b1011010 $"
1=
b1 s
b1001 A
b1001 V
b1001 o
b1101001 l
b1011001 %
b10100110 $
b10100110 )
b10100110 ""
b10010111 #
b10010111 '
b10010111 j
b110 &
#60
b100 X
b11 M
b100 d
b101 e
b1 1
b1 I
b1 9"
b1 Z
b11 7
b11 Q
b11 &"
b10 ?
b10 U
b10 n
b1 h
b1 f
b1 [
b0 ,"
b1 t
b1 \
b1 :
b1 S
b1 *"
b1 ]
b0 B
b0 W
b0 r
b10 )"
b10 /"
b1 q
b1 w
b101 0"
b101 2"
b11 0
b11 J
b11 :"
b11 ^
b110 x
b110 z
b1 a
b111000000000 H
b1 b
b100111000000000 N
1Y
b11000000 _
b101110 3"
b101110 6"
b1001110000000000 O
b11010000 `
b1010110 {
b1010110 ~
b110 8
b110 P
b110 %"
b11010000 ."
b11010000 1"
b10 @
b10 T
b10 m
b10101000 v
b10101000 y
b1000 9
b1000 R
b1000 '"
b1101000 $"
b10100 A
b10100 V
b10100 o
b1010100 l
b1 +"
b0 s
b1100010 %
b10011000 $
b10011000 )
b10011000 ""
b10101100 #
b10101100 '
b10101100 j
b111 &
#70
b111 X
b11 t
b0 M
b11111110 B
b11111110 W
b11111110 r
b110 1
b110 I
b110 9"
b110 Z
b111 ("
b111 4"
b0 0
b0 J
b0 :"
b0 ^
b10 p
b10 |
b11110111 h
b11110111 f
b0 a
b0 )"
b0 /"
b0 5"
b0 7"
b0 H
b0 q
b0 w
b101 }
b101 !"
b11110111 [
b0 d
b0 b
b111 0"
b111 2"
b100 e
b100000000000000 N
b111 x
b111 z
b1000 ,"
b11110111 \
b111 7
b111 Q
b111 &"
0Y
b11 ?
b11 U
b11 n
b11110111 ]
b11111001 :
b11111001 S
b11111001 *"
b10000000 _
b11111110 3"
b11111110 6"
b100000000000000 O
b10000000 `
b11011110 {
b11011110 ~
0"
06
b0 8
b0 P
b0 %"
b0 ."
b0 1"
0>
b1 @
b1 T
b1 m
b100000 v
b100000 y
b0 !
b0 4
b0 ="
b0 9
b0 R
b0 '"
b0 $"
b0 A
b0 V
b0 o
b10000 l
12
05
b11111001 +"
0=
b11111110 s
b0 %
1;
b0 $
b0 )
b0 ""
b10000 #
b10000 '
b10000 j
b1000 &
#80
b1 a
b1 b
1Y
b10 e
b10110000 _
b101 ?
b101 U
b101 n
b101 d
b1100 9
b1100 R
b1100 '"
b10 7
b10 Q
b10 &"
b11111011 h
b11111011 f
b101 t
b11111011 [
b11111100 B
b11111100 W
b11111100 r
b10 ,"
b11111011 \
b11111011 ]
b11111111 :
b11111111 S
b11111111 *"
b100 p
b100 |
b11 }
b11 !"
b1 ("
b1 4"
b110 5"
b110 7"
b11010 0
b11010 J
b11010 :"
b11010 ^
b110100000000 H
b100110100000000 N
b10100110 3"
b10100110 6"
b1001101000000000 O
b11100000 `
b11110000 {
b11110000 ~
bx !
bx 4
bx ="
b1 8
b1 P
b1 %"
b1011000 ."
b1011000 1"
b1 @
b1 T
b1 m
b1110 v
b1110 y
x"
02
b11111111 +"
b101100 $"
b11111100 s
b11 A
b11 V
b11 o
b111 l
b111100 %
0;
b101100 $
b101100 )
b101100 ""
b111 #
b111 '
b111 j
b1001 &
#90
b0 e
b111 ?
b111 U
b111 n
b1000 t
b100 d
b11111001 B
b11111001 W
b11111001 r
b11 7
b11 Q
b11 &"
b11110111 h
b11110111 f
b111 p
b111 |
b11110111 [
b0 }
b0 !"
b11 ,"
b11110111 \
b11110111 ]
b11111110 :
b11111110 S
b11111110 *"
b10 ("
b10 4"
b101 5"
b101 7"
b1001000 0
b1001000 J
b1001000 :"
b1001000 ^
b0 a
b10010000000000 H
b0 b
b110010000000000 N
0Y
b11001000 _
b11001100 3"
b11001100 6"
0"
b110010000000000 O
b10000000 `
b11111110 {
b11111110 ~
b1 8
b1 P
b1 %"
b110010 ."
b110010 1"
b0 !
b0 4
b0 ="
b0 @
b0 T
b0 m
b0 v
b0 y
b11111110 +"
b1001 9
b1001 R
b1001 '"
b11001 $"
12
b11111001 s
b0 A
b0 V
b0 o
b0 l
b0 %
b11001 $
b11001 )
b11001 ""
1C
b0 #
b0 '
b0 j
b1010 &
#100
b101 X
b10 M
b0 1
b0 I
b0 9"
b0 Z
b0 a
b0 b
0Y
b11001000 `
b0 ("
b0 4"
b101 e
b10 )"
b10 /"
b111 5"
b111 7"
b10010 A
b10010 V
b10010 o
b10 ?
b10 U
b10 n
b1 p
b1 |
b100 d
b101 0"
b101 2"
b11110 0
b11110 J
b11110 :"
b11110 ^
b0 h
b0 f
b0 q
b0 w
b110 }
b110 !"
b0 ,"
b11 7
b11 Q
b11 &"
b11110100000000 H
b0 [
b111 x
b111 z
b1 :
b1 S
b1 *"
b111110100000000 N
b10 t
b0 \
16
b110 8
b110 P
b110 %"
b111110100000000 O
b10100000 _
b110110 3"
b110110 6"
b0 ]
b11111111 B
b11111111 W
b11111111 r
b10011010 {
b10011010 ~
b11001000 ."
b11001000 1"
bx !
bx 4
bx ="
0>
b1 @
b1 T
b1 m
b1100100 v
b1100100 y
x"
15
b1 +"
b100 9
b100 R
b100 '"
b1100100 $"
02
1=
b11111111 s
b110010 l
b1011100 %
b10011100 $
b10011100 )
b10011100 ""
0C
b11001110 #
b11001110 '
b11001110 j
b1011 &
#110
b111 X
b0 M
b1 t
b110 1
b110 I
b110 9"
b110 Z
b1 ("
b1 4"
b0 B
b0 W
b0 r
b0 p
b0 |
b11111111 h
b11111111 f
b0 )"
b0 /"
b110 5"
b110 7"
b1 a
b10011 0
b10011 J
b10011 :"
b10011 ^
b1 q
b1 w
b111 }
b111 !"
b11111111 [
b101 d
b111 0"
b111 2"
b101 e
b1 b
b100111000000 H
b110 x
b110 z
b10 ,"
b11111111 \
b10 7
b10 Q
b10 &"
b10 ?
b10 U
b10 n
1Y
b100100111000000 N
b11111111 ]
b11111111 :
b11111111 S
b11111111 *"
b10100000 _
b10101110 3"
b10101110 6"
b1001001110000000 O
b11101100 `
b1001000 {
b1001000 ~
b1 A"
06
b1 8
b1 P
b1 %"
b1010000 ."
b1010000 1"
1>
b10 @
b10 T
b10 m
b10110110 v
b10110110 y
1/
b1000 9
b1000 R
b1000 '"
b101000 $"
b11011 A
b11011 V
b11011 o
b1011011 l
05
b11111111 +"
b0 s
b1010101 %
b101000 $
b101000 )
b101000 ""
b10100101 #
b10100101 '
b10100101 j
b1100 &
#120
b111 X
b0 M
b110 1
b110 I
b110 9"
b110 Z
b11111010 h
b11111010 f
b1000 t
b0 ,"
b11111010 [
b11111001 B
b11111001 W
b11111001 r
b11111010 \
b11111001 s
b11111010 ]
b1 :
b1 S
b1 *"
b0 ("
b0 4"
b111 p
b111 |
b10 )"
b10 /"
b111 5"
b111 7"
b101000 0
b101000 J
b101000 :"
b101000 ^
b0 a
b0 q
b0 w
b0 }
b0 !"
b100 d
b101 0"
b101 2"
b1010000000000 H
b0 e
b0 b
b111 x
b111 z
b11 7
b11 Q
b11 &"
b101010000000000 N
b111 ?
b111 U
b111 n
0Y
b10000000 `
b11111110 {
b11111110 ~
16
b101010000000000 O
b10101000 _
b110100 3"
b110100 6"
0"
0>
b0 @
b0 T
b0 m
b0 v
b0 y
b110 8
b110 P
b110 %"
b11001010 ."
b11001010 1"
b0 !
b0 4
b0 ="
b0 A
b0 V
b0 o
b0 l
15
b1 +"
b101 9
b101 R
b101 '"
b1100101 $"
12
0=
b0 %
b10011011 $
b10011011 )
b10011011 ""
1C
b0 #
b0 '
b0 j
b1101 &
#130
b10100000 `
b100 e
b100 A
b100 V
b100 o
b11 ?
b11 U
b11 n
b11 t
b11111110 B
b11111110 W
b11111110 r
b10 p
b10 |
b1010010 0
b1010010 J
b1010010 :"
b1010010 ^
b101 }
b101 !"
b10100100000000 H
b110100100000000 N
b10 ("
b10 4"
b11111100 h
b11111100 f
b110100100000000 O
b10101000 _
b0 )"
b0 /"
b101 5"
b101 7"
b11111100 [
b100 d
b111 0"
b111 2"
b11 ,"
b11111100 \
b101 9
b101 R
b101 '"
b11 7
b11 Q
b11 &"
b11111100 ]
b11111110 :
b11111110 S
b11111110 *"
b11010100 3"
b11010100 6"
b0 A"
06
b1 8
b1 P
b1 %"
b101010 ."
b101010 1"
b11010110 {
b11010110 ~
0/
b10101 $"
bx !
bx 4
bx ="
b1 @
b1 T
b1 m
b101000 v
b101000 y
x"
05
b11111110 +"
02
b11111110 s
b10100 l
b101010 %
b10101 $
b10101 )
b10101 ""
0C
b10100 #
b10100 '
b10100 j
b1110 &
#140
b111 X
b0 M
b110 1
b110 I
b110 9"
b110 Z
b0 ("
b0 4"
b1 )"
b1 /"
b111 5"
b111 7"
b10 p
b10 |
b101 d
b110 0"
b110 2"
b11111110 h
b11111110 f
b1 a
b110 0
b110 J
b110 :"
b110 ^
b0 q
b0 w
b101 }
b101 !"
b1 ,"
b10 7
b10 Q
b10 &"
b11111110 [
b100 e
b1 b
b1101100000 H
b111 x
b111 z
b0 :
b0 S
b0 *"
b11 t
b11111110 \
b11 ?
b11 U
b11 n
1Y
b100001101100000 N
16
b11000100 _
b1011100 3"
b1011100 6"
b11111110 ]
b11111110 B
b11111110 W
b11111110 r
b1000011011000000 O
b10110000 `
b11010010 {
b11010010 ~
b10 8
b10 P
b10 %"
b10100010 ."
b10100010 1"
0>
b1 @
b1 T
b1 m
b101100 v
b101100 y
15
b0 +"
b10001 9
b10001 R
b10001 '"
b1010001 $"
1=
b11111110 s
b110 A
b110 V
b110 o
b10110 l
b1010100 %
b10101111 $
b10101111 )
b10101111 ""
b11101010 #
b11101010 '
b11101010 j
b1111 &
#150
b111 X
b0 M
b110 1
b110 I
b110 9"
b110 Z
b1000 ,"
b11111001 :
b11111001 S
b11111001 *"
b11111001 +"
b111 ("
b111 4"
b100000 0
b100000 J
b100000 :"
b100000 ^
b0 p
b0 |
b0 )"
b0 /"
b0 5"
b0 7"
b11111011 h
b11111011 f
b0 a
b1000000000000 H
b11 q
b11 w
b111 }
b111 !"
b0 d
b111 0"
b111 2"
b11111011 [
b11 e
b0 b
b101000000000000 N
b100 x
b100 z
b111 7
b111 Q
b111 &"
b11111111 t
b11111011 \
b100 ?
b100 U
b100 n
0Y
b10000000 _
b11111110 3"
b11111110 6"
b11111011 ]
b10 B
b10 W
b10 r
b101000000000000 O
b10100000 `
b11010 {
b11010 ~
0"
06
b0 8
b0 P
b0 %"
b0 ."
b0 1"
1>
b1110 @
b1110 T
b1110 m
b11100100 v
b11100100 y
b0 !
b0 4
b0 ="
b0 9
b0 R
b0 '"
b0 $"
b10 A
b10 V
b10 o
b1110010 l
12
05
0=
b10 s
b0 %
1;
b0 $
b0 )
b0 ""
b1110010 #
b1110010 '
b1110010 j
b10000 &
#160
b1 a
b1 b
1Y
b11110000 _
b101 d
b11100 9
b11100 R
b11100 '"
b10 7
b10 Q
b10 &"
b10 ,"
b11111111 :
b11111111 S
b11111111 *"
b1 ("
b1 4"
b110 5"
b110 7"
b10 p
b10 |
b11111101 h
b11111101 f
b0 q
b0 w
b101 }
b101 !"
b11111101 [
b100 e
b111 x
b111 z
b1101000 0
b1101000 J
b1101000 :"
b1101000 ^
b11 t
b11111101 \
b11 ?
b11 U
b11 n
b11010001000000 H
b11111101 ]
b11111110 B
b11111110 W
b11111110 r
b111010001000000 N
b10000110 3"
b10000110 6"
0>
b1 A"
b1110100010000000 O
b11111000 `
b11000000 {
b11000000 ~
bx !
bx 4
bx ="
b1 8
b1 P
b1 %"
b1111000 ."
b1111000 1"
1/
b1 @
b1 T
b1 m
b111110 v
b111110 y
x"
02
b11111111 +"
b111100 $"
1=
b11111110 s
b1111 A
b1111 V
b1111 o
b11111 l
b1010111 %
0;
b111100 $
b111100 )
b111100 ""
b11100001 #
b11100001 '
b11100001 j
b10001 &
#170
b111 X
b0 M
b110 1
b110 I
b110 9"
b110 Z
b11111111 h
b11111111 f
b11111111 [
b0 ,"
b11111111 \
b110000 0
b110000 J
b110000 :"
b110000 ^
b11111111 ]
b1 :
b1 S
b1 *"
b0 ("
b0 4"
b0 a
b1100000000000 H
b10 )"
b10 /"
b111 5"
b111 7"
b0 b
b100 d
b101100000000000 N
b101 0"
b101 2"
0Y
b11 7
b11 Q
b11 &"
b10000000 `
b11011110 {
b11011110 ~
b101100000000000 O
b10110000 _
b110010 3"
b110010 6"
b0 A"
b100000 v
b100000 y
16
b110 8
b110 P
b110 %"
b11001100 ."
b11001100 1"
0/
b0 A
b0 V
b0 o
b10000 l
b1 +"
b110 9
b110 R
b110 '"
b1100110 $"
0=
b10000 s
b11100100 %
b1100110 $
b1100110 )
b1100110 ""
b10000 #
b10000 '
b10000 j
b10010 &
#180
b1 a
b1 b
1Y
b111 X
b0 M
b1 ("
b1 4"
b0 )"
b0 /"
b110 5"
b110 7"
b110 1
b110 I
b110 9"
b110 Z
b1 p
b1 |
b101 d
b111 0"
b111 2"
b10110 0
b10110 J
b10110 :"
b10110 ^
b11111110 h
b11111110 f
b11000000 `
b0 q
b0 w
b110 }
b110 !"
b10 ,"
b10 7
b10 Q
b10 &"
b101100000000 H
b11111110 [
b101 e
b111 x
b111 z
b11111111 :
b11111111 S
b11111111 *"
b100101100000000 N
b10 t
b11111110 \
b10000 A
b10000 V
b10000 o
b10 ?
b10 U
b10 n
06
b1001011000000000 O
b11001000 _
b10011010 3"
b10011010 6"
b11111110 ]
b11111111 B
b11111111 W
b11111111 r
b10011110 {
b10011110 ~
b1 8
b1 P
b1 %"
b1100100 ."
b1100100 1"
0>
b1 @
b1 T
b1 m
b1100000 v
b1100000 y
15
b11111111 +"
b10010 9
b10010 R
b10010 '"
b110010 $"
1=
b11111111 s
b110000 l
b1101100 %
b11001110 $
b11001110 )
b11001110 ""
b11010000 #
b11010000 '
b11010000 j
b10011 &
#190
b0 a
b0 b
0Y
b100 d
b11 7
b11 Q
b11 &"
b11111101 h
b11111101 f
b11111101 [
b11 ,"
b11111101 \
b11111101 ]
b11111110 :
b11111110 S
b11111110 *"
b10 ("
b10 4"
b101 5"
b101 7"
b1110111 0
b1110111 J
b1110111 :"
b1110111 ^
b11101110000000 H
b111101110000000 N
b10011000 _
b11011000 3"
b11011000 6"
b111101110000000 O
b11010000 `
b10010110 {
b10010110 ~
b1 8
b1 P
b1 %"
b100110 ."
b100110 1"
b1101000 v
b1101000 y
b11 9
b11 R
b11 '"
b10011 $"
b10100 A
b10100 V
b10100 o
b110100 l
05
b11111110 +"
0=
b110100 s
b10001 %
b10011 $
b10011 )
b10011 ""
b110100 #
b110100 '
b110100 j
b10100 &
