waveforms/tb_mul_P16E1.vcd
$date
	Fri Dec 24 09:51:33 2021
$end
$version
	Icarus Verilog
$end
$timescale
	1s
$end
$scope module tb_mul $end
$var wire 16 ! pout [15:0] $end
$var reg 1 " diff_pout $end
$var reg 16 # p1 [15:0] $end
$var reg 16 $ p2 [15:0] $end
$var reg 16 % pout_expected [15:0] $end
$var reg 17 & test_no [16:0] $end
$scope module mul_inst $end
$var wire 16 ' p1 [15:0] $end
$var wire 16 ( p2 [15:0] $end
$var wire 1 ) pout_sign $end
$var wire 5 * pout_reg_len [4:0] $end
$var wire 16 + pout_mant [15:0] $end
$var wire 5 , pout_k [4:0] $end
$var wire 1 - pout_is_zero $end
$var wire 1 . pout_is_inf $end
$var wire 1 / pout_exp $end
$var wire 16 0 pout [15:0] $end
$var wire 1 1 p2_sign $end
$var wire 1 2 p2_reg_s $end
$var wire 5 3 p2_reg_len [4:0] $end
$var wire 16 4 p2_mant [15:0] $end
$var wire 5 5 p2_k [4:0] $end
$var wire 1 6 p2_is_zero $end
$var wire 1 7 p2_is_inf $end
$var wire 1 8 p2_exp $end
$var wire 1 9 p1_sign $end
$var wire 1 : p1_reg_s $end
$var wire 5 ; p1_reg_len [4:0] $end
$var wire 16 < p1_mant [15:0] $end
$var wire 5 = p1_k [4:0] $end
$var wire 1 > p1_is_zero $end
$var wire 1 ? p1_is_inf $end
$var wire 1 @ p1_exp $end
$scope module mul_core_inst $end
$var wire 32 A _mant_fractional_part_left_1 [31:0] $end
$var wire 1 . pout_is_inf $end
$var wire 1 - pout_is_zero $end
$var wire 5 B pout_k [4:0] $end
$var wire 16 C pout_mant [15:0] $end
$var wire 5 D pout_reg_len [4:0] $end
$var wire 1 ) pout_sign $end
$var wire 5 E reg_len [4:0] $end
$var wire 1 / pout_exp $end
$var wire 1 1 p2_sign $end
$var wire 1 2 p2_reg_s $end
$var wire 5 F p2_reg_len [4:0] $end
$var wire 16 G p2_mant [15:0] $end
$var wire 5 H p2_k [4:0] $end
$var wire 1 6 p2_is_zero $end
$var wire 1 7 p2_is_inf $end
$var wire 1 8 p2_exp $end
$var wire 1 9 p1_sign $end
$var wire 1 : p1_reg_s $end
$var wire 5 I p1_reg_len [4:0] $end
$var wire 16 J p1_mant [15:0] $end
$var wire 5 K p1_k [4:0] $end
$var wire 1 > p1_is_zero $end
$var wire 1 ? p1_is_inf $end
$var wire 1 @ p1_exp $end
$var wire 5 L mant_len [4:0] $end
$var wire 16 M mant_fractional_part_left [15:0] $end
$var wire 1 N mant_carry $end
$var wire 1 O k_is_oob $end
$var wire 16 P f2 [15:0] $end
$var wire 16 Q f1 [15:0] $end
$var wire 32 R _mant_2 [31:0] $end
$var wire 32 S _mant_1 [31:0] $end
$var wire 5 T _k_4 [4:0] $end
$var wire 5 U _k_3 [4:0] $end
$var wire 5 V _k_2 [4:0] $end
$var wire 5 W _k_1 [4:0] $end
$var wire 1 X _exp_carry_2 $end
$var wire 1 Y _exp_carry_1 $end
$var wire 2 Z _exp_4 [1:0] $end
$var wire 2 [ _exp_3 [1:0] $end
$var wire 2 \ _exp_2 [1:0] $end
$var wire 2 ] _exp_1 [1:0] $end
$var wire 5 ^ F2 [4:0] $end
$var wire 5 _ F1 [4:0] $end
$scope function c2 $end
$var reg 16 ` a [15:0] $end
$upscope $end
$scope function max $end
$var reg 16 a a [15:0] $end
$var reg 16 b b [15:0] $end
$upscope $end
$scope function min $end
$var reg 16 c a [15:0] $end
$var reg 16 d b [15:0] $end
$upscope $end
$upscope $end
$scope module posit_decode_p1 $end
$var wire 16 e bits [15:0] $end
$var wire 16 f u_bits [15:0] $end
$var wire 1 9 sign $end
$var wire 1 : reg_s $end
$var wire 5 g reg_len [4:0] $end
$var wire 5 h mant_len [4:0] $end
$var wire 16 i mant [15:0] $end
$var wire 4 j leading_zeros [3:0] $end
$var wire 4 k leading_ones [3:0] $end
$var wire 5 l k [4:0] $end
$var wire 1 > is_zero $end
$var wire 1 ? is_inf $end
$var wire 1 @ exp $end
$scope function c2 $end
$var reg 16 m a [15:0] $end
$upscope $end
$scope module clo_inst_o $end
$var wire 16 n bits [15:0] $end
$var wire 4 o leading_ones [3:0] $end
$var wire 4 p index_highest_set [3:0] $end
$scope module highest_set_inst $end
$var wire 16 q bits [15:0] $end
$var wire 4 r index [3:0] $end
$scope begin _gen[0] $end
$upscope $end
$scope begin _gen[1] $end
$upscope $end
$scope begin _gen[2] $end
$upscope $end
$scope begin _gen[3] $end
$upscope $end
$scope begin _gen[4] $end
$upscope $end
$scope begin _gen[5] $end
$upscope $end
$scope begin _gen[6] $end
$upscope $end
$scope begin _gen[7] $end
$upscope $end
$scope begin _gen[8] $end
$upscope $end
$scope begin _gen[9] $end
$upscope $end
$scope begin _gen[10] $end
$upscope $end
$scope begin _gen[11] $end
$upscope $end
$scope begin _gen[12] $end
$upscope $end
$scope begin _gen[13] $end
$upscope $end
$scope begin _gen[14] $end
$upscope $end
$scope begin _gen[15] $end
$upscope $end
$upscope $end
$upscope $end
$scope module clo_inst_z $end
$var wire 16 s bits [15:0] $end
$var wire 4 t leading_ones [3:0] $end
$var wire 4 u index_highest_set [3:0] $end
$scope module highest_set_inst $end
$var wire 16 v bits [15:0] $end
$var wire 4 w index [3:0] $end
$scope begin _gen[0] $end
$upscope $end
$scope begin _gen[1] $end
$upscope $end
$scope begin _gen[2] $end
$upscope $end
$scope begin _gen[3] $end
$upscope $end
$scope begin _gen[4] $end
$upscope $end
$scope begin _gen[5] $end
$upscope $end
$scope begin _gen[6] $end
$upscope $end
$scope begin _gen[7] $end
$upscope $end
$scope begin _gen[8] $end
$upscope $end
$scope begin _gen[9] $end
$upscope $end
$scope begin _gen[10] $end
$upscope $end
$scope begin _gen[11] $end
$upscope $end
$scope begin _gen[12] $end
$upscope $end
$scope begin _gen[13] $end
$upscope $end
$scope begin _gen[14] $end
$upscope $end
$scope begin _gen[15] $end
$upscope $end
$upscope $end
$upscope $end
$upscope $end
$scope module posit_decode_p2 $end
$var wire 16 x bits [15:0] $end
$var wire 16 y u_bits [15:0] $end
$var wire 1 1 sign $end
$var wire 1 2 reg_s $end
$var wire 5 z reg_len [4:0] $end
$var wire 5 { mant_len [4:0] $end
$var wire 16 | mant [15:0] $end
$var wire 4 } leading_zeros [3:0] $end
$var wire 4 ~ leading_ones [3:0] $end
$var wire 5 !" k [4:0] $end
$var wire 1 6 is_zero $end
$var wire 1 7 is_inf $end
$var wire 1 8 exp $end
$scope function c2 $end
$var reg 16 "" a [15:0] $end
$upscope $end
$scope module clo_inst_o $end
$var wire 16 #" bits [15:0] $end
$var wire 4 $" leading_ones [3:0] $end
$var wire 4 %" index_highest_set [3:0] $end
$scope module highest_set_inst $end
$var wire 16 &" bits [15:0] $end
$var wire 4 '" index [3:0] $end
$scope begin _gen[0] $end
$upscope $end
$scope begin _gen[1] $end
$upscope $end
$scope begin _gen[2] $end
$upscope $end
$scope begin _gen[3] $end
$upscope $end
$scope begin _gen[4] $end
$upscope $end
$scope begin _gen[5] $end
$upscope $end
$scope begin _gen[6] $end
$upscope $end
$scope begin _gen[7] $end
$upscope $end
$scope begin _gen[8] $end
$upscope $end
$scope begin _gen[9] $end
$upscope $end
$scope begin _gen[10] $end
$upscope $end
$scope begin _gen[11] $end
$upscope $end
$scope begin _gen[12] $end
$upscope $end
$scope begin _gen[13] $end
$upscope $end
$scope begin _gen[14] $end
$upscope $end
$scope begin _gen[15] $end
$upscope $end
$upscope $end
$upscope $end
$scope module clo_inst_z $end
$var wire 16 (" bits [15:0] $end
$var wire 4 )" leading_ones [3:0] $end
$var wire 4 *" index_highest_set [3:0] $end
$scope module highest_set_inst $end
$var wire 16 +" bits [15:0] $end
$var wire 4 ," index [3:0] $end
$scope begin _gen[0] $end
$upscope $end
$scope begin _gen[1] $end
$upscope $end
$scope begin _gen[2] $end
$upscope $end
$scope begin _gen[3] $end
$upscope $end
$scope begin _gen[4] $end
$upscope $end
$scope begin _gen[5] $end
$upscope $end
$scope begin _gen[6] $end
$upscope $end
$scope begin _gen[7] $end
$upscope $end
$scope begin _gen[8] $end
$upscope $end
$scope begin _gen[9] $end
$upscope $end
$scope begin _gen[10] $end
$upscope $end
$scope begin _gen[11] $end
$upscope $end
$scope begin _gen[12] $end
$upscope $end
$scope begin _gen[13] $end
$upscope $end
$scope begin _gen[14] $end
$upscope $end
$scope begin _gen[15] $end
$upscope $end
$upscope $end
$upscope $end
$upscope $end
$scope module posit_encode_inst $end
$var wire 1 / exp $end
$var wire 1 . is_inf $end
$var wire 1 - is_zero $end
$var wire 5 -" k [4:0] $end
$var wire 16 ." mant [15:0] $end
$var wire 5 /" reg_len [4:0] $end
$var wire 1 ) sign $end
$var wire 17 0" regime_bits [16:0] $end
$var wire 16 1" posit [15:0] $end
$var wire 16 2" bits_assembled [15:0] $end
$var wire 16 3" bits [15:0] $end
$scope function c2 $end
$var reg 16 4" a [15:0] $end
$upscope $end
$scope function is_negative $end
$var reg 5 5" k [4:0] $end
$upscope $end
$scope function shl $end
$var reg 16 6" bits [15:0] $end
$var reg 16 7" rhs [15:0] $end
$upscope $end
$upscope $end
$upscope $end
$upscope $end
$enddefinitions $end
#0
$dumpvars
b1010 7"
b0 6"
b10 5"
b111000000000000 4"
b111000000000000 3"
b111000000000000 2"
b0 1"
b1110 0"
b100 /"
b0 ."
b10 -"
b0 ,"
b1111111111111110 +"
b0 *"
b1111 )"
b1111111111111110 ("
b1111 '"
b0 &"
b1111 %"
b0 $"
b0 #"
b10001 ""
b10001 !"
b0 ~
b1111 }
b0 |
b11110 {
b10000 z
b0 y
b0 x
b0 w
b1111111111111110 v
b0 u
b1111 t
b1111111111111110 s
b1111 r
b0 q
b1111 p
b0 o
b0 n
b10001 m
b10001 l
b0 k
b1111 j
b0 i
b11110 h
b10000 g
b0 f
b0 e
bx d
bx c
bx b
bx a
b10 `
b11110 _
b11110 ^
b0 ]
b0 \
b0 [
b0 Z
0Y
0X
b10 W
b10 V
b10 U
b10 T
b1000000000000000000000000000000 S
b1000000000000000000000000000000 R
b1000000000000000 Q
b1000000000000000 P
0O
0N
b0 M
b1010 L
b10001 K
b0 J
b10000 I
b10001 H
b0 G
b10000 F
b100 E
b100 D
b0 C
b10 B
b0 A
0@
0?
1>
b10001 =
b0 <
b10000 ;
0:
09
08
07
16
b10001 5
b0 4
b10000 3
02
01
b0 0
0/
0.
1-
b10 ,
b0 +
b100 *
0)
b0 (
b0 '
b1 &
b0 %
b0 $
b0 #
0"
b0 !
$end
#10
b1000000000000000 !
b1000000000000000 0
b1000000000000000 1"
1.
0"
11
b1000000000000000 ""
b1000000000000000 y
0-
19
b1000000000000000 m
b1000000000000000 f
b1000000000000000 %
06
17
b1000000000000000 $
b1000000000000000 (
b1000000000000000 x
0>
1?
b1000000000000000 #
b1000000000000000 '
b1000000000000000 e
b10 &
#20
b10010010011 +
b10010010011 C
b10010010011 ."
b10010010011 M
0X
0/
b1010010010011 4"
b0 Z
b100100100110101011101000000000 A
b1011 L
1Y
b1010011010010000 Q
b0 [
b1100100100110101011101000000000 R
b11 *
b11 D
b11 /"
b11 E
b1 0"
1@
b0 \
b1100100100110101011101000000000 S
b1001101010100000 P
b11110 `
b11110 5"
b1001101001 <
b1001101001 J
b1001101001 i
b1011 h
b1011 _
b10 ]
18
0O
b11110 ,
b11110 B
b11110 -"
b11110 T
b11 ;
b11 I
b11 g
b1101010100 4
b1101010100 G
b1101010100 |
b1100 {
b1100 ^
b10 3
b10 F
b10 z
b11110 U
b11110 =
b11110 K
b11110 l
b11110 V
b11101 W
b11111 5
b11111 H
b11111 !"
b10 j
b10 t
b1101 u
b1101 w
b1 }
b1 )"
b1110 *"
b1110 ,"
b1001100101010110 ("
b1001100101010110 +"
b1110101101101101 !
b1110101101101101 0
b1110101101101101 1"
b1100101100101100 s
b1100101100101100 v
b110011010101000 #"
b110011010101000 &"
b1001010010010011 2"
b1100 7"
b1 6"
b1110101101101101 3"
b11010011010010 n
b11010011010010 q
b11001101010100 y
0.
1)
b1101001101001 f
0"
b11111 ""
09
b11110 m
b1110101101101101 %
07
b1100110010101100 $
b1100110010101100 (
b1100110010101100 x
0?
b1101001101001 #
b1101001101001 '
b1101001101001 e
b11 &
#30
b1011 {
b1011 ^
b11 3
b11 F
b11 z
b1011 L
b11 *
b11 D
b11 /"
b11 E
b1 0"
b11110 `
b11110 5"
b11110 5
b11110 H
b11110 !"
b11110 ,
b11110 B
b11110 -"
b11110 T
b10 }
b10 )"
b11110 U
b1101 *"
b1101 ,"
b11110 V
0X
1/
b0 j
b0 t
b1110111000011 4"
b1 Z
b1 k
b1 o
b1111 u
b1111 w
b1100 h
b1100 _
b1 \
b1 [
b1110 p
b1110 r
b10111000011 +
b10111000011 C
b10111000011 ."
b10111000011 M
b11110 W
b0 =
b0 K
b0 l
b10 ;
b10 I
b10 g
0Y
0N
b1110111000011 !
b1110111000011 0
b1110111000011 1"
b101110000110011000101000000000 A
b1001011011000000 P
b1100110100100110 ("
b1100110100100110 +"
b1 ]
0@
b1101110000110011000101000000000 R
b11001011011000 #"
b11001011011000 &"
1:
b1110111000011 2"
b1100 7"
b1 6"
b1110111000011 3"
b1101110000110011000101000000000 S
b1011101011111000 Q
b111000101000000 s
b111000101000000 v
b101101100 4
b101101100 G
b101101100 |
b1100101101100 y
0)
b1000111010111110 n
b1000111010111110 q
0"
b11110 ""
19
b0 m
b11101011111 <
b11101011111 J
b11101011111 i
b100011101011111 f
b1110111000011 %
b1110011010010100 $
b1110011010010100 (
b1110011010010100 x
b1011100010100001 #
b1011100010100001 '
b1011100010100001 e
b100 &
#40
b1110 6"
0/
1X
b0 Z
b1110 0"
b10 [
b1010 L
b1011 h
b1011 _
b100 *
b100 D
b100 /"
b100 E
b11 ;
b11 I
b11 g
1N
b10 `
b10 5"
b1 =
b1 K
b1 l
b1 \
b10 ,
b10 B
b10 -"
b10 T
b1 ]
18
b111000111000010 4"
b10 k
b10 o
b0 }
b0 )"
b1101 p
b1101 r
b10 U
b1 ~
b1 $"
b1111 *"
b1111 ,"
b111000010 +
b111000010 C
b111000010 ."
b111000010 M
b1 V
b1100 {
b1100 ^
b1110 %"
b1110 '"
b11100001000111001011000000000 A
b1 W
b0 5
b0 H
b0 !"
b10 3
b10 F
b10 z
b1000111000111110 !
b1000111000111110 0
b1000111000111110 1"
b1011100001000111001011000000000 R
b1101110000110000 P
b100100011110010 ("
b100100011110010 +"
b10111000010001110010110000000000 S
b1101011001000000 Q
b11010100110110 s
b11010100110110 v
12
b1011011100001100 #"
b1011011100001100 &"
b1111000111000010 2"
b1011 7"
b1000111000111110 3"
b1100101011001000 n
b1100101011001000 q
b101110000110 4
b101110000110 G
b101110000110 |
b101101110000110 y
1)
b10101100100 <
b10101100100 J
b10101100100 i
b110010101100100 f
0"
b0 ""
09
b1 m
b1000111000111110 %
b1010010001111010 $
b1010010001111010 (
b1010010001111010 x
b110010101100100 #
b110010101100100 '
b110010101100100 e
b101 &
#50
b1000 L
b111110 0"
b110 *
b110 D
b110 /"
b110 E
b100 `
b100 5"
b100 ,
b100 B
b100 -"
b100 T
b1001 h
b1001 _
b101 ;
b101 I
b101 g
b100 U
b11 W
b11 =
b11 K
b11 l
b100 k
b100 o
b111110001011000 4"
b1011 p
b1011 r
0/
0X
b0 Z
b1011000 +
b1011000 C
b1011000 ."
b1011000 M
b10110001110111101010000000000 A
b111110001011000 !
b111110001011000 0
b111110001011000 1"
0N
b100 V
b0 [
b1010110001110111101010000000000 R
b1000010100110000 P
b101111010110010 ("
b101111010110010 +"
1Y
b0 \
b111110001011000 2"
b1001 7"
b111110 6"
b111110001011000 3"
b1010000101001100 #"
b1010000101001100 &"
b10 ]
1@
b1010110001110111101010000000000 S
b1010010111000000 Q
b101011010000 s
b101011010000 v
0)
b10100110 4
b10100110 G
b10100110 |
b101000010100110 y
b1111010100101110 n
b1111010100101110 q
0"
01
b101000010100110 ""
b11 m
b10010111 <
b10010111 J
b10010111 i
b111101010010111 f
b111110001011000 %
b101000010100110 $
b101000010100110 (
b101000010100110 x
b111101010010111 #
b111101010010111 '
b111101010010111 e
b110 &
#60
b1011 L
b1 0"
0X
b11 *
b11 D
b11 /"
b11 E
b11111 5
b11111 H
b11111 !"
b11110 `
b11110 5"
b11110 ,
b11110 B
b11110 -"
b11110 T
b0 \
1/
b1 }
b1 )"
b1101110011101 4"
b1 Z
b0 ~
b0 $"
b1110 *"
b1110 ,"
b11110 U
b1 j
b1 t
b1100 {
b1100 ^
b1 [
b1111 %"
b1111 '"
0@
b1110011101 +
b1110011101 C
b1110011101 ."
b1110011101 M
b0 k
b0 o
b1110 u
b1110 w
b10 3
b10 F
b10 z
0Y
1N
b1110010001100011 !
b1110010001100011 0
b1110010001100011 1"
b11110 V
b1100 h
b1100 _
b11100111011100011110000000000 A
b1111 p
b1111 r
b0 ]
08
b11110 W
b11111 =
b11111 K
b11111 l
b10 ;
b10 I
b10 g
b1011100111011100011110000000000 R
02
b1001101110011101 2"
b1100 7"
b1 6"
b1110010001100011 3"
b1111101101000000 P
b1010000100101110 ("
b1010000100101110 +"
b10111001110111000111100000000000 S
b1011110101100000 Q
b1011000010100110 s
b1011000010100110 v
1)
b101111011010000 #"
b101111011010000 &"
0:
b100111101011000 n
b100111101011000 q
0"
11
b11111 ""
b111101101000 4
b111101101000 G
b111101101000 |
b10111101101000 y
b11111 m
b11110101100 <
b11110101100 J
b11110101100 i
b10011110101100 f
b1110010001100011 %
b1101000010011000 $
b1101000010011000 (
b1101000010011000 x
b10011110101100 #
b10011110101100 '
b10011110101100 e
b111 &
#70
b1011 h
b1011 _
b10 0"
b1100 L
b11 ;
b11 I
b11 g
b10 *
b10 D
b10 /"
b10 E
b0 `
b0 5"
b11110 =
b11110 K
b11110 l
b0 ,
b0 B
b0 -"
b0 T
b11111 V
1N
b11111 W
b1 5
b1 H
b1 !"
b100010110101110 4"
b10 j
b10 t
0Y
b0 }
b0 )"
b0 U
b1101 u
b1101 w
18
b10 ~
b10 $"
b1111 *"
b1111 ,"
0/
b10110101110 +
b10110101110 C
b10110101110 ."
b10110101110 M
b1011 {
b1011 ^
b1101 %"
b1101 '"
1X
b0 Z
b10110101110100010000000000000 A
b100010110101110 !
b100010110101110 0
b100010110101110 1"
b11 3
b11 F
b11 z
b10 [
b1010110101110100010000000000000 R
b1011100001000000 P
b10100011110110 ("
b10100011110110 +"
b1 \
b100010110101110 2"
b1101 7"
b10 6"
b100010110101110 3"
12
b1101011100001000 #"
b1101011100001000 &"
b1 ]
0@
b10101101011101000100000000000000 S
b1111000100000000 Q
b1101000111011110 s
b1101000111011110 v
0)
b1110000100 4
b1110000100 G
b1110000100 |
b110101110000100 y
b10111000100000 n
b10111000100000 q
0"
01
b1 ""
b11110 m
b11100010000 <
b11100010000 J
b11100010000 i
b1011100010000 f
b100010110101110 %
b110101110000100 $
b110101110000100 (
b110101110000100 x
b1011100010000 #
b1011100010000 '
b1011100010000 e
b1000 &
#80
b1011 L
b11 *
b11 D
b11 /"
b11 E
b110 0"
b1 `
b1 5"
b1 ,
b1 B
b1 -"
b1 T
b110010011000011 4"
0/
b0 Z
b0 }
b0 )"
b10011000011 +
b10011000011 C
b10011000011 ."
b10011000011 M
b1 U
0X
b100 ~
b100 $"
b1111 *"
b1111 ,"
b100110000111110011000000000000 A
0N
b1001101100111101 !
b1001101100111101 0
b1001101100111101 1"
b1 V
b1001 {
b1001 ^
b0 [
b1011 %"
b1011 '"
b1100110000111110011000000000000 R
b1 W
b11 5
b11 H
b11 !"
b101 3
b101 F
b101 z
b0 \
b1110010011000011 2"
b1100 7"
b110 6"
b1001101100111101 3"
b0 ]
08
b1011010100000000 P
b111001010110 ("
b111001010110 +"
b1100110000111110011000000000000 S
b1001000001110000 Q
b1101110111110000 s
b1101110111110000 v
1)
12
b1111000110101000 #"
b1111000110101000 &"
b10001000001110 n
b10001000001110 q
0"
11
b11 ""
b11010100 4
b11010100 G
b11010100 |
b111100011010100 y
b1000100000111 m
b100000111 <
b100000111 J
b100000111 i
b1000100000111 f
b1001101100111101 %
b1000011100101100 $
b1000011100101100 (
b1000011100101100 x
b1000100000111 #
b1000100000111 '
b1000100000111 e
b1001 &
#90
b1001 h
b1001 _
b101 ;
b101 I
b101 g
b1001 L
b11100 =
b11100 K
b11100 l
b101 *
b101 D
b101 /"
b101 E
b1 0"
b11100 `
b11100 5"
b11100 ,
b11100 B
b11100 -"
b11100 T
b100 j
b100 t
b1011 u
b1011 w
b11100 U
b1 }
b1 )"
b10000110111 4"
1X
b0 ~
b0 $"
b1110 *"
b1110 ,"
0/
b11011 V
b1100 {
b1100 ^
b1111 %"
b1111 '"
b0 Z
b110111 +
b110111 C
b110111 ."
b110111 M
b10000110111 !
b10000110111 0
b10000110111 1"
b11011 W
b11111 5
b11111 H
b11111 !"
b10 3
b10 F
b10 z
b1 \
b10 [
b110111010101100001000000000 A
b1 ]
18
b1011100011001000 P
b1001000111001100 ("
b1001000111001100 +"
1N
b1000110111010101100001000000000 R
b10000110111 2"
b1010 7"
b1 6"
b10000110111 3"
02
b110111000110010 #"
b110111000110010 &"
b10001101110101011000010000000000 S
b1100010010000000 Q
b1111010111011010 s
b1111010111011010 v
0)
b11100011001 4
b11100011001 G
b11100011001 |
b11011100011001 y
b101000100100 n
b101000100100 q
0"
01
b11111 ""
b11100 m
b100010010 <
b100010010 J
b100010010 i
b10100010010 f
b10000110111 %
b11011100011001 $
b11011100011001 (
b11011100011001 x
b10100010010 #
b10100010010 '
b10100010010 e
b1010 &
#100
b1110 0"
b1010 L
b100 *
b100 D
b100 /"
b100 E
b1110 6"
b10 `
b10 5"
b10 ,
b10 B
b10 -"
b10 T
0/
b0 5
b0 H
b0 !"
b111000110100100 4"
1X
b0 Z
b0 }
b0 )"
1N
b1 ~
b1 $"
b1111 *"
b1111 ,"
b10 U
b110100100 +
b110100100 C
b110100100 ."
b110100100 M
b0 j
b0 t
b1100 {
b1100 ^
b10 [
b1110 %"
b1110 '"
b11010010001100001111000000000 A
b10 k
b10 o
b1111 u
b1111 w
b10 3
b10 F
b10 z
0Y
b1 \
b1000111001011100 !
b1000111001011100 0
b1000111001011100 1"
b1 V
b1011 h
b1011 _
b1011010010001100001111000000000 R
b1101 p
b1101 r
b1 W
b1 =
b1 K
b1 l
b11 ;
b11 I
b11 g
12
b1111000110100100 2"
b1011 7"
b1000111001011100 3"
18
b1100001100100000 P
b100111100110110 ("
b100111100110110 +"
b1 ]
0@
b10110100100011000011110000000000 S
b1110110011100000 Q
b11001001100010 s
b11001001100010 v
1)
b1011000011001000 #"
b1011000011001000 &"
1:
b1100110110011100 n
b1100110110011100 q
0"
11
b0 ""
b100001100100 4
b100001100100 G
b100001100100 |
b101100001100100 y
b1 m
b11011001110 <
b11011001110 J
b11011001110 i
b110011011001110 f
b1000111001011100 %
b1010011110011100 $
b1010011110011100 (
b1010011110011100 x
b110011011001110 #
b110011011001110 '
b110011011001110 e
b1011 &
#110
18
b1010 L
b1110 0"
b100 *
b100 D
b100 /"
b100 E
b11111 5
b11111 H
b11111 !"
b10 `
b10 5"
b10 ,
b10 B
b10 -"
b10 T
b111000001010100 4"
b1 }
b1 )"
b1 V
0/
b0 ~
b0 $"
b1110 *"
b1110 ,"
1X
b0 Z
b1010100 +
b1010100 C
b1010100 ."
b1010100 M
b0 j
b0 t
b1100 {
b1100 ^
b10 U
b1111 %"
b1111 '"
b101010011010110010000000000 A
b11 k
b11 o
b1111 u
b1111 w
b10 3
b10 F
b10 z
1N
b111000001010100 !
b111000001010100 0
b111000001010100 1"
b1010 h
b1010 _
b10 [
b1000101010011010110010000000000 R
b1100 p
b1100 r
b1001011011000000 P
b1001101001001110 ("
b1001101001001110 +"
b1 W
b10 =
b10 K
b10 l
b100 ;
b100 I
b100 g
0Y
b1 \
02
b110010110110000 #"
b110010110110000 &"
b111000001010100 2"
b1011 7"
b1110 6"
b111000001010100 3"
b1 ]
0@
b10001010100110101100100000000000 S
b1110101101100000 Q
b1100101001000 s
b1100101001000 v
b1011011000 4
b1011011000 G
b1011011000 |
b11001011011000 y
0)
1:
b1110011010110110 n
b1110011010110110 q
0"
b11111 ""
19
b10 m
b1101011011 <
b1101011011 J
b1101011011 i
b111001101011011 f
b111000001010100 %
b1100110100101000 $
b1100110100101000 (
b1100110100101000 x
b1000110010100101 #
b1000110010100101 '
b1000110010100101 e
b1100 &
#120
1/
b1 Z
b1011 L
b1 0"
b11 *
b11 D
b11 /"
b11 E
b1110101010011 !
b1110101010011 0
b1110101010011 1"
b11110 `
b11110 5"
b1100 7"
b1 6"
b1110101010011 4"
b0 5
b0 H
b0 !"
b11110 ,
b11110 B
b11110 -"
b11110 T
b1110101010011 3"
b0 }
b0 )"
0X
b1110101010011 2"
b10101010011 +
b10101010011 C
b10101010011 ."
b10101010011 M
b10 j
b10 t
18
b1 ~
b1 $"
b1111 *"
b1111 ,"
b1 [
b101010100110001011001010000000 A
b0 k
b0 o
b1101 u
b1101 w
b1100 {
b1100 ^
b1110 %"
b1110 '"
b1011 h
b1011 _
b11110 V
b11110 U
b1101010100110001011001010000000 R
b1111 p
b1111 r
b10 3
b10 F
b10 z
b11110 W
b11110 =
b11110 K
b11110 l
b11 ;
b11 I
b11 g
0Y
b1 \
0N
b1000001100101000 P
b101111100110100 ("
b101111100110100 +"
b1 ]
0@
b1101010100110001011001010000000 S
b1101000000010000 Q
b1101010111111100 s
b1101010111111100 v
12
b1010000011001010 #"
b1010000011001010 &"
0:
b10101000000010 n
b10101000000010 q
b1100101 4
b1100101 G
b1100101 |
b101000001100101 y
b10100000001 <
b10100000001 J
b10100000001 i
b1010100000001 f
0"
b0 ""
b11110 m
b1110101010011 %
b1010111110011011 $
b1010111110011011 (
b1010111110011011 x
b1110101011111111 #
b1110101011111111 '
b1110101011111111 e
b1101 &
#130
18
b1100 L
b10 *
b10 D
b10 /"
b10 E
b1 0"
b11111 5
b11111 H
b11111 !"
0N
b11111 `
b11111 5"
b11111 ,
b11111 B
b11111 -"
b11111 T
b1 6"
b11111011010101 4"
b1 }
b1 )"
1/
b0 j
b0 t
b0 ~
b0 $"
b1110 *"
b1110 ,"
b11111 U
0X
b1 Z
b111011010101 +
b111011010101 C
b111011010101 ."
b111011010101 M
b1 k
b1 o
b1111 u
b1111 w
b1100 {
b1100 ^
b1111 %"
b1111 '"
b1100 h
b1100 _
b11111 V
b1 [
b111011010101100001011100000000 A
b1110 p
b1110 r
b10 3
b10 F
b10 z
b1100000100101011 !
b1100000100101011 0
b1100000100101011 1"
b11111 W
b0 =
b0 K
b0 l
b10 ;
b10 I
b10 g
0Y
b1 \
b1111011010101100001011100000000 R
b1001011101011000 P
b1001101000101000 ("
b1001101000101000 +"
b1 ]
0@
b1111011010101100001011100000000 S
b1101000010100000 Q
b110101111010110 s
b110101111010110 v
02
b110010111010110 #"
b110010111010110 &"
b1011111011010101 2"
b1101 7"
b1100000100101011 3"
1:
b1001010000101000 n
b1001010000101000 q
b1011101011 4
b1011101011 G
b1011101011 |
b11001011101011 y
1)
b101000010100 <
b101000010100 J
b101000010100 i
b100101000010100 f
0"
b11111 ""
09
b0 m
b1100000100101011 %
b1100110100010101 $
b1100110100010101 (
b1100110100010101 x
b100101000010100 #
b100101000010100 '
b100101000010100 e
b1110 &
#140
b1100 L
b10 *
b10 D
b10 /"
b10 E
b1 0"
b11111 `
b11111 5"
0Y
b1 \
b11111 ,
b11111 B
b11111 -"
b11111 T
b11111 U
b11111 =
b11111 K
b11111 l
b1100011101010100 !
b1100011101010100 0
b1100011101010100 1"
b11111 V
b11111 W
b0 5
b0 H
b0 !"
b1100011101010100 3"
b0 }
b0 )"
b1 j
b1 t
b1101 7"
b1 6"
b11100010101100 4"
b1 ~
b1 $"
b1111 *"
b1111 ,"
b0 k
b0 o
b1110 u
b1110 w
1/
b1100 {
b1100 ^
b1110 %"
b1110 '"
b1100 h
b1100 _
b1111 p
b1111 r
0X
b1 Z
b1011100010101100 2"
b100010101100 +
b100010101100 C
b100010101100 ."
b100010101100 M
b10 3
b10 F
b10 z
b10 ;
b10 I
b10 g
b1 [
b100010101100010000001010000000 A
08
b1010010101111000 P
b111011010100000 ("
b111011010100000 +"
b1 ]
1@
0N
b1100010101100010000001010000000 R
12
b1000100101011110 #"
b1000100101011110 &"
0:
b1100010101100010000001010000000 S
b1001100010110000 Q
b1001100111010010 s
b1001100111010010 v
b10010101111 4
b10010101111 G
b10010101111 |
b100010010101111 y
b110011000101100 n
b110011000101100 q
0"
01
b0 ""
19
b11111 m
b1100010110 <
b1100010110 J
b1100010110 i
b11001100010110 f
b1100011101010100 %
b100010010101111 $
b100010010101111 (
b100010010101111 x
b1100110011101010 #
b1100110011101010 '
b1100110011101010 e
b1111 &
