waveforms/tb_mul_P16E1.vcd
$date
	Sun Dec 19 20:47:44 2021
$end
$version
	Icarus Verilog
$end
$timescale
	1s
$end
$scope module tb_mul $end
$var wire 16 ! pout [15:0] $end
$var reg 16 " p1 [15:0] $end
$var reg 16 # p2 [15:0] $end
$var reg 16 $ pout_expected [15:0] $end
$var reg 17 % test_no [16:0] $end
$scope module mul_inst $end
$var wire 16 & p1 [15:0] $end
$var wire 16 ' p2 [15:0] $end
$var wire 1 ( p2_exp $end
$var wire 16 ) p2_mant [15:0] $end
$var wire 16 * pout [15:0] $end
$var wire 1 + p2_sign $end
$var wire 1 , p2_reg_s $end
$var wire 4 - p2_reg_len [3:0] $end
$var wire 16 . p2_reg_bits [15:0] $end
$var wire 16 / p2_k [15:0] $end
$var wire 1 0 p1_sign $end
$var wire 1 1 p1_reg_s $end
$var wire 4 2 p1_reg_len [3:0] $end
$var wire 16 3 p1_reg_bits [15:0] $end
$var wire 16 4 p1_mant [15:0] $end
$var wire 16 5 p1_k [15:0] $end
$var wire 1 6 p1_exp $end
$scope module mul_core_inst $end
$var wire 32 7 mant_fraction_only [31:0] $end
$var wire 1 8 p1_is_inf $end
$var wire 1 9 p1_is_zero $end
$var wire 1 : p2_exp $end
$var wire 1 ; p2_is_inf $end
$var wire 1 < p2_is_zero $end
$var wire 16 = p2_mant [15:0] $end
$var wire 1 ( pout_exp $end
$var wire 1 > pout_is_inf $end
$var wire 1 ? pout_is_zero $end
$var wire 16 @ pout_k [15:0] $end
$var wire 16 A pout_mant [15:0] $end
$var wire 4 B pout_reg_len [3:0] $end
$var wire 1 C pout_reg_s $end
$var wire 16 D pout_regime_bits [15:0] $end
$var wire 1 E pout_sign $end
$var wire 4 F reg_len [3:0] $end
$var wire 32 G prod_mantissae_adjusted [31:0] $end
$var wire 32 H prod_mantissae [31:0] $end
$var wire 1 + p2_sign $end
$var wire 16 I p2_regime_bits [15:0] $end
$var wire 1 , p2_reg_s $end
$var wire 4 J p2_reg_len [3:0] $end
$var wire 16 K p2_k [15:0] $end
$var wire 1 0 p1_sign $end
$var wire 16 L p1_regime_bits [15:0] $end
$var wire 1 1 p1_reg_s $end
$var wire 4 M p1_reg_len [3:0] $end
$var wire 16 N p1_mant [15:0] $end
$var wire 16 O p1_k [15:0] $end
$var wire 1 6 p1_exp $end
$var wire 16 P mant_len [15:0] $end
$var wire 1 Q mant_carry $end
$var wire 16 R k_adjusted_III [15:0] $end
$var wire 16 S k_adjusted_II [15:0] $end
$var wire 16 T k_adjusted_I [15:0] $end
$var wire 16 U k [15:0] $end
$var wire 16 V final_mant [15:0] $end
$var wire 16 W f2 [15:0] $end
$var wire 16 X f1 [15:0] $end
$var wire 1 Y exp_carry_I $end
$var wire 1 Z exp_carry $end
$var wire 16 [ exp_adjusted_III [15:0] $end
$var wire 16 \ exp_adjusted_II [15:0] $end
$var wire 16 ] exp_adjusted_I [15:0] $end
$var wire 16 ^ exp [15:0] $end
$var wire 4 _ F2 [3:0] $end
$var wire 4 ` F1 [3:0] $end
$scope function max $end
$var reg 16 a a [15:0] $end
$var reg 16 b b [15:0] $end
$upscope $end
$scope function min $end
$var reg 16 c a [15:0] $end
$var reg 16 d b [15:0] $end
$upscope $end
$upscope $end
$scope module posit_decode_p1 $end
$var wire 16 e bits [15:0] $end
$var wire 16 f u_bits [15:0] $end
$var wire 1 0 sign $end
$var wire 16 g regime_bits [15:0] $end
$var wire 1 1 reg_s $end
$var wire 4 h reg_len [3:0] $end
$var wire 16 i mant [15:0] $end
$var wire 4 j leading_zeros [3:0] $end
$var wire 4 k leading_ones [3:0] $end
$var wire 16 l k [15:0] $end
$var wire 1 m is_zero $end
$var wire 1 n is_inf $end
$var wire 1 6 exp $end
$scope function c2 $end
$var reg 16 o a [15:0] $end
$upscope $end
$scope function min $end
$var reg 16 p a [15:0] $end
$var reg 16 q b [15:0] $end
$upscope $end
$scope module clo_inst_o $end
$var wire 16 r bits [15:0] $end
$var wire 4 s leading_ones [3:0] $end
$var wire 4 t index_highest_set [3:0] $end
$scope module highest_set_inst $end
$var wire 16 u bits [15:0] $end
$var wire 4 v index [3:0] $end
$scope begin _gen[0] $end
$upscope $end
$scope begin _gen[1] $end
$upscope $end
$scope begin _gen[2] $end
$upscope $end
$scope begin _gen[3] $end
$upscope $end
$scope begin _gen[4] $end
$upscope $end
$scope begin _gen[5] $end
$upscope $end
$scope begin _gen[6] $end
$upscope $end
$scope begin _gen[7] $end
$upscope $end
$scope begin _gen[8] $end
$upscope $end
$scope begin _gen[9] $end
$upscope $end
$scope begin _gen[10] $end
$upscope $end
$scope begin _gen[11] $end
$upscope $end
$scope begin _gen[12] $end
$upscope $end
$scope begin _gen[13] $end
$upscope $end
$scope begin _gen[14] $end
$upscope $end
$scope begin _gen[15] $end
$upscope $end
$upscope $end
$upscope $end
$scope module clo_inst_z $end
$var wire 16 w bits [15:0] $end
$var wire 4 x leading_ones [3:0] $end
$var wire 4 y index_highest_set [3:0] $end
$scope module highest_set_inst $end
$var wire 16 z bits [15:0] $end
$var wire 4 { index [3:0] $end
$scope begin _gen[0] $end
$upscope $end
$scope begin _gen[1] $end
$upscope $end
$scope begin _gen[2] $end
$upscope $end
$scope begin _gen[3] $end
$upscope $end
$scope begin _gen[4] $end
$upscope $end
$scope begin _gen[5] $end
$upscope $end
$scope begin _gen[6] $end
$upscope $end
$scope begin _gen[7] $end
$upscope $end
$scope begin _gen[8] $end
$upscope $end
$scope begin _gen[9] $end
$upscope $end
$scope begin _gen[10] $end
$upscope $end
$scope begin _gen[11] $end
$upscope $end
$scope begin _gen[12] $end
$upscope $end
$scope begin _gen[13] $end
$upscope $end
$scope begin _gen[14] $end
$upscope $end
$scope begin _gen[15] $end
$upscope $end
$upscope $end
$upscope $end
$upscope $end
$scope module posit_decode_p2 $end
$var wire 16 | bits [15:0] $end
$var wire 1 ( exp $end
$var wire 16 } mant [15:0] $end
$var wire 16 ~ u_bits [15:0] $end
$var wire 1 + sign $end
$var wire 16 !" regime_bits [15:0] $end
$var wire 1 , reg_s $end
$var wire 4 "" reg_len [3:0] $end
$var wire 4 #" leading_zeros [3:0] $end
$var wire 4 $" leading_ones [3:0] $end
$var wire 16 %" k [15:0] $end
$var wire 1 &" is_zero $end
$var wire 1 '" is_inf $end
$scope function c2 $end
$var reg 16 (" a [15:0] $end
$upscope $end
$scope function min $end
$var reg 16 )" a [15:0] $end
$var reg 16 *" b [15:0] $end
$upscope $end
$scope module clo_inst_o $end
$var wire 16 +" bits [15:0] $end
$var wire 4 ," leading_ones [3:0] $end
$var wire 4 -" index_highest_set [3:0] $end
$scope module highest_set_inst $end
$var wire 16 ." bits [15:0] $end
$var wire 4 /" index [3:0] $end
$scope begin _gen[0] $end
$upscope $end
$scope begin _gen[1] $end
$upscope $end
$scope begin _gen[2] $end
$upscope $end
$scope begin _gen[3] $end
$upscope $end
$scope begin _gen[4] $end
$upscope $end
$scope begin _gen[5] $end
$upscope $end
$scope begin _gen[6] $end
$upscope $end
$scope begin _gen[7] $end
$upscope $end
$scope begin _gen[8] $end
$upscope $end
$scope begin _gen[9] $end
$upscope $end
$scope begin _gen[10] $end
$upscope $end
$scope begin _gen[11] $end
$upscope $end
$scope begin _gen[12] $end
$upscope $end
$scope begin _gen[13] $end
$upscope $end
$scope begin _gen[14] $end
$upscope $end
$scope begin _gen[15] $end
$upscope $end
$upscope $end
$upscope $end
$scope module clo_inst_z $end
$var wire 16 0" bits [15:0] $end
$var wire 4 1" leading_ones [3:0] $end
$var wire 4 2" index_highest_set [3:0] $end
$scope module highest_set_inst $end
$var wire 16 3" bits [15:0] $end
$var wire 4 4" index [3:0] $end
$scope begin _gen[0] $end
$upscope $end
$scope begin _gen[1] $end
$upscope $end
$scope begin _gen[2] $end
$upscope $end
$scope begin _gen[3] $end
$upscope $end
$scope begin _gen[4] $end
$upscope $end
$scope begin _gen[5] $end
$upscope $end
$scope begin _gen[6] $end
$upscope $end
$scope begin _gen[7] $end
$upscope $end
$scope begin _gen[8] $end
$upscope $end
$scope begin _gen[9] $end
$upscope $end
$scope begin _gen[10] $end
$upscope $end
$scope begin _gen[11] $end
$upscope $end
$scope begin _gen[12] $end
$upscope $end
$scope begin _gen[13] $end
$upscope $end
$scope begin _gen[14] $end
$upscope $end
$scope begin _gen[15] $end
$upscope $end
$upscope $end
$upscope $end
$upscope $end
$scope module posit_encode_inst $end
$var wire 1 5" exp $end
$var wire 1 6" is_inf $end
$var wire 1 7" is_zero $end
$var wire 16 8" k [15:0] $end
$var wire 16 9" mant [15:0] $end
$var wire 4 :" reg_len [3:0] $end
$var wire 1 ;" reg_s $end
$var wire 16 <" regime_bits [15:0] $end
$var wire 1 =" sign $end
$var wire 16 >" posit [15:0] $end
$var wire 16 ?" bits_assembled [15:0] $end
$var wire 16 @" bits [15:0] $end
$scope function c2 $end
$var reg 16 A" a [15:0] $end
$upscope $end
$scope function shl $end
$var reg 16 B" bits [15:0] $end
$var reg 16 C" rhs [15:0] $end
$upscope $end
$upscope $end
$upscope $end
$upscope $end
$enddefinitions $end
#0
$dumpvars
bx C"
b0z B"
b0xxxxxxxxxxxxxxx A"
bx @"
bx ?"
bx >"
z="
bz <"
z;"
bz :"
bz 9"
bz 8"
z7"
z6"
z5"
b1111 4"
b101000001010100 3"
b1111 2"
b0 1"
b101000001010100 0"
b1110 /"
b1010111110101010 ."
b1110 -"
b1 ,"
b1010111110101010 +"
b1111 *"
b1 )"
b0 ("
0'"
0&"
b0 %"
b1 $"
b0 #"
b10 ""
b10 !"
b101011111010101 ~
bx }
b1010100000101011 |
b1110 {
b1000011100100100 z
b1110 y
b1 x
b1000011100100100 w
b1111 v
b111100011011010 u
b1111 t
b0 s
b111100011011010 r
b1111 q
b10 p
b1111111111111111 o
0n
0m
b1111111111111111 l
b0 k
b1 j
b110001101101 i
b10 h
b1 g
b11110001101101 f
b11110001101101 e
b1110 d
bx c
b1111111111110010 b
bx a
b1100 `
b1100 _
bx ^
bx ]
bx \
bx [
xZ
xY
b1110001101101000 X
b1xxxxxxxxxxxx000 W
bx V
b1111111111111111 U
bx T
bx S
bx R
xQ
bx P
b1111111111111111 O
b110001101101 N
b10 M
b1 L
b0 K
b10 J
b10 I
bx H
bx G
bx F
1E
b0 D
0C
b0 B
bx A
bx @
x?
x>
bz =
z<
z;
z:
z9
z8
b0xxxxxxxxxxxxxxxxxxxxxxxxxxxxxx 7
16
b1111111111111111 5
b110001101101 4
b1 3
b10 2
01
00
b0 /
b10 .
b10 -
1,
1+
bx *
bx )
x(
b1010100000101011 '
b11110001101101 &
b1 %
b1010101011010100 $
b1010100000101011 #
b11110001101101 "
bx !
$end
#10
b1xxxxxxxxx000000 W
b1001 _
b101 -
b101 J
b101 ""
b1111111111111110 )"
b11 /
b11 K
b11 %"
b100 $"
b100 ,"
b1011 -"
b1011 /"
b1 p
b0xxx T
b11 U
b0 5
b0 O
b0 l
b0 j
b0 x
b1 k
b1 s
b1111 y
b1111 {
b1100 `
b1110 t
b1110 v
b111010111010 0"
b111010111010 3"
b10 2
b10 M
b10 h
b11110 .
b11110 I
b11110 !"
b1111000101000100 +"
b1111000101000100 ."
06
b1110110100100000 X
b110010010110110 w
b110010010110110 z
0E
b111100010100010 ~
11
b10 3
b10 L
b10 g
b1001101101001000 r
b1001101101001000 u
0+
b11 ("
b0 o
b110110100100 4
b110110100100 N
b110110100100 i
b100110110100100 f
b111101001110000 $
b111100010100010 #
b111100010100010 '
b111100010100010 |
b100110110100100 "
b100110110100100 &
b100110110100100 e
b10 %
#20
b11 p
b1111111111111110 5
b1111111111111110 O
b1111111111111110 l
b1xxxxxxxxxxxx000 W
b1 #"
b1 1"
b0 $"
b0 ,"
b1110 2"
b1110 4"
b10 j
b10 x
b1100 _
b1111 -"
b1111 /"
b0 k
b0 s
b1101 y
b1101 {
b10 )"
b11111111111111xx T
b10 -
b10 J
b10 ""
b1011 `
b1111 t
b1111 v
b1111111111111101 U
b1111111111111111 /
b1111111111111111 K
b1111111111111111 %"
b11 2
b11 M
b11 h
0,
b1001100101010110 0"
b1001100101010110 3"
16
b1010011010010000 X
b1100101100101100 w
b1100101100101100 z
1E
b1 .
b1 I
b1 !"
b110011010101000 +"
b110011010101000 ."
01
b1 3
b1 L
b1 g
b11010011010010 r
b11010011010010 u
1+
b1111111111111111 ("
b11001101010100 ~
b1111111111111110 o
b1001101001 4
b1001101001 N
b1001101001 i
b1101001101001 f
b1110101101101101 $
b1100110010101100 #
b1100110010101100 '
b1100110010101100 |
b1101001101001 "
b1101001101001 &
b1101001101001 e
b11 %
#30
b1xxxxxxxxxxx0000 W
b1011 _
b11 -
b11 J
b11 ""
b11 )"
b1111111111111110 /
b1111111111111110 K
b1111111111111110 %"
b10 #"
b10 1"
b1101 2"
b1101 4"
b0 j
b0 x
b1 k
b1 s
b1111 y
b1111 {
b1100 `
b1110 t
b1110 v
b1 p
b111111111111111x T
b10 2
b10 M
b10 h
b1100110100100110 0"
b1100110100100110 3"
b1111111111111110 U
b0 5
b0 O
b0 l
06
b1 .
b1 I
b1 !"
b11001011011000 +"
b11001011011000 ."
11
b1011101011111000 X
b111000101000000 w
b111000101000000 z
b1100101101100 ~
0E
b10 3
b10 L
b10 g
b1000111010111110 r
b1000111010111110 u
b1111111111111110 ("
10
b0 o
b11101011111 4
b11101011111 N
b11101011111 i
b100011101011111 f
b1110111000011 $
b1110011010010100 #
b1110011010010100 '
b1110011010010100 |
b1011100010100001 "
b1011100010100001 &
b1011100010100001 e
b100 %
#40
b1011 `
b11 2
b11 M
b11 h
b0 p
b1 5
b1 O
b1 l
b10 k
b10 s
b1xxxxxxxxxxxx000 W
b0 #"
b0 1"
b1101 t
b1101 v
b1 $"
b1 ,"
b1111 2"
b1111 4"
b1100 _
b1110 -"
b1110 /"
b1 )"
b0xx T
b10 -
b10 J
b10 ""
b1 U
b0 /
b0 K
b0 %"
b100100011110010 0"
b100100011110010 3"
b1101011001000000 X
b11010100110110 w
b11010100110110 z
1,
b10 .
b10 I
b10 !"
b1011011100001100 +"
b1011011100001100 ."
b110 3
b110 L
b110 g
b1100101011001000 r
b1100101011001000 u
b101101110000110 ~
1E
b10101100100 4
b10101100100 N
b10101100100 i
b110010101100100 f
b0 ("
00
b1 o
b1000111000111110 $
b1010010001111010 #
b1010010001111010 '
b1010010001111010 |
b110010101100100 "
b110010101100100 &
b110010101100100 e
b101 %
#50
b1001 `
b101 2
b101 M
b101 h
b1111111111111110 p
b0xxx T
b11 U
b11 5
b11 O
b11 l
b100 k
b100 s
b1011 t
b1011 v
b101111010110010 0"
b101111010110010 3"
b1010000101001100 +"
b1010000101001100 ."
16
b1010010111000000 X
b101011010000 w
b101011010000 z
0E
b101000010100110 ~
b11110 3
b11110 L
b11110 g
b1111010100101110 r
b1111010100101110 u
0+
b101000010100110 ("
b11 o
b10010111 4
b10010111 N
b10010111 i
b111101010010111 f
b111110001011001 $
b101000010100110 #
b101000010100110 '
b101000010100110 |
b111101010010111 "
b111101010010111 &
b111101010010111 e
b110 %
#60
b10 )"
b1111111111111111 /
b1111111111111111 K
b1111111111111111 %"
b1xxxxxxxxxxxx000 W
b1 #"
b1 1"
b0 $"
b0 ,"
b1110 2"
b1110 4"
b1 j
b1 x
b1100 _
b1111 -"
b1111 /"
06
b0 k
b0 s
b1110 y
b1110 {
b10 -
b10 J
b10 ""
b1100 `
b1111 t
b1111 v
b10 p
b111111111111111x T
b10 2
b10 M
b10 h
0,
b1 .
b1 I
b1 !"
b1010000100101110 0"
b1010000100101110 3"
b1111111111111110 U
b1111111111111111 5
b1111111111111111 O
b1111111111111111 l
b1011110101100000 X
b1011000010100110 w
b1011000010100110 z
1E
b101111011010000 +"
b101111011010000 ."
01
b1 3
b1 L
b1 g
b100111101011000 r
b100111101011000 u
1+
b1111111111111111 ("
b10111101101000 ~
b1111111111111111 o
b11110101100 4
b11110101100 N
b11110101100 i
b10011110101100 f
b1110010001100010 $
b1101000010011000 #
b1101000010011000 '
b1101000010011000 |
b10011110101100 "
b10011110101100 &
b10011110101100 e
b111 %
#70
b1011 `
b11 2
b11 M
b11 h
b11 p
b1111111111111110 5
b1111111111111110 O
b1111111111111110 l
b0 )"
bx T
b10 j
b10 x
b1xxxxxxxxxxx0000 W
b1111111111111111 U
b1 /
b1 K
b1 %"
b0 #"
b0 1"
b1101 y
b1101 {
b10 $"
b10 ,"
b1111 2"
b1111 4"
b1011 _
b1101 -"
b1101 /"
b11 -
b11 J
b11 ""
b10100011110110 0"
b10100011110110 3"
1,
b110 .
b110 I
b110 !"
b1101011100001000 +"
b1101011100001000 ."
06
b1111000100000000 X
b1101000111011110 w
b1101000111011110 z
0E
b110101110000100 ~
b1 3
b1 L
b1 g
b10111000100000 r
b10111000100000 u
0+
b1 ("
b1111111111111110 o
b11100010000 4
b11100010000 N
b11100010000 i
b1011100010000 f
b100010110101111 $
b110101110000100 #
b110101110000100 '
b110101110000100 |
b1011100010000 "
b1011100010000 &
b1011100010000 e
b1000 %
#80
b1xxxxxxxxx000000 W
b0 #"
b0 1"
b100 $"
b100 ,"
b1111 2"
b1111 4"
b1001 _
b1011 -"
b1011 /"
b1111111111111110 )"
b0xx T
b101 -
b101 J
b101 ""
b1 U
b11 /
b11 K
b11 %"
b111001010110 0"
b111001010110 3"
b1001000001110000 X
b1101110111110000 w
b1101110111110000 z
1E
1,
b11110 .
b11110 I
b11110 !"
b1111000110101000 +"
b1111000110101000 ."
b10001000001110 r
b10001000001110 u
1+
b11 ("
b111100011010100 ~
b1000100000111 o
b100000111 4
b100000111 N
b100000111 i
b1000100000111 f
b1001101100111100 $
b1000011100101100 #
b1000011100101100 '
b1000011100101100 |
b1000100000111 "
b1000100000111 &
b1000100000111 e
b1001 %
#90
b1001 `
b101 2
b101 M
b101 h
b101 p
b1111111111111100 5
b1111111111111100 O
b1111111111111100 l
b100 j
b100 x
b1011 y
b1011 {
b1xxxxxxxxxxxx000 W
b1 #"
b1 1"
b0 $"
b0 ,"
b1110 2"
b1110 4"
b1100 _
b1111 -"
b1111 /"
b10 )"
b1111111111111xxx T
b10 -
b10 J
b10 ""
b1111111111111011 U
b1111111111111111 /
b1111111111111111 K
b1111111111111111 %"
b1001000111001100 0"
b1001000111001100 3"
0,
b1 .
b1 I
b1 !"
b110111000110010 +"
b110111000110010 ."
b1100010010000000 X
b1111010111011010 w
b1111010111011010 z
0E
b11011100011001 ~
b1 3
b1 L
b1 g
b101000100100 r
b101000100100 u
0+
b1111111111111111 ("
b1111111111111100 o
b100010010 4
b100010010 N
b100010010 i
b10100010010 f
b10000110111 $
b11011100011001 #
b11011100011001 '
b11011100011001 |
b10100010010 "
b10100010010 &
b10100010010 e
b1010 %
#100
b1 )"
b1xxxxxxxxxxxx000 W
b0 /
b0 K
b0 %"
b0 #"
b0 1"
b1 $"
b1 ,"
b1111 2"
b1111 4"
b0 j
b0 x
b1100 _
b1110 -"
b1110 /"
b10 k
b10 s
b1111 y
b1111 {
b10 -
b10 J
b10 ""
b1011 `
b1101 t
b1101 v
b0 p
b0xx T
b11 2
b11 M
b11 h
1,
b10 .
b10 I
b10 !"
b100111100110110 0"
b100111100110110 3"
b1 U
b1 5
b1 O
b1 l
06
b1110110011100000 X
b11001001100010 w
b11001001100010 z
1E
b1011000011001000 +"
b1011000011001000 ."
11
b110 3
b110 L
b110 g
b1100110110011100 r
b1100110110011100 u
1+
b0 ("
b101100001100100 ~
b1 o
b11011001110 4
b11011001110 N
b11011001110 i
b110011011001110 f
b1000111001011100 $
b1010011110011100 #
b1010011110011100 '
b1010011110011100 |
b110011011001110 "
b110011011001110 &
b110011011001110 e
b1011 %
#110
b10 )"
b1111111111111111 /
b1111111111111111 K
b1111111111111111 %"
b1xxxxxxxxxxxx000 W
b1 #"
b1 1"
b0 $"
b0 ,"
b1110 2"
b1110 4"
b0 j
b0 x
b1100 _
b1111 -"
b1111 /"
b11 k
b11 s
b1111 y
b1111 {
b10 -
b10 J
b10 ""
b1010 `
b1100 t
b1100 v
b1001101001001110 0"
b1001101001001110 3"
b1111111111111111 p
b0xx T
b100 2
b100 M
b100 h
0,
b1 .
b1 I
b1 !"
b110010110110000 +"
b110010110110000 ."
b1 U
b10 5
b10 O
b10 l
06
b1110101101100000 X
b1100101001000 w
b1100101001000 z
b11001011011000 ~
0E
11
b1110 3
b1110 L
b1110 g
b1110011010110110 r
b1110011010110110 u
b1111111111111111 ("
10
b10 o
b1101011011 4
b1101011011 N
b1101011011 i
b111001101011011 f
b111000001010101 $
b1100110100101000 #
b1100110100101000 '
b1100110100101000 |
b1000110010100101 "
b1000110010100101 &
b1000110010100101 e
b1100 %
#120
b1 )"
b1xxxxxxxxxxxx000 W
b0 /
b0 K
b0 %"
b0 #"
b0 1"
b10 j
b10 x
b1 $"
b1 ,"
b1111 2"
b1111 4"
b0 k
b0 s
b1101 y
b1101 {
b1100 _
b1110 -"
b1110 /"
b1011 `
b1111 t
b1111 v
b10 -
b10 J
b10 ""
b11 p
b111111111111111x T
b11 2
b11 M
b11 h
b101111100110100 0"
b101111100110100 3"
b1111111111111110 U
b1111111111111110 5
b1111111111111110 O
b1111111111111110 l
06
b1101000000010000 X
b1101010111111100 w
b1101010111111100 z
1,
b10 .
b10 I
b10 !"
b1010000011001010 +"
b1010000011001010 ."
01
b1 3
b1 L
b1 g
b10101000000010 r
b10101000000010 u
b101000001100101 ~
b10100000001 4
b10100000001 N
b10100000001 i
b1010100000001 f
b0 ("
b1111111111111110 o
b1110101010011 $
b1010111110011011 #
b1010111110011011 '
b1010111110011011 |
b1110101011111111 "
b1110101011111111 &
b1110101011111111 e
b1101 %
#130
b10 )"
b1111111111111111 /
b1111111111111111 K
b1111111111111111 %"
b1xxxxxxxxxxxx000 W
b1 #"
b1 1"
b0 j
b0 x
b0 $"
b0 ,"
b1110 2"
b1110 4"
b1 k
b1 s
b1111 y
b1111 {
b1100 _
b1111 -"
b1111 /"
b1100 `
b1110 t
b1110 v
b10 -
b10 J
b10 ""
b1 p
bx T
b10 2
b10 M
b10 h
b1001101000101000 0"
b1001101000101000 3"
b1111111111111111 U
b0 5
b0 O
b0 l
06
b1101000010100000 X
b110101111010110 w
b110101111010110 z
0,
b1 .
b1 I
b1 !"
b110010111010110 +"
b110010111010110 ."
11
b10 3
b10 L
b10 g
b1001010000101000 r
b1001010000101000 u
b11001011101011 ~
1E
b101000010100 4
b101000010100 N
b101000010100 i
b100101000010100 f
b1111111111111111 ("
00
b0 o
b1100000100101010 $
b1100110100010101 #
b1100110100010101 '
b1100110100010101 |
b100101000010100 "
b100101000010100 &
b100101000010100 e
b1110 %
#140
b10 p
b1111111111111111 5
b1111111111111111 O
b1111111111111111 l
b1 )"
bx T
b1xxxxxxxxxxxx000 W
b1111111111111111 U
b0 /
b0 K
b0 %"
b0 #"
b0 1"
b1 j
b1 x
b1 $"
b1 ,"
b1111 2"
b1111 4"
b0 k
b0 s
b1110 y
b1110 {
b1100 _
b1110 -"
b1110 /"
b1100 `
b1111 t
b1111 v
b10 -
b10 J
b10 ""
b10 2
b10 M
b10 h
b111011010100000 0"
b111011010100000 3"
16
1,
b10 .
b10 I
b10 !"
b1000100101011110 +"
b1000100101011110 ."
01
b1 3
b1 L
b1 g
b1001100010110000 X
b1001100111010010 w
b1001100111010010 z
b100010010101111 ~
b110011000101100 r
b110011000101100 u
0+
b0 ("
10
b1111111111111111 o
b1100010110 4
b1100010110 N
b1100010110 i
b11001100010110 f
b1100011101010100 $
b100010010101111 #
b100010010101111 '
b100010010101111 |
b1100110011101010 "
b1100110011101010 &
b1100110011101010 e
b1111 %
#150
b1000 `
b110 2
b110 M
b110 h
b110 p
b1111111111111xxx T
b1111111111111011 U
b1111111111111011 5
b1111111111111011 O
b1111111111111011 l
b101 j
b101 x
b1010 y
b1010 {
06
b1100011100000000 X
b1111101011100010 w
b1111101011100010 z
b101001010101100 0"
b101001010101100 3"
b1 3
b1 L
b1 g
b10100011100 r
b10100011100 u
b1010110101010010 +"
b1010110101010010 ."
b10001110 4
b10001110 N
b10001110 i
b1010001110 f
b101011010101001 ("
b101011010101001 ~
b1111111111111011 o
b1111101111001100 $
b101011010101001 #
b101011010101001 '
b101011010101001 |
b1111110101110010 "
b1111110101110010 &
b1111110101110010 e
b10000 %
#160
16
b1100 `
b10 2
b10 M
b10 h
b10 p
b11 )"
b1111111111111111 5
b1111111111111111 O
b1111111111111111 l
b11111111111111xx T
b1111111111111101 U
b1111111111111110 /
b1111111111111110 K
b1111111111111110 %"
b1 j
b1 x
b1110 y
b1110 {
b1xxxxxxxxxxx0000 W
b10 #"
b10 1"
b0 $"
b0 ,"
b1101 2"
b1101 4"
b1011 _
b1111 -"
b1111 /"
b11 -
b11 J
b11 ""
b1110000011111000 X
b1000011111000000 w
b1000011111000000 z
0,
b1101100001110110 0"
b1101100001110110 3"
b1 3
b1 L
b1 g
b111100000111110 r
b111100000111110 u
0E
b1 .
b1 I
b1 !"
b10011110001000 +"
b10011110001000 ."
b110000011111 4
b110000011111 N
b110000011111 i
b11110000011111 f
1+
b1111111111111110 ("
b1001111000100 ~
b1111111111111111 o
b1001001010111 $
b1110110000111100 #
b1110110000111100 '
b1110110000111100 |
b1100001111100001 "
b1100001111100001 &
b1100001111100001 e
b10001 %
#170
b1010 `
b100 2
b100 M
b100 h
b100 p
b1111111111111101 5
b1111111111111101 O
b1111111111111101 l
b11 j
b11 x
b1100 y
b1100 {
b1xxxxxxxxxxx0000 W
b0 #"
b0 1"
b10 $"
b10 ,"
b1111 2"
b1111 4"
b1011 _
b1101 -"
b1101 /"
b0 )"
b111111111111111x T
b11 -
b11 J
b11 ""
b1111111111111110 U
b1 /
b1 K
b1 %"
b11011100110010 0"
b11011100110010 3"
16
b1110001000000000 X
b1110000111011110 w
b1110000111011110 z
1,
b110 .
b110 I
b110 !"
b1100100011001100 +"
b1100100011001100 ."
b1 3
b1 L
b1 g
b1111000100000 r
b1111000100000 u
b110010001100110 ~
b1100010000 4
b1100010000 N
b1100010000 i
b111100010000 f
0+
b1 ("
00
b1111111111111101 o
b10010111100100 $
b110010001100110 #
b110010001100110 '
b110010001100110 |
b111100010000 "
b111100010000 &
b111100010000 e
b10010 %
#180
b1100 `
b10 2
b10 M
b10 h
b10 p
b1111111111111111 5
b1111111111111111 O
b1111111111111111 l
b1 j
b1 x
b1xxxxxxxxxx00000 W
b11 #"
b11 1"
b1110 y
b1110 {
b0 $"
b0 ,"
b1100 2"
b1100 4"
b1010 _
b1111 -"
b1111 /"
b100 )"
b111111111111110x T
b100 -
b100 J
b100 ""
b1111111111111100 U
b1111111111111101 /
b1111111111111101 K
b1111111111111101 %"
0,
b1110100110011010 0"
b1110100110011010 3"
16
b1100011010000000 X
b1000111001011110 w
b1000111001011110 z
1E
b1 .
b1 I
b1 !"
b1011001100100 +"
b1011001100100 ."
b1 3
b1 L
b1 g
b111000110100000 r
b111000110100000 u
1+
b1111111111111101 ("
b101100110010 ~
b1111111111111111 o
b100011010000 4
b100011010000 N
b100011010000 i
b11100011010000 f
b1111011001101100 $
b1111010011001110 #
b1111010011001110 '
b1111010011001110 |
b11100011010000 "
b11100011010000 &
b11100011010000 e
b10011 %
#190
b1111111111111110 p
b1xxxxxx000000000 W
b0 #"
b0 1"
b11 5
b11 O
b11 l
b0 j
b0 x
b111 $"
b111 ,"
b1111 2"
b1111 4"
b100 k
b100 s
b1111 y
b1111 {
b110 _
b1000 -"
b1000 /"
b1001 `
b1011 t
b1011 v
b1111111111111011 )"
b10xx T
b1000 -
b1000 J
b1000 ""
b101 2
b101 M
b101 h
b1001 U
b110 /
b110 K
b110 %"
b111011000 0"
b111011000 3"
1,
b11111110 .
b11111110 I
b11111110 !"
b1111111000100110 +"
b1111111000100110 ."
11
16
b1011001100000000 X
b101001100110 w
b101001100110 z
b111111100010011 ~
b11110 3
b11110 L
b11110 g
b1111010110011000 r
b1111010110011000 u
0+
b110 ("
10
b11 o
b11001100 4
b11001100 N
b11001100 i
b111101011001100 f
b1000000000010001 $
b111111100010011 #
b111111100010011 '
b111111100010011 |
b1000010100110100 "
b1000010100110100 &
b1000010100110100 e
b10100 %
#200
b1010 `
b100 2
b100 M
b100 h
b1111111111111111 p
b10 5
b10 O
b10 l
b11 k
b11 s
b1100 t
b1100 v
b1xxxxxxxxxxx0000 W
b10 #"
b10 1"
b0 $"
b0 ,"
b1101 2"
b1101 4"
b1011 _
b1111 -"
b1111 /"
b11 )"
b0x T
b11 -
b11 J
b11 ""
b1101001110100000 X
b1001011000100 w
b1001011000100 z
b0 U
b1111111111111110 /
b1111111111111110 K
b1111111111111110 %"
b1101100111101010 0"
b1101100111101010 3"
b1110 3
b1110 L
b1110 g
b1110110100111010 r
b1110110100111010 u
0,
b1 .
b1 I
b1 !"
b10011000010100 +"
b10011000010100 ."
b1010011101 4
b1010011101 N
b1010011101 i
b111011010011101 f
b1111111111111110 ("
b1001100001010 ~
b10 o
b1001111011100000 $
b1001100001010 #
b1001100001010 '
b1001100001010 |
b1000100101100011 "
b1000100101100011 &
b1000100101100011 e
b10101 %
