waveforms/tb_mul_core_P32E2.vcd
$date
	Thu Dec 23 22:43:52 2021
$end
$version
	Icarus Verilog
$end
$timescale
	1s
$end
$scope module tb_mul_core $end
$var wire 1 ! pout_sign $end
$var wire 6 " pout_reg_len [5:0] $end
$var wire 32 # pout_mant [31:0] $end
$var wire 6 $ pout_k [5:0] $end
$var wire 1 % pout_is_zero $end
$var wire 1 & pout_is_inf $end
$var wire 2 ' pout_exp [1:0] $end
$var reg 1 ( diff_pout_exp $end
$var reg 1 ) diff_pout_is_inf $end
$var reg 1 * diff_pout_is_zero $end
$var reg 1 + diff_pout_k $end
$var reg 1 , diff_pout_mant $end
$var reg 1 - diff_pout_reg_len $end
$var reg 1 . diff_pout_sign $end
$var reg 2 / p1_exp [1:0] $end
$var reg 32 0 p1_hex [31:0] $end
$var reg 1 1 p1_is_inf $end
$var reg 1 2 p1_is_zero $end
$var reg 6 3 p1_k [5:0] $end
$var reg 32 4 p1_mant [31:0] $end
$var reg 6 5 p1_reg_len [5:0] $end
$var reg 1 6 p1_reg_s $end
$var reg 1 7 p1_sign $end
$var reg 2 8 p2_exp [1:0] $end
$var reg 32 9 p2_hex [31:0] $end
$var reg 1 : p2_is_inf $end
$var reg 1 ; p2_is_zero $end
$var reg 6 < p2_k [5:0] $end
$var reg 32 = p2_mant [31:0] $end
$var reg 6 > p2_reg_len [5:0] $end
$var reg 1 ? p2_reg_s $end
$var reg 1 @ p2_sign $end
$var reg 2 A pout_exp_expected [1:0] $end
$var reg 32 B pout_hex [31:0] $end
$var reg 1 C pout_is_inf_expected $end
$var reg 1 D pout_is_zero_expected $end
$var reg 6 E pout_k_expected [5:0] $end
$var reg 32 F pout_mant_expected [31:0] $end
$var reg 1 G pout_off_by_1 $end
$var reg 6 H pout_reg_len_expected [5:0] $end
$var reg 1 I pout_sign_expected $end
$var reg 33 J test_no [32:0] $end
$scope function abs $end
$var reg 32 K in [31:0] $end
$upscope $end
$scope function c2 $end
$var reg 32 L a [31:0] $end
$upscope $end
$scope module mul_core_inst $end
$var wire 64 M _mant_fractional_part_left_1 [63:0] $end
$var wire 2 N p1_exp [1:0] $end
$var wire 1 1 p1_is_inf $end
$var wire 1 2 p1_is_zero $end
$var wire 6 O p1_k [5:0] $end
$var wire 32 P p1_mant [31:0] $end
$var wire 6 Q p1_reg_len [5:0] $end
$var wire 1 6 p1_reg_s $end
$var wire 1 7 p1_sign $end
$var wire 2 R p2_exp [1:0] $end
$var wire 1 : p2_is_inf $end
$var wire 1 ; p2_is_zero $end
$var wire 6 S p2_k [5:0] $end
$var wire 32 T p2_mant [31:0] $end
$var wire 6 U p2_reg_len [5:0] $end
$var wire 1 ? p2_reg_s $end
$var wire 1 @ p2_sign $end
$var wire 1 & pout_is_inf $end
$var wire 1 % pout_is_zero $end
$var wire 6 V pout_k [5:0] $end
$var wire 32 W pout_mant [31:0] $end
$var wire 6 X pout_reg_len [5:0] $end
$var wire 1 ! pout_sign $end
$var wire 6 Y reg_len [5:0] $end
$var wire 2 Z pout_exp [1:0] $end
$var wire 6 [ mant_len [5:0] $end
$var wire 32 \ mant_fractional_part_left [31:0] $end
$var wire 1 ] mant_carry $end
$var wire 1 ^ k_is_oob $end
$var wire 32 _ f2 [31:0] $end
$var wire 32 ` f1 [31:0] $end
$var wire 64 a _mant_2 [63:0] $end
$var wire 64 b _mant_1 [63:0] $end
$var wire 6 c _k_4 [5:0] $end
$var wire 6 d _k_3 [5:0] $end
$var wire 6 e _k_2 [5:0] $end
$var wire 6 f _k_1 [5:0] $end
$var wire 1 g _exp_carry_2 $end
$var wire 1 h _exp_carry_1 $end
$var wire 3 i _exp_4 [2:0] $end
$var wire 3 j _exp_3 [2:0] $end
$var wire 3 k _exp_2 [2:0] $end
$var wire 3 l _exp_1 [2:0] $end
$var wire 6 m F2 [5:0] $end
$var wire 6 n F1 [5:0] $end
$scope function c2 $end
$var reg 32 o a [31:0] $end
$upscope $end
$scope function max $end
$var reg 32 p a [31:0] $end
$var reg 32 q b [31:0] $end
$upscope $end
$scope function min $end
$var reg 32 r a [31:0] $end
$var reg 32 s b [31:0] $end
$upscope $end
$upscope $end
$upscope $end
$enddefinitions $end
#0
$dumpvars
bx s
bx r
bx q
bx p
b0 o
b11011 n
b11011 m
b101 l
b1 k
b10 j
b10 i
1h
0g
b111111 f
b0 e
b0 d
b0 c
b1011000000010010001100011101000110011110111111000101000000000000 b
b101100000001001000110001110100011001111011111100010100000000000 a
b11000110110110100101110101110000 `
b11100010101010111100001100000000 _
0^
1]
b11000000010010001100011101 \
b11011 [
b10 Z
b10 Y
b10 X
b11000000010010001100011101 W
b0 V
b10 U
b110001010101011110000110000 T
b0 S
b10 R
b10 Q
b100011011011010010111010111 P
b111111 O
b11 N
b1100000001001000110001110100011001111011111100010100000000000 M
bx L
b0 K
b1 J
0I
b10 H
0G
b11000000010010001100011101 F
b0 E
0D
0C
b1010011000000010010001100011101 B
b10 A
0@
1?
b10 >
b110001010101011110000110000 =
b0 <
0;
0:
b1010110001010101011110000110000 9
b10 8
07
06
b10 5
b100011011011010010111010111 4
b111111 3
02
01
b111100011011011010010111010111 0
b11 /
0.
0-
0,
0+
0*
0)
0(
b10 '
0&
0%
b0 $
b11000000010010001100011101 #
b10 "
0!
$end
#10
b11011 [
0-
b10 "
b10 X
b10 Y
1G
b11111111111111111111111111111111 L
b0 o
b10000101100100010100010000 #
b10000101100100010100010000 W
b10000101100100010100010000 \
0+
b0 $
b0 V
b0 c
b1000010110010001010001000011111000001001010100011010000000000 M
b11 '
b11 Z
b101000010110010001010001000011111000001001010100011010000000000 a
b11 i
b11 j
b0 d
b10111101010000010001111001100000 _
b1010000101100100010100010000111110000010010101000110100000000000 b
b11011010010011111001111111000000 `
b10 k
b11111111111111111111111111111111 K
x,
0(
0h
b0 e
b10000101100100010100010001 F
b11 A
b1011010000101100100010100010001 B
b11110101000001000111100110 =
b11110101000001000111100110 T
b1 8
b1 R
b1001011110101000001000111100110 9
b101101001001111100111111100 4
b101101001001111100111111100 P
b10 l
b1 /
b1 N
b0 f
b0 3
b0 O
16
b1001101101001001111100111111100 0
b10 J
#20
b11011 [
0-
b10 "
b10 X
b10 Y
b111111 o
0,
b100101011111001001000010111 #
b100101011111001001000010111 W
b100101011111001001000010111 \
b111111 $
b111111 V
b111111 c
b10010101111100100100001011101100000010100000010111011100000000 M
b110010101111100100100001011101100000010100000010111011100000000 a
b1 '
b1 Z
0g
b1 i
b111111 d
b11111101010011001111110100010000 _
b1100101011111001001000010111011000000101000000101110111000000000 b
b11001101001000101101100011100000 `
b1 j
0G
b11111101101010000011011011110100 L
b0 K
0(
0+
1h
1!
b0 k
b111111 e
b11010 n
b100101011111001001000010111 F
b1 A
b111111 E
1I
b11010011010100000110110111101001 B
b111110101001100111111010001 =
b111110101001100111111010001 T
b10 8
b10 R
1@
b10101000001010110011000000101111 9
b10011010010001011011000111 4
b10011010010001011011000111 P
b100 l
b10 /
b10 N
b111110 f
b111110 3
b111110 O
b11 5
b11 Q
06
b11010011010010001011011000111 0
b11 J
#30
1G
b11111111111111111111111111111111 L
b11000 [
b101 "
b101 X
b101 Y
b11 o
b100100011111001101000110 #
b100100011111001101000110 W
b100100011111001101000110 \
b11 $
b11 V
b11 c
b10010001111100110100011010100101000011110110011110000000000000 M
b110010001111100110100011010100101000011110110011110000000000000 a
b11 d
b11010001001110111101010000000000 _
b1100100011111001101000110101001010000111101100111100000000000000 b
b11110101111001010100001100110000 `
b11111111111111111111111111111111 K
x,
0+
0-
b11000 m
0h
b11 e
b11011 n
b100100011111001101000111 F
b11 E
b101 H
b10000110011011100000110010111001 B
b101000100111011110101000 =
b101000100111011110101000 T
b0 8
b0 R
b11 <
b11 S
b101 >
b101 U
0@
b1111000101000100111011110101000 9
b111010111100101010000110011 4
b111010111100101010000110011 P
b0 l
b0 /
b0 N
b11 f
b0 3
b0 O
b10 5
b10 Q
16
17
b10111000101000011010101111001101 0
b100 J
#40
b11011 [
b10 "
b10 X
b10 Y
b0 o
b111010000111111010001111011 #
b111010000111111010001111011 W
b111010000111111010001111011 \
b0 $
b0 V
b0 c
b11101000011111101000111101111001011001110001010010001000000000 M
b111101000011111101000111101111001011001110001010010001000000000 a
b11 '
b11 Z
0]
0g
b11 i
b0 d
b10110101001110101001101010010000 _
b111101000011111101000111101111001011001110001010010001000000000 b
b10101100100000100101010100100000 `
b11 j
1G
b11111111111111111111111111111111 L
b11111111111111111111111111111111 K
0(
0+
0-
b11011 m
b11 k
b0 e
b11010 n
b111010000111111010001111100 F
b11 A
b0 E
b10 H
b10100000101111000000101110000100 B
b11010100111010100110101001 =
b11010100111010100110101001 T
b10 8
b10 R
b111111 <
b111111 S
b10 >
b10 U
0?
1@
b11001100101011000101011001010111 9
b1011001000001001010101001 4
b1011001000001001010101001 P
b11 l
b1 /
b1 N
b0 f
b1 3
b1 O
b11 5
b11 Q
07
b1100101011001000001001010101001 0
b101 J
#50
b11111111111111111111111111111111 L
b11001 [
b100 "
b100 X
b100 Y
b10 o
b1010001010111000111101 #
b1010001010111000111101 W
b1010001010111000111101 \
b10 $
b10 V
b10 c
b10100010101110001111011001011110111101111010001100000000000 M
b1 '
b1 Z
1]
b100010100010101110001111011001011110111101111010001100000000000 a
0g
b1 i
b10101101011111000110010000100000 _
b1000101000101011100011110110010111101111011110100011000000000000 b
b11001011111000110010000110000000 `
b1 j
b10 d
1G
b11111111111111111111111111111111 K
0(
0+
0-
b11010 m
1h
b0 k
b10 e
b11000 n
b1010001010111000111110 F
b1 A
b10 E
b100 H
b10001101110101110101000111000010 B
b1011010111110001100100001 =
b1011010111110001100100001 T
b111110 <
b111110 S
b11 >
b11 U
b11100110100101000001110011011111 9
b100101111100011001000011 4
b100101111100011001000011 P
b100 l
b10 /
b10 N
b1 f
b11 3
b11 O
b101 5
b101 Q
b1111010100101111100011001000011 0
b110 J
#60
b11011 [
b10 "
b10 X
b10 Y
b0 o
b11010010010011100000101001 #
b11010010010011100000101001 W
b11010010010011100000101001 \
b0 $
b0 V
b0 c
b1101001001001110000010100110010111111100000110111101000000000 M
b0 '
b0 Z
b101101001001001110000010100110010111111100000110111101000000000 a
1g
b0 i
b100 j
b0 d
b10111000010110000100101000100000 _
b1011010010010011100000101001100101111111000001101111010000000000 b
b11111010110001000011010110100000 `
b11 k
1G
b11111111111111111111111111111111 L
b11111111111111111111111111111111 K
0(
0+
0-
b11011 m
0h
b111111 e
b11011 n
b11010010010011100000101010 F
b0 A
b0 E
b10 H
b10111100101101101100011111010110 B
b11100001011000010010100010 =
b11100001011000010010100010 T
b11 8
b11 R
b0 <
b0 S
b10 >
b10 U
1?
b10100100011110100111101101011110 9
b111101011000100001101011010 4
b111101011000100001101011010 P
b11 l
b0 /
b0 N
b111111 f
b111111 3
b111111 O
b10 5
b10 Q
06
b100111101011000100001101011010 0
b111 J
#70
0,
b11010 [
b11 "
b11 X
b11 Y
b11 '
b11 Z
b111110 o
b11 i
b11101000111010101000111100 #
b11101000111010101000111100 W
b11101000111010101000111100 \
b111110 $
b111110 V
b111110 c
0g
b11101000111010101000111100011111001010001101010010110000000000 M
b11 j
b111101000111010101000111100011111001010001101010010110000000000 a
0]
b111110 d
b10001010011001000110010100100000 _
b111101000111010101000111100011111001010001101010010110000000000 b
b11100010000110011110101001100000 `
0G
b11111111101001011000110111101101 L
b0 K
0(
0+
0-
0!
b111110 e
b11010 n
b11101000111010101000111100 F
b11 A
b111110 E
b11 H
0I
b11111101000111010101000111100 B
b101001100100011001010010 =
b101001100100011001010010 T
b10 8
b10 R
0@
b1010000101001100100011001010010 9
b11000100001100111101010011 4
b11000100001100111101010011 P
b11 l
b1 /
b1 N
b111110 f
b111110 3
b111110 O
b11 5
b11 Q
b10111000100001100111101010011 0
b1000 J
#80
b11001 [
b100 "
b100 X
b100 Y
b111101 o
b111101 $
b111101 V
b111101 c
b11010111001110100110010 #
b11010111001110100110010 W
b11010111001110100110010 \
b110101110011101001100100111000000110111000000000100100000000 M
b10 '
b10 Z
1]
b100110101110011101001100100111000000110111000000000100100000000 a
b10 i
b11110110011110001101010110010000 _
b111101 d
b1001101011100111010011001001110000001101110000000001001000000000 b
b10100000111001000100011000100000 `
b10 j
b0 K
0,
0(
0+
0-
b111101 e
1!
b1 k
b11010111001110100110010 F
b10 A
b111101 E
b100 H
1I
b11110011100101000110001011001110 B
b111011001111000110101011001 =
b111011001111000110101011001 T
b1 8
b1 R
b111101 f
b111111 <
b111111 S
0?
1@
b11010000100110000111001010100111 9
b1000001110010001000110001 4
b1000001110010001000110001 P
b1 l
b0 /
b0 N
b10001000001110010001000110001 0
b1001 J
#90
b11010 [
b11 "
b11 X
b11 Y
b111110 o
b111110 $
b111110 V
b111110 c
b11111111111110111010111010100010 L
b10001010001010111011 #
b10001010001010111011 W
b10001010001010111011 \
b10001010001010111011000111111011011101101100000000000000 M
b111110 d
b100000010001010001010111011000111111011011101101100000000000000 a
b0 '
b0 Z
1g
b0 i
b11110000100011010001100100000000 _
b1000000100010100010101110110001111110110111011011000000000000000 b
b10001001010111101000100110000000 `
b100 j
b0 K
0,
0(
0+
0-
b11010 m
0!
b11 k
b11000 n
b10001010001010111011 F
b0 A
b111110 E
b11 H
0I
b10000000010001010001010111011 B
b11100001000110100011001000 =
b11100001000110100011001000 T
b10 8
b10 R
b1 <
b1 S
b11 >
b11 U
1?
0@
b1101011100001000110100011001000 9
b100101011110100010011 4
b100101011110100010011 P
b11 l
b1 /
b1 N
b111101 f
b111100 3
b111100 O
b101 5
b101 Q
b101000100101011110100010011 0
b1010 J
#100
1G
b10111 [
b110 "
b110 X
b110 Y
b100 o
b10001101101111010001110 #
b10001101101111010001110 W
b10001101101111010001110 \
b100 $
b100 V
b100 c
b10 '
b10 Z
b10001101101111010001110100000101010101101001010010000000000000 M
b10 i
b110001101101111010001110100000101010101101001010010000000000000 a
0g
b100 d
b11101001101101101000101100000000 _
b10 j
b1100011011011110100011101000001010101011010010100100000000000000 b
b11011001110101010110011011000000 `
b11111111111111111111111111111111 L
b11111111111111111111111111111111 K
x,
0(
0+
0-
b1 k
b11000 m
1!
b100 e
b11010 n
b10001101101111010001111 F
b10 A
b100 E
b110 H
1I
b10000010101110010010000101110001 B
b110100110110110100010110 =
b110100110110110100010110 T
b1 l
b0 8
b0 R
b11 <
b11 S
b101 >
b101 U
1@
b10000111001011001001001011101010 9
b10110011101010101100110110 4
b10110011101010101100110110 P
b100 f
b1 3
b1 O
b11 5
b11 Q
16
b1100110110011101010101100110110 0
b1011 J
#110
b11001 [
b100 "
b100 X
b100 Y
b10 o
b1001010100010101001011111 #
b1001010100010101001011111 W
b1001010100010101001011111 \
b10 $
b10 V
b10 c
b10010101000101010010111111001100010000110101010010000000000000 M
b0 '
b0 Z
b110010101000101010010111111001100010000110101010010000000000000 a
1g
b0 i
b10 d
b11110001100111010110011010000000 _
b100 j
b1100101010001010100101111110011000100001101010100100000000000000 b
b11010110100110011010011010000000 `
1G
b11111111111111111111111111111111 L
b11111111111111111111111111111111 K
0(
0+
0-
b11 k
b11011 m
b1 e
b11001 n
b1001010100010101001100000 F
b0 A
b10 E
b100 H
b10001110110101011101010110100000 B
b111000110011101011001101000 =
b111000110011101011001101000 T
b11 l
b10 8
b10 R
b111111 <
b111111 S
b10 >
b10 U
0?
0@
b110111000110011101011001101000 9
b1010110100110011010011010 4
b1010110100110011010011010 P
b1 f
b10 3
b10 O
b100 5
b100 Q
17
b10001100101001011001100101100110 0
b1100 J
#120
0,
b11011 [
b10 "
b10 X
b10 Y
b111111 o
0(
b10011111100011100100010000 #
b10011111100011100100010000 W
b10011111100011100100010000 \
b111111 $
b111111 V
b111111 c
b0 '
b0 Z
b1001111110001110010001000001111000110011010001000101000000000 M
0g
b0 i
b101001111110001110010001000001111000110011010001000101000000000 a
0]
b111111 d
b10000110001101111000101000110000 _
b0 j
b101001111110001110010001000001111000110011010001000101000000000 b
b10100000000111001011111011100000 `
0G
b11111110001000010101010100110100 L
b0 K
0+
0-
1h
b0 k
0!
b111111 e
b11010 n
b10011111100011100100010000 F
b111111 E
b10 H
0I
b100010011111100011100100010000 B
b11000110111100010100011 =
b11000110111100010100011 T
b100 l
b11 8
b11 R
b0 <
b0 S
1?
1@
b10100111100111001000011101011101 9
b1000000001110010111110111 4
b1000000001110010111110111 P
b111110 f
b111110 3
b111110 O
b11 5
b11 Q
06
b11101010111111110001101000001001 0
b1101 J
#130
b111111 o
1G
0+
b11 '
b11 Z
b101101010010101101110001110 #
b101101010010101101110001110 W
b101101010010101101110001110 \
b111111 $
b111111 V
b111111 c
b11 i
b10110101001010110111000111010001110100011101001001001000000000 M
b11 j
b110110101001010110111000111010001110100011101001001001000000000 a
b10101101011110100000110001010000 _
b11 k
b110110101001010110111000111010001110100011101001001001000000000 b
b10100001010010000111011010100000 `
b111111 d
b11111111111111111111111111111111 L
b11111111111111111111111111111111 K
x,
0(
0h
b111111 e
b11011 n
1!
b101101010010101101110001111 F
b11 A
1I
b11000010010101101010010001110001 B
b10110101111010000011000101 =
b10110101111010000011000101 T
b11 l
b10 8
b10 R
b111111 <
b111111 S
0?
b11001101001010000101111100111011 9
b10000101001000011101101010 4
b10000101001000011101101010 P
b111111 f
b0 3
b0 O
b10 5
b10 Q
16
07
b1001010000101001000011101101010 0
b1110 J
#140
b0 o
b0 $
b0 V
b0 c
b0 d
0,
b0 '
b0 Z
1g
b0 i
b1100110110111010101110101 #
b1100110110111010101110101 W
b1100110110111010101110101 \
b100 j
b110011011011101010111010100010011010000011011011110000000000 M
1]
b100110011011011101010111010100010011010000011011011110000000000 a
b11001010111100111111000100110000 _
b1001100110110111010101110101000100110100000110110111100000000000 b
b11000001111001001101101010000000 `
0G
b0 K
0(
0+
b1100110110111010101110101 F
b0 A
b0 E
b10111110011001001000101010001011 B
b100101011110011111100010011 =
b100101011110011111100010011 T
b0 8
b0 R
b0 <
b0 S
1?
0@
b1000100101011110011111100010011 9
b100000111100100110110101000 4
b100000111100100110110101000 P
b11 l
b11 /
b11 N
b111111 f
b111111 3
b111111 O
06
17
b11000011111000011011001001011000 0
b10001 J
#150
1G
b11010 [
b11 "
b11 X
b11 Y
b111110 o
b1100111100010100000110010 #
b1100111100010100000110010 W
b1100111100010100000110010 \
b111110 $
b111110 V
b111110 c
b10 '
b10 Z
b1100111100010100000110010111110110001010001000111000000000000 M
0g
b10 i
b101100111100010100000110010111110110001010001000111000000000000 a
b111110 d
b11101010100111110001001101000000 _
b10 j
b1011001111000101000001100101111101100010100010001110000000000000 b
b11000100001001100111000110000000 `
b11111111111111111111111111111111 L
b11111111111111111111111111111111 K
x,
0(
0+
0-
1h
b1 k
b111110 e
b11001 n
0!
b1100111100010100000110011 F
b10 A
b111110 E
b11 H
0I
b11001100111100010100000110011 B
b110101010011111000100110100 =
b110101010011111000100110100 T
b101 l
b10 8
b10 R
b1010110101010011111000100110100 9
b1000100001001100111000110 4
b1000100001001100111000110 P
b111101 f
b111101 3
b111101 O
b100 5
b100 Q
07
b1111000100001001100111000110 0
b10010 J
#160
b11111111111111111111111111111111 L
b11010 [
0-
b11 "
b11 X
b11 Y
b111110 o
0+
b111110 $
b111110 V
b111110 c
b10001101100000000110101 #
b10001101100000000110101 W
b10001101100000000110101 \
b0 '
b0 Z
b10001101100000000110101101110001010101100000110010000000000 M
b111110 d
1g
b0 i
b100010001101100000000110101101110001010101100000110010000000000 a
b100 j
b11111000011011000011011101100000 _
b111101 e
b11 k
b1000100011011000000001101011011100010101011000001100100000000000 b
b10001101000001001000111011000000 `
1G
b11111111111111111111111111111111 K
0(
0h
b11010 m
1!
b11011 n
b10001101100000000110110 F
b0 A
1I
b11101111101110010011111111001010 B
b11110000110110000110111011 =
b11110000110110000110111011 T
b11 l
b0 8
b0 R
b111110 <
b111110 S
b11 >
b11 U
0?
1@
b11101100001111001001111001000101 9
b110100000100100011101100 4
b110100000100100011101100 P
b111101 f
b111111 3
b111111 O
b10 5
b10 Q
b111000110100000100100011101100 0
b10011 J
#170
b11011 [
b10 "
b10 X
b10 Y
b0 o
b10101010001001011100111 #
b10101010001001011100111 W
b10101010001001011100111 \
b0 $
b0 V
b0 c
b1 '
b1 Z
b1010101000100101110011110010000001001001101001000000000000 M
0g
b1 i
b100001010101000100101110011110010000001001001101001000000000000 a
b0 d
b11001100010100101110100001000000 _
b1 j
b1000010101010001001011100111100100000010010011010010000000000000 b
b10100111000010001110010010000000 `
1G
b11111111111111111111111111111111 L
b11111111111111111111111111111111 K
0(
0+
0-
1h
b0 k
b11001 m
b0 e
b11001 n
0!
b10101010001001011101000 F
b1 A
b0 E
b10 H
0I
b1001000010101010001001011101000 B
b1001100010100101110100001 =
b1001100010100101110100001 T
b100 l
b1 8
b1 R
b111101 <
b111101 S
b100 >
b100 U
b11110100110011101011010001011111 9
b100111000010001110010010 4
b100111000010001110010010 P
b111111 f
b10 3
b10 O
b100 5
b100 Q
16
17
b10001001011000111101110001101110 0
b10101 J
#180
0,
b10100 [
b1001 "
b1001 X
b1001 Y
b111 o
b111010011001000110 #
b111010011001000110 W
b111010011001000110 \
b111 $
b111 V
b111 c
b0 '
b0 Z
b111010011001000110001010111110011001011001010110000000000000 M
1g
b0 i
b100111010011001000110001010111110011001011001010110000000000000 a
b100 j
b111 d
b11001101110001101010010000000000 _
b11 k
b1001110100110010001100010101111100110010110010101100000000000000 b
b11000011100100000010101100110000 `
0G
b0 K
0(
0+
0-
0h
b10101 m
b110 e
b11011 n
b111010011001000110 F
b0 A
b111 E
b1001 H
b1111111100000111010011001000110 B
b100110111000110101001 =
b100110111000110101001 T
b11 l
b0 8
b0 R
b110 <
b110 S
b1000 >
b1000 U
1?
0@
b1111111000100110111000110101001 9
b100001110010000001010110011 4
b100001110010000001010110011 P
b110 f
b0 3
b0 O
b10 5
b10 Q
07
b1011100001110010000001010110011 0
b10110 J
#190
b11010 [
b11 "
b11 X
b11 Y
b111110 o
b111110 $
b111110 V
b111110 c
b10100001101101111111101011 #
b10100001101101111111101011 W
b10100001101101111111101011 \
b10100001101101111111101011001001110100111100000101111000000000 M
b1 '
b1 Z
b110100001101101111111101011001001110100111100000101111000000000 a
b1 i
b111110 d
0g
b11100001010100110101101101100000 _
b1101000011011011111111010110010011101001111000001011110000000000 b
b11101101010010101100011110100000 `
b1 j
b11111101100000110011101110010100 L
b0 K
0,
0(
0+
0-
b111110 e
b11010 m
b0 k
b10100001101101111111101011 F
b1 A
b111110 E
b11 H
b10110100001101101111111101011 B
b11000010101001101011011011 =
b11000010101001101011011011 T
b111110 f
b111110 <
b111110 S
b11 >
b11 U
0?
b10011000010101001101011011011 9
b110110101001010110001111010 4
b110110101001010110001111010 P
b0 l
b0 /
b0 N
b1000110110101001010110001111010 0
b10111 J
#200
b10011001000011110011001001 #
b10011001000011110011001001 W
b10011001000011110011001001 \
b10011001000011110011001001011101100010100000011111010100000000 M
b110011001000011110011001001011101100010100000011111010100000000 a
b11 '
b11 Z
0]
0g
b11 i
b11000011001000101010101010010000 _
b110011001000011110011001001011101100010100000011111010100000000 b
b10000110001010011000011011010000 `
b11 j
b0 K
0,
0(
b11011 m
b11 k
b10011001000011110011001001 F
b11 A
b11110011001000011110011001001 B
b100001100100010101010101001 =
b100001100100010101010101001 T
b111111 <
b111111 S
b10 >
b10 U
1@
b11011011110011011101010101010111 9
b11000101001100001101101 4
b11000101001100001101101 P
b11 l
b11 /
b11 N
b111110 f
b111111 3
b111111 O
06
17
b11000111100111010110011110010011 0
b11000 J
#210
b11111111111101110011001100011011 L
b11000 [
b101 "
b101 X
b101 Y
b111100 o
b111100 $
b111100 V
b111100 c
b100011001100111001001 #
b100011001100111001001 W
b100011001100111001001 \
b10001100110011100100101101101111011010001010101000000000000 M
b1 '
b1 Z
1]
b100010001100110011100100101101101111011010001010101000000000000 a
0g
b1 i
b10110011011000010001000100000000 _
b111100 d
b1000100011001100111001001011011011110110100010101010000000000000 b
b11000011001110111110000010100000 `
b1 j
b0 K
0,
0(
0+
0-
1h
b111100 e
b11000 m
b0 k
1!
b100011001100111001001 F
b1 A
b111100 E
b101 H
1I
b11111010111011100110011000110111 B
b11001101100001000100010 =
b11001101100001000100010 T
b11 8
b11 R
b111011 f
b111100 <
b111100 S
b101 >
b101 U
b11111000100110010011110111011110 9
b100001100111011111000001010 4
b100001100111011111000001010 P
b100 l
b1 /
b1 N
07
b101100001100111011111000001010 0
b11001 J
#220
1G
b10111 [
b110 "
b110 X
b110 Y
b111011 o
b111011 $
b111011 V
b111011 c
b10110011000110100000100 #
b10110011000110100000100 W
b10110011000110100000100 \
b10110011000110100000100111111001010010101110000000000000000000 M
b11 '
b11 Z
b111011 d
b110110011000110100000100111111001010010101110000000000000000000 a
b11 i
b11 j
b11110010010011000100000000000000 _
b111011 e
b1101100110001101000001001111110010100101011100000000000000000000 b
b11100101110110101000000111000000 `
b10 k
b11111111111111111111111111111111 L
b11111111111111111111111111111111 K
x,
0(
0+
0-
0h
b11001 m
b11010 n
b10110011000110100000101 F
b11 A
b111011 E
b110 H
b11111100001001100111001011111011 B
b1110010010011000100000000 =
b1110010010011000100000000 T
b0 8
b0 R
b111101 <
b111101 S
b100 >
b100 U
b11110110001101101100111100000000 9
b11001011101101010000001110 4
b11001011101101010000001110 P
b10 l
b10 /
b10 N
b111011 f
b111110 3
b111110 O
b11 5
b11 Q
b11011001011101101010000001110 0
b11011 J
#230
0,
b11010 [
b11 "
b11 X
b11 Y
b1 o
b1001111111001001010111000 #
b1001111111001001010111000 W
b1001111111001001010111000 \
b1 $
b1 V
b1 c
b1001111111001001010111000001000111010000000010110000000000000 M
b101001111111001001010111000001000111010000000010110000000000000 a
b0 '
b0 Z
1g
b0 i
b1 d
b11110100010010000000010010100000 _
b1010011111110010010101110000010001110100000000101100000000000000 b
b10110000000000001101111000000000 `
b100 j
0G
b11111110111010000101111110011111 L
b0 K
0(
0+
0-
b11011 m
b11 k
b0 e
b11011 n
b1001111111001001010111000 F
b0 A
b1 E
b11 H
b10011110110000000110110101001000 B
b111010001001000000001001010 =
b111010001001000000001001010 T
b11 8
b11 R
b0 <
b0 S
b10 >
b10 U
1?
b10100000101110110111111110110110 9
b11000000000000110111100000 4
b11000000000000110111100000 P
b11 l
b0 /
b0 N
b0 f
b0 3
b0 O
b10 5
b10 Q
16
b1000011000000000000110111100000 0
b11100 J
#240
b11011 [
b10 "
b10 X
b10 Y
b0 o
b100000000010000100001010010 #
b100000000010000100001010010 W
b100000000010000100001010010 \
b0 $
b0 V
b0 c
b10000000001000010000101001000001010100000100011000101010000000 M
b1 '
b1 Z
b110000000001000010000101001000001010100000100011000101010000000 a
0g
b1 i
b0 d
b11001110011011100100000111110000 _
b1100000000010000100001010010000010101000001000110001010100000000 b
b11101110001011110010010010110000 `
b1 j
b11111101111111110111101111010111 L
b0 K
0,
0(
0+
0-
1h
b0 k
b0 e
b100000000010000100001010010 F
b1 A
b0 E
b10 H
b10110011111111101111011110101110 B
b100111001101110010000011111 =
b100111001101110010000011111 T
b10 8
b10 R
b10101011000110010001101111100001 9
b110111000101111001001001011 4
b110111000101111001001001011 P
b100 l
b10 /
b10 N
b111111 f
b111111 3
b111111 O
06
b110110111000101111001001001011 0
b11101 J
#250
b11001 [
b100 "
b100 X
b100 Y
b111101 o
b111010100101001010100110 #
b111010100101001010100110 W
b111010100101001010100110 \
0(
b111101 $
b111101 V
b111101 c
b1110101001010010101001100111001101001001111101111000000000000 M
b1 '
b1 Z
b101110101001010010101001100111001101001001111101111000000000000 a
b1 i
0]
b1 j
b111101 d
b10001111011001000001100011100000 _
b101110101001010010101001100111001101001001111101111000000000000 b
b10100110100011011100110010000000 `
b1 k
b0 K
0,
0+
0-
b111101 e
b11001 n
b111010100101001010100110 F
b111101 E
b100 H
b11110101000101011010110101011010 B
b111101100100000110001110 =
b111101100100000110001110 T
b111111 <
b111111 S
0?
0@
b110000111101100100000110001110 9
b100110100011011100110010 4
b100110100011011100110010 P
b101 l
b11 /
b11 N
b111100 f
b111101 3
b111101 O
b100 5
b100 Q
17
b11110001011001011100100011001110 0
b11110 J
#260
b10111 [
b110 "
b110 X
b110 Y
b10 '
b10 Z
b111011 o
b10 i
b1100101100010111010011 #
b1100101100010111010011 W
b1100101100010111010011 \
b111011 $
b111011 V
b111011 c
b10 j
b1100101100010111010011001110010010010011101011010000000000000 M
1]
b101100101100010111010011001110010010010011101011010000000000000 a
b11011001110011101111011000000000 _
b1011001011000101110100110011100100100100111010110100000000000000 b
b11010010000111101001111011100000 `
b111011 d
b0 K
0,
0(
0+
0-
b11001 m
0h
b111011 e
b11010 n
b1100101100010111010011 F
b10 A
b111011 E
b110 H
b11111100110011010011101000101101 B
b1011001110011101111011000 =
b1011001110011101111011000 T
b1 8
b1 R
b111101 <
b111101 S
b100 >
b100 U
b1011011001110011101111011000 9
b10100100001111010011110111 4
b10100100001111010011110111 P
b1 l
b0 /
b0 N
b111011 f
b111110 3
b111110 O
b11 5
b11 Q
b11101101011011110000101100001001 0
b11111 J
