waveforms/tb_mul_P8E0.vcd
$date
	Fri Dec 24 09:54:08 2021
$end
$version
	Icarus Verilog
$end
$timescale
	1s
$end
$scope module tb_mul $end
$var wire 8 ! pout [7:0] $end
$var reg 1 " diff_pout $end
$var reg 8 # p1 [7:0] $end
$var reg 8 $ p2 [7:0] $end
$var reg 8 % pout_expected [7:0] $end
$var reg 9 & test_no [8:0] $end
$scope module mul_inst $end
$var wire 8 ' p1 [7:0] $end
$var wire 8 ( p2 [7:0] $end
$var wire 1 ) pout_sign $end
$var wire 4 * pout_reg_len [3:0] $end
$var wire 8 + pout_mant [7:0] $end
$var wire 4 , pout_k [3:0] $end
$var wire 1 - pout_is_zero $end
$var wire 1 . pout_is_inf $end
$var wire 8 / pout [7:0] $end
$var wire 1 0 p2_sign $end
$var wire 1 1 p2_reg_s $end
$var wire 4 2 p2_reg_len [3:0] $end
$var wire 8 3 p2_mant [7:0] $end
$var wire 4 4 p2_k [3:0] $end
$var wire 1 5 p2_is_zero $end
$var wire 1 6 p2_is_inf $end
$var wire 1 7 p1_sign $end
$var wire 1 8 p1_reg_s $end
$var wire 4 9 p1_reg_len [3:0] $end
$var wire 8 : p1_mant [7:0] $end
$var wire 4 ; p1_k [3:0] $end
$var wire 1 < p1_is_zero $end
$var wire 1 = p1_is_inf $end
$scope module mul_core_inst $end
$var wire 1 > _exp_1 $end
$var wire 1 ? _exp_2 $end
$var wire 1 @ _exp_4 $end
$var wire 1 A _exp_carry_1 $end
$var wire 1 B _exp_carry_2 $end
$var wire 16 C _mant_fractional_part_left_1 [15:0] $end
$var wire 1 . pout_is_inf $end
$var wire 1 - pout_is_zero $end
$var wire 4 D pout_k [3:0] $end
$var wire 8 E pout_mant [7:0] $end
$var wire 4 F pout_reg_len [3:0] $end
$var wire 1 ) pout_sign $end
$var wire 4 G reg_len [3:0] $end
$var wire 1 0 p2_sign $end
$var wire 1 1 p2_reg_s $end
$var wire 4 H p2_reg_len [3:0] $end
$var wire 8 I p2_mant [7:0] $end
$var wire 4 J p2_k [3:0] $end
$var wire 1 5 p2_is_zero $end
$var wire 1 6 p2_is_inf $end
$var wire 1 7 p1_sign $end
$var wire 1 8 p1_reg_s $end
$var wire 4 K p1_reg_len [3:0] $end
$var wire 8 L p1_mant [7:0] $end
$var wire 4 M p1_k [3:0] $end
$var wire 1 < p1_is_zero $end
$var wire 1 = p1_is_inf $end
$var wire 4 N mant_len [3:0] $end
$var wire 8 O mant_fractional_part_left [7:0] $end
$var wire 1 P mant_carry $end
$var wire 1 Q k_is_oob $end
$var wire 8 R f2 [7:0] $end
$var wire 8 S f1 [7:0] $end
$var wire 16 T _mant_2 [15:0] $end
$var wire 16 U _mant_1 [15:0] $end
$var wire 4 V _k_4 [3:0] $end
$var wire 4 W _k_3 [3:0] $end
$var wire 4 X _k_2 [3:0] $end
$var wire 4 Y _k_1 [3:0] $end
$var wire 1 Z _exp_3 $end
$var wire 4 [ F2 [3:0] $end
$var wire 4 \ F1 [3:0] $end
$scope function c2 $end
$var reg 8 ] a [7:0] $end
$upscope $end
$scope function max $end
$var reg 8 ^ a [7:0] $end
$var reg 8 _ b [7:0] $end
$upscope $end
$scope function min $end
$var reg 8 ` a [7:0] $end
$var reg 8 a b [7:0] $end
$upscope $end
$upscope $end
$scope module posit_decode_p1 $end
$var wire 8 b bits [7:0] $end
$var wire 8 c u_bits [7:0] $end
$var wire 1 7 sign $end
$var wire 1 8 reg_s $end
$var wire 4 d reg_len [3:0] $end
$var wire 4 e mant_len [3:0] $end
$var wire 8 f mant [7:0] $end
$var wire 3 g leading_zeros [2:0] $end
$var wire 3 h leading_ones [2:0] $end
$var wire 4 i k [3:0] $end
$var wire 1 < is_zero $end
$var wire 1 = is_inf $end
$scope function c2 $end
$var reg 8 j a [7:0] $end
$upscope $end
$scope module clo_inst_o $end
$var wire 8 k bits [7:0] $end
$var wire 3 l leading_ones [2:0] $end
$var wire 3 m index_highest_set [2:0] $end
$scope module highest_set_inst $end
$var wire 8 n bits [7:0] $end
$var wire 3 o index [2:0] $end
$scope begin _gen[0] $end
$upscope $end
$scope begin _gen[1] $end
$upscope $end
$scope begin _gen[2] $end
$upscope $end
$scope begin _gen[3] $end
$upscope $end
$scope begin _gen[4] $end
$upscope $end
$scope begin _gen[5] $end
$upscope $end
$scope begin _gen[6] $end
$upscope $end
$scope begin _gen[7] $end
$upscope $end
$upscope $end
$upscope $end
$scope module clo_inst_z $end
$var wire 8 p bits [7:0] $end
$var wire 3 q leading_ones [2:0] $end
$var wire 3 r index_highest_set [2:0] $end
$scope module highest_set_inst $end
$var wire 8 s bits [7:0] $end
$var wire 3 t index [2:0] $end
$scope begin _gen[0] $end
$upscope $end
$scope begin _gen[1] $end
$upscope $end
$scope begin _gen[2] $end
$upscope $end
$scope begin _gen[3] $end
$upscope $end
$scope begin _gen[4] $end
$upscope $end
$scope begin _gen[5] $end
$upscope $end
$scope begin _gen[6] $end
$upscope $end
$scope begin _gen[7] $end
$upscope $end
$upscope $end
$upscope $end
$upscope $end
$scope module posit_decode_p2 $end
$var wire 8 u bits [7:0] $end
$var wire 8 v u_bits [7:0] $end
$var wire 1 0 sign $end
$var wire 1 1 reg_s $end
$var wire 4 w reg_len [3:0] $end
$var wire 4 x mant_len [3:0] $end
$var wire 8 y mant [7:0] $end
$var wire 3 z leading_zeros [2:0] $end
$var wire 3 { leading_ones [2:0] $end
$var wire 4 | k [3:0] $end
$var wire 1 5 is_zero $end
$var wire 1 6 is_inf $end
$scope function c2 $end
$var reg 8 } a [7:0] $end
$upscope $end
$scope module clo_inst_o $end
$var wire 8 ~ bits [7:0] $end
$var wire 3 !" leading_ones [2:0] $end
$var wire 3 "" index_highest_set [2:0] $end
$scope module highest_set_inst $end
$var wire 8 #" bits [7:0] $end
$var wire 3 $" index [2:0] $end
$scope begin _gen[0] $end
$upscope $end
$scope begin _gen[1] $end
$upscope $end
$scope begin _gen[2] $end
$upscope $end
$scope begin _gen[3] $end
$upscope $end
$scope begin _gen[4] $end
$upscope $end
$scope begin _gen[5] $end
$upscope $end
$scope begin _gen[6] $end
$upscope $end
$scope begin _gen[7] $end
$upscope $end
$upscope $end
$upscope $end
$scope module clo_inst_z $end
$var wire 8 %" bits [7:0] $end
$var wire 3 &" leading_ones [2:0] $end
$var wire 3 '" index_highest_set [2:0] $end
$scope module highest_set_inst $end
$var wire 8 (" bits [7:0] $end
$var wire 3 )" index [2:0] $end
$scope begin _gen[0] $end
$upscope $end
$scope begin _gen[1] $end
$upscope $end
$scope begin _gen[2] $end
$upscope $end
$scope begin _gen[3] $end
$upscope $end
$scope begin _gen[4] $end
$upscope $end
$scope begin _gen[5] $end
$upscope $end
$scope begin _gen[6] $end
$upscope $end
$scope begin _gen[7] $end
$upscope $end
$upscope $end
$upscope $end
$upscope $end
$scope module posit_encode_inst $end
$var wire 1 *" exp $end
$var wire 1 . is_inf $end
$var wire 1 - is_zero $end
$var wire 4 +" k [3:0] $end
$var wire 8 ," mant [7:0] $end
$var wire 4 -" reg_len [3:0] $end
$var wire 1 ) sign $end
$var wire 9 ." regime_bits [8:0] $end
$var wire 8 /" posit [7:0] $end
$var wire 8 0" bits_assembled [7:0] $end
$var wire 8 1" bits [7:0] $end
$scope function c2 $end
$var reg 8 2" a [7:0] $end
$upscope $end
$scope function is_negative $end
$var reg 4 3" k [3:0] $end
$upscope $end
$scope function shl $end
$var reg 8 4" bits [7:0] $end
$var reg 8 5" rhs [7:0] $end
$upscope $end
$upscope $end
$upscope $end
$upscope $end
$enddefinitions $end
#0
$dumpvars
b11 5"
b0 4"
b10 3"
b1110000 2"
b1110000 1"
b1110000 0"
b0 /"
b1110 ."
b100 -"
b0 ,"
b10 +"
0*"
b0 )"
b11111110 ("
b0 '"
b111 &"
b11111110 %"
b111 $"
b0 #"
b111 ""
b0 !"
b0 ~
b1001 }
b1001 |
b0 {
b111 z
b0 y
b1111 x
b1000 w
b0 v
b0 u
b0 t
b11111110 s
b0 r
b111 q
b11111110 p
b111 o
b0 n
b111 m
b0 l
b0 k
b1001 j
b1001 i
b0 h
b111 g
b0 f
b1111 e
b1000 d
b0 c
b0 b
bx a
bx `
bx _
bx ^
b10 ]
b1111 \
b1111 [
0Z
b10 Y
b10 X
b10 W
b10 V
b100000000000000 U
b100000000000000 T
b10000000 S
b10000000 R
0Q
0P
b0 O
b11 N
b1001 M
b0 L
b1000 K
b1001 J
b0 I
b1000 H
b100 G
b100 F
b0 E
b10 D
b0 C
0B
0A
0@
0?
0>
0=
1<
b1001 ;
b0 :
b1000 9
08
07
06
15
b1001 4
b0 3
b1000 2
01
00
b0 /
0.
1-
b10 ,
b0 +
b100 *
0)
b0 (
b0 '
b1 &
b0 %
b0 $
b0 #
0"
b0 !
$end
#10
b10 &
#20
1@
1B
1Z
b10 +
b10 E
b10 ,"
b10 O
b1110010 2"
b11 N
1P
b1000101000000 C
b100 *
b100 F
b100 -"
b100 G
b1110 ."
b11010000 R
b101000101000000 T
b10 ]
b10 3"
b1010001010000000 U
b11001000 S
0Q
b10 ,
b10 D
b10 +"
b10 V
b10100 3
b10100 I
b10100 y
b0 z
b0 &"
b1 {
b1 !"
b111 '"
b111 )"
b1001 :
b1001 L
b1001 f
b0 g
b0 q
b101 x
b101 [
b110 ""
b110 $"
b10 W
b10 h
b10 l
b111 r
b111 t
b0 4
b0 J
b0 |
b10 2
b10 H
b10 w
b1 X
b100 e
b100 \
b101 m
b101 o
b1 Y
b1 ;
b1 M
b1 i
b11 9
b11 K
b11 d
11
b11110010 0"
b11 5"
b1110 4"
b10001110 1"
b1010110 %"
b1010110 ("
b101100 p
b101100 s
1)
b10101000 ~
b10101000 #"
b10001110 !
b10001110 /
b10001110 /"
18
b11010010 k
b11010010 n
x"
10
b0 }
b1010100 v
0-
b1 j
b1101001 c
b1101101 %
05
b10101100 $
b10101100 (
b10101100 u
0<
b1101001 #
b1101001 '
b1101001 b
b11 &
#30
b100 x
b100 [
b11 2
b11 H
b11 w
b1 4
b1 J
b1 |
b11 N
b1110 ."
b100 *
b100 F
b100 -"
b100 G
b10 {
b10 !"
b10 ]
b10 3"
b1110101 2"
b101 ""
b101 $"
b10 ,
b10 D
b10 +"
b10 V
b101 +
b101 E
b101 ,"
b101 O
b0 g
b0 q
1@
1B
1Z
b10111001000000 C
b1 h
b1 l
b111 r
b111 t
b1110101 !
b1110101 /
b1110101 /"
b1 X
b101 e
b101 \
b10 W
b110111001000000 T
b110 m
b110 o
b11100000 R
b100110 %"
b100110 ("
b1 Y
b0 ;
b0 M
b0 i
b10 9
b10 K
b10 d
1P
b11011000 ~
b11011000 #"
b1110101 0"
b11 5"
b1110 4"
b1110101 1"
b1101110010000000 U
b11111100 S
b1000000 p
b1000000 s
b1100 3
b1100 I
b1100 y
b1101100 v
0)
18
b10111110 k
b10111110 n
b1 }
17
b0 j
b11111 :
b11111 L
b11111 f
b1011111 c
b11000011 %
b10010100 $
b10010100 (
b10010100 u
b10100001 #
b10100001 '
b10100001 b
b100 &
#40
b10 x
b10 [
0Q
b101 2
b101 H
b101 w
b100 e
b100 \
b11 4
b11 J
b11 |
b11 9
b11 K
b11 d
b1 N
b111110 ."
b100 X
b100 {
b100 !"
b110 *
b110 F
b110 -"
b110 G
b1111101 !
b1111101 /
b1111101 /"
b100 Y
b1 ;
b1 M
b1 i
b11 ""
b11 $"
b100 ]
b100 3"
b1 5"
b111110 4"
b1111101 2"
b100 ,
b100 D
b100 +"
b100 V
b1111101 1"
b10 h
b10 l
b1111101 0"
b1 +
b1 E
b1 ,"
b1 O
b101 m
b101 o
0@
0B
0Z
b11100000000000 C
b100 W
b111100000000000 T
0P
b11000000 R
b1010 %"
b1010 ("
b111100000000000 U
b10100000 S
b110110 p
b110110 s
b11110100 ~
b11110100 #"
b11001000 k
b11001000 n
b10 3
b10 I
b10 y
b1111010 v
b100 :
b100 L
b100 f
b1100100 c
00
b11 }
07
b1 j
b111110 %
b1111010 $
b1111010 (
b1111010 u
b1100100 #
b1100100 '
b1100100 b
b101 &
#50
b11 N
b1110 ."
b100 *
b100 F
b100 -"
b100 G
b10 ]
b10 3"
b11 5"
b1110 4"
b10 ,
b10 D
b10 +"
b10 V
b1110011 !
b1110011 /
b1110011 /"
b1110011 2"
b11101000 R
b0 z
b0 &"
b10 W
b1110011 1"
b0 g
b0 q
b1 {
b1 !"
b111 '"
b111 )"
1@
1B
1Z
b1110011 0"
b11 +
b11 E
b11 ,"
b11 O
b10 h
b10 l
b111 r
b111 t
b11010 3
b11010 I
b11010 y
b101 x
b101 [
b110 ""
b110 $"
b1 X
b100 e
b100 \
b1101010100000 C
b101 m
b101 o
b0 4
b0 J
b0 |
b10 2
b10 H
b10 w
b1 Y
b1 ;
b1 M
b1 i
b11 9
b11 K
b11 d
1P
b101101010100000 T
b1001010 %"
b1001010 ("
b1011010101000000 U
b11001000 S
b101100 p
b101100 s
11
b10110100 ~
b10110100 #"
18
b11010010 k
b11010010 n
10
b0 }
b1011010 v
17
b1 j
b1001 :
b1001 L
b1001 f
b1101001 c
b1011000 %
b10100110 $
b10100110 (
b10100110 u
b10010111 #
b10010111 '
b10010111 b
b110 &
#60
x"
b100 x
b100 [
b101 e
b101 \
b11 2
b11 H
b11 w
b10 9
b10 K
b10 d
b11 N
b1110 ."
b1 X
b100 *
b100 F
b100 -"
b100 G
b1 4
b1 J
b1 |
b1110001 !
b1110001 /
b1110001 /"
b1 Y
b0 ;
b0 M
b0 i
b10 ]
b10 3"
b11 5"
b1110 4"
b1110001 2"
b10 ,
b10 D
b10 +"
b10 V
b10 {
b10 !"
b1110001 1"
b1 h
b1 l
b101 ""
b101 $"
b1110001 0"
b1 +
b1 E
b1 ,"
b1 O
b110 m
b110 o
1@
1B
1Z
b111000000000 C
b10 W
b100111000000000 T
1P
b11000000 R
b101110 %"
b101110 ("
b1001110000000000 U
b11010000 S
b1010110 p
b1010110 s
b11010000 ~
b11010000 #"
b10101000 k
b10101000 n
b1000 3
b1000 I
b1000 y
b1101000 v
b10100 :
b10100 L
b10100 f
b1010100 c
b1 }
b0 j
b1100011 %
b10011000 $
b10011000 (
b10011000 u
b10101100 #
b10101100 '
b10101100 b
b111 &
#70
0@
0B
0Z
b11 N
b1110 ."
b100 *
b100 F
b100 -"
b100 G
0P
b10 ]
b10 3"
b10 ,
b10 D
b10 +"
b10 V
b1 x
b1 [
b110 2
b110 H
b110 w
b10 W
b100 4
b100 J
b100 |
b10 X
b101 {
b101 !"
b10 Y
b1110 ;
b1110 M
b1110 i
b10 ""
b10 $"
b1110000 2"
b0 +
b0 E
b0 ,"
b0 O
b10 g
b10 q
b0 C
b0 h
b0 l
b101 r
b101 t
b100 e
b100 \
b100000000000000 T
b111 m
b111 o
b10010000 !
b10010000 /
b10010000 /"
b11 9
b11 K
b11 d
b10000000 R
b110 %"
b110 ("
b100000000000000 U
b10000000 S
b11011110 p
b11011110 s
b11111000 ~
b11111000 #"
b11110000 0"
b11 5"
b1110 4"
b10010000 1"
08
b100000 k
b100000 n
b0 3
b0 I
b0 y
b1111100 v
1)
b0 :
b0 L
b0 f
b10000 c
b100 }
07
b1110 j
b10101110 %
b10000100 $
b10000100 (
b10000100 u
b10000 #
b10000 '
b10000 b
b1000 &
#80
0Q
b10 e
b10 \
b101 9
b101 K
b101 d
1@
1B
1Z
b1100 ;
b1100 M
b1100 i
b10 N
1P
b101 *
b101 F
b101 -"
b101 G
b1 ."
b10110000 R
b1100 ]
b1100 3"
b100 g
b100 q
b1100 ,
b1100 D
b1100 +"
b1100 V
b11 r
b11 t
b1100 3
b1100 I
b1100 y
b1 z
b1 &"
b100 2"
b1100 W
b0 {
b0 !"
b110 '"
b110 )"
b1011 X
b101 x
b101 [
b111 ""
b111 $"
b0 +
b0 E
b0 ,"
b0 O
b100 !
b100 /
b100 /"
b1011 Y
b1111 4
b1111 J
b1111 |
b10 2
b10 H
b10 w
b110100000000 C
b10100110 %"
b10100110 ("
b100110100000000 T
b100 0"
b10 5"
b1 4"
b100 1"
01
b1011000 ~
b1011000 #"
b1001101000000000 U
b11100000 S
b11110000 p
b11110000 s
0)
b101100 v
b1110 k
b1110 n
00
b1111 }
b1100 j
b11 :
b11 L
b11 f
b111 c
b111101 %
b101100 $
b101100 (
b101100 u
b111 #
b111 '
b111 b
b1001 &
#90
b1 4"
b10 N
0@
0B
0Z
b101 *
b101 F
b101 -"
b101 G
0P
b1100 ]
b1100 3"
b10 5"
b1100 ,
b1100 D
b1100 +"
b1100 V
b100 e
b100 \
b11 9
b11 K
b11 d
b100 x
b100 [
b11 2
b11 H
b11 w
b1100 W
b1110 ;
b1110 M
b1110 i
b1100 X
b1100 Y
b1110 4
b1110 J
b1110 |
b10 g
b10 q
b111 !
b111 /
b111 /"
b101 r
b101 t
b10 z
b10 &"
b111 2"
b101 '"
b101 )"
b111 1"
b111 0"
b11 +
b11 E
b11 ,"
b11 O
b11000010000000 C
b111000010000000 T
b11001000 R
b11001100 %"
b11001100 ("
b111000010000000 U
b10010000 S
b11011010 p
b11011010 s
b110010 ~
b110010 #"
b100100 k
b100100 n
b1110 }
b1001 3
b1001 I
b1001 y
b11001 v
b1110 j
b10 :
b10 L
b10 f
b10010 c
b110111 %
b11001 $
b11001 (
b11001 u
b10010 #
b10010 '
b10010 b
b1010 &
#100
b10 ."
b10 4"
b101 N
b10 *
b10 F
b10 -"
b10 G
b0 ]
b0 3"
b101 5"
b0 ,
b0 D
b0 +"
b0 V
b1011110 !
b1011110 /
b1011110 /"
b0 z
b0 &"
b1011110 2"
b10 {
b10 !"
b111 '"
b111 )"
b1011110 1"
b1 g
b1 q
b100 x
b100 [
b101 ""
b101 $"
b0 W
0@
0B
0Z
b1011110 0"
b11110 +
b11110 E
b11110 ,"
b11110 O
b0 h
b0 l
b110 r
b110 t
b1 4
b1 J
b1 |
b11 2
b11 H
b11 w
b0 X
b101 e
b101 \
b11110100000000 C
b111 m
b111 o
b0 Y
b1111 ;
b1111 M
b1111 i
b10 9
b10 K
b10 d
0P
b111110100000000 T
11
b10100000 R
b110110 %"
b110110 ("
b111110100000000 U
b11001000 S
b10011010 p
b10011010 s
b11001000 ~
b11001000 #"
08
b1100100 k
b1100100 n
10
b1 }
b100 3
b100 I
b100 y
b1100100 v
17
b1111 j
b10010 :
b10010 L
b10010 f
b110010 c
b1011100 %
b10011100 $
b10011100 (
b10011100 u
b11001110 #
b11001110 '
b11001110 b
b1011 &
#110
b101 N
b10 ."
b10 *
b10 F
b10 -"
b10 G
b0 ]
b0 3"
b0 ,
b0 D
b0 +"
b0 V
b0 W
b1000100 2"
b0 ;
b0 M
b0 i
b1 z
b1 &"
b0 g
b0 q
b0 {
b0 !"
b110 '"
b110 )"
1@
1B
1Z
b100 +
b100 E
b100 ,"
b100 O
b1 h
b1 l
b111 r
b111 t
b1111 X
b101 x
b101 [
b111 ""
b111 $"
b101 e
b101 \
b100111000000 C
b110 m
b110 o
b10111100 !
b10111100 /
b10111100 /"
b1111 Y
b1111 4
b1111 J
b1111 |
b10 2
b10 H
b10 w
b10 9
b10 K
b10 d
1P
b100100111000000 T
b10100000 R
b10101110 %"
b10101110 ("
b1001001110000000 U
b11101100 S
b1001000 p
b1001000 s
b11000100 0"
b101 5"
b10 4"
b10111100 1"
01
b1010000 ~
b1010000 #"
18
b10110110 k
b10110110 n
1)
b1000 3
b1000 I
b1000 y
b101000 v
b11011 :
b11011 L
b11011 f
b1011011 c
00
b1111 }
b0 j
b1010100 %
b101000 $
b101000 (
b101000 u
b10100101 #
b10100101 '
b10100101 b
b1100 &
#120
b1 N
b110 *
b110 F
b110 -"
b110 G
x"
b1 ."
b1010 ;
b1010 M
b1010 i
b1011 X
b1011 ]
b1011 3"
b1011 Y
b1 4
b1 J
b1 |
b10 2"
b1011 ,
b1011 D
b1011 +"
b1011 V
b0 z
b0 &"
b110 g
b110 q
b10 {
b10 !"
b111 '"
b111 )"
b0 +
b0 E
b0 ,"
b0 O
0@
0B
0Z
b0 h
b0 l
b1 r
b1 t
b100 x
b100 [
b101 ""
b101 $"
b1010000000000 C
b0 e
b0 \
b1011 W
b111 m
b111 o
b11 2
b11 H
b11 w
b10 !
b10 /
b10 /"
b101010000000000 T
b111 9
b111 K
b111 d
0P
b10000000 S
b11111100 p
b11111100 s
11
b10 0"
b1 5"
b1 4"
b10 1"
b101010000000000 U
b10101000 R
b110100 %"
b110100 ("
08
b10 k
b10 n
0)
b11001010 ~
b11001010 #"
b0 :
b0 L
b0 f
b1 c
10
b1 }
b101 3
b101 I
b101 y
b1100101 v
b1010 j
b1010011 %
b10011011 $
b10011011 (
b10011011 u
b11111111 #
b11111111 '
b11111111 b
b1101 &
#130
b10 +
b10 E
b10 ,"
b10 O
b10100000 S
b100 :
b100 L
b100 f
b100 e
b100 \
b110 !
b110 /
b110 /"
b11 9
b11 K
b11 d
b110 2"
b110 1"
0Q
b110 0"
b1 4"
b1110 ;
b1110 M
b1110 i
b10 N
b101 *
b101 F
b101 -"
b101 G
b10 g
b10 q
b1100 ]
b1100 3"
b10 5"
b101 r
b101 t
b1100 ,
b1100 D
b1100 +"
b1100 V
b10100100000000 C
b110100100000000 T
b110100100000000 U
b10101000 R
b10 z
b10 &"
b1100 W
b0 {
b0 !"
b101 '"
b101 )"
b1100 X
b101 3
b101 I
b101 y
b100 x
b100 [
b111 ""
b111 $"
b1100 Y
b1110 4
b1110 J
b1110 |
b11 2
b11 H
b11 w
b11010100 %"
b11010100 ("
b11010110 p
b11010110 s
01
b101010 ~
b101010 #"
b101000 k
b101000 n
b10101 v
b10100 c
00
b1110 }
07
b1110 j
b101011 %
b10101 $
b10101 (
b10101 u
b10100 #
b10100 '
b10100 b
b1110 &
#140
b1 4"
b101 N
b10 *
b10 F
b10 -"
b10 G
b1111 ]
b1111 3"
b101 5"
b1111 ,
b1111 D
b1111 +"
b1111 V
b100001 !
b100001 /
b100001 /"
b0 z
b0 &"
b100001 2"
b1 {
b1 !"
b111 '"
b111 )"
b100001 1"
b10 g
b10 q
b101 x
b101 [
b1111 W
b110 ""
b110 $"
1@
1B
1Z
b100001 0"
b1 +
b1 E
b1 ,"
b1 O
b0 h
b0 l
b101 r
b101 t
b0 4
b0 J
b0 |
b10 2
b10 H
b10 w
b1110 X
b100 e
b100 \
b1101100000 C
b111 m
b111 o
b1110 Y
b1110 ;
b1110 M
b1110 i
b11 9
b11 K
b11 d
1P
b100001101100000 T
11
b11000100 R
b1011100 %"
b1011100 ("
b1000011011000000 U
b10110000 S
b11010010 p
b11010010 s
b10100010 ~
b10100010 #"
08
b101100 k
b101100 n
10
b0 }
b10001 3
b10001 I
b10001 y
b1010001 v
17
b1110 j
b110 :
b110 L
b110 f
b10110 c
b1010100 %
b10101111 $
b10101111 (
b10101111 u
b11101010 #
b11101010 '
b11101010 b
b1111 &
#150
x"
b11110 ."
b11110 4"
b10 N
b101 *
b101 F
b101 -"
b101 G
b11 ]
b11 3"
b1111000 2"
b11 ,
b11 D
b11 +"
b11 V
b0 +
b0 E
b0 ,"
b0 O
b0 g
b0 q
1@
1B
1Z
b10011000000 C
b11 h
b11 l
b111 r
b111 t
b10 X
b11 e
b11 \
b11 W
b100010011000000 T
b100 m
b100 o
b10001000 !
b10001000 /
b10001000 /"
b10 Y
b10 ;
b10 M
b10 i
b100 9
b100 K
b100 d
1P
b11011100 R
b1010000 %"
b1010000 ("
b1000100110000000 U
b10100000 S
b11010 p
b11010 s
b10101110 ~
b10101110 #"
b11111000 0"
b10 5"
b10001000 1"
18
b11100100 k
b11100100 n
b10111 3
b10111 I
b10111 y
b1010111 v
1)
b10 :
b10 L
b10 f
b1110010 c
b10101001 }
07
b10 j
b11001101 %
b10101001 $
b10101001 (
b10101001 u
b1110010 #
b1110010 '
b1110010 b
b10000 &
#160
b11100011 !
b11100011 /
b11100011 /"
b1111 4
b1111 J
b1111 |
b100 N
b1 ."
b11 *
b11 F
b11 -"
b11 G
b11100011 1"
b1110 ]
b1110 3"
b100 5"
b1 4"
b11101 2"
b1 z
b1 &"
b10 g
b10 q
b1110 ,
b1110 D
b1110 +"
b1110 V
b0 {
b0 !"
b110 '"
b110 )"
b0 h
b0 l
b101 r
b101 t
b10011101 0"
b1101 +
b1101 E
b1101 ,"
b1101 O
b101 x
b101 [
b111 ""
b111 $"
b1101 X
b100 e
b100 \
b111 m
b111 o
1@
1B
1Z
b11010001000000 C
b10 2
b10 H
b10 w
b1101 Y
b1110 ;
b1110 M
b1110 i
b11 9
b11 K
b11 d
b1110 W
b111010001000000 T
b11110000 R
b10000110 %"
b10000110 ("
1P
01
b1111000 ~
b1111000 #"
08
b1110100010000000 U
b11111000 S
b11000000 p
b11000000 s
b11100 3
b11100 I
b11100 y
b111100 v
b111110 k
b111110 n
00
b1111 }
17
b1110 j
b1111 :
b1111 L
b1111 f
b11111 c
b1010110 %
b111100 $
b111100 (
b111100 u
b11100001 #
b11100001 '
b11100001 b
b10001 &
#170
b1 ."
b101 N
b10 *
b10 F
b10 -"
b10 G
b1111 ]
b1111 3"
b101100 2"
b1111 X
b1111 ,
b1111 D
b1111 +"
b1111 V
b1111 Y
b1 4
b1 J
b1 |
b1100 +
b1100 E
b1100 ,"
b1100 O
b0 z
b0 &"
0@
0B
0Z
b1100000000000 C
b10 {
b10 !"
b111 '"
b111 )"
b1111 W
b100 x
b100 [
b101100000000000 T
b101 ""
b101 $"
b101100 !
b101100 /
b101100 /"
0P
b11 2
b11 H
b11 w
b10000000 S
b11011110 p
b11011110 s
b101100000000000 U
b10110000 R
b110010 %"
b110010 ("
b101100 0"
b101 5"
b0 4"
b101100 1"
b100000 k
b100000 n
11
b11001100 ~
b11001100 #"
0)
b0 :
b0 L
b0 f
b10000 c
b1 }
b110 3
b110 I
b110 y
b1100110 v
07
b10000 j
b11100100 %
b1100110 $
b1100110 (
b1100110 u
b10000 #
b10000 '
b10000 b
b10010 &
#180
b101 N
1@
1B
1Z
b10 *
b10 F
b10 -"
b10 G
1P
b1 ."
b1111 ]
b1111 3"
b101 5"
b1 4"
b100101 !
b100101 /
b100101 /"
b1111 ,
b1111 D
b1111 +"
b1111 V
b1 z
b1 &"
b100101 2"
b0 {
b0 !"
b110 '"
b110 )"
b100101 1"
b11000000 S
b1 g
b1 q
b101 x
b101 [
b111 ""
b111 $"
b100101 0"
b101 +
b101 E
b101 ,"
b101 O
b1111 W
b0 h
b0 l
b110 r
b110 t
b1111 4
b1111 J
b1111 |
b10 2
b10 H
b10 w
b101100000000 C
b1110 X
b10000 :
b10000 L
b10000 f
b101 e
b101 \
b111 m
b111 o
b100101100000000 T
b1110 Y
b1111 ;
b1111 M
b1111 i
b10 9
b10 K
b10 d
01
b1001011000000000 U
b11001000 R
b10011010 %"
b10011010 ("
b10011110 p
b10011110 s
b1100100 ~
b1100100 #"
08
b1100000 k
b1100000 n
10
b1111 }
b10010 3
b10010 I
b10010 y
b110010 v
17
b1111 j
b110000 c
b1101100 %
b11001110 $
b11001110 (
b11001110 u
b11010000 #
b11010000 '
b11010000 b
b10011 &
#190
b1 4"
b11 N
0@
0B
0Z
b100 *
b100 F
b100 -"
b100 G
0P
b1101 ]
b1101 3"
b11 5"
b1101 ,
b1101 D
b1101 +"
b1101 V
b100 x
b100 [
b11 2
b11 H
b11 w
b1101 W
b1101 X
b1101 Y
b1110 4
b1110 J
b1110 |
b1111 !
b1111 /
b1111 /"
b10 z
b10 &"
b1111 2"
b101 '"
b101 )"
b1111 1"
b1111 0"
b111 +
b111 E
b111 ,"
b111 O
b11101110000000 C
b111101110000000 T
b10011000 R
b11011000 %"
b11011000 ("
b111101110000000 U
b11010000 S
b10010110 p
b10010110 s
b100110 ~
b100110 #"
b1101000 k
b1101000 n
b11 3
b11 I
b11 y
b10011 v
b10100 :
b10100 L
b10100 f
b110100 c
00
b1110 }
07
b110100 j
b10010 %
b10011 $
b10011 (
b10011 u
b110100 #
b110100 '
b110100 b
b10100 &
#200
b11 x
b11 [
b1 4"
b100 2
b100 H
b100 w
b100 N
b11 *
b11 F
b11 -"
b11 G
b1 ."
b1110 ]
b1110 3"
b100 5"
b1101 4
b1101 J
b1101 |
b1110 ,
b1110 D
b1110 +"
b1110 V
b11 z
b11 &"
b1110 W
b100 '"
b100 )"
0@
0B
0Z
b10111 !
b10111 /
b10111 /"
b1110 X
0P
b10111 2"
b1110 Y
b1 ;
b1 M
b1 i
b10111 1"
b0 g
b0 q
b10111 0"
b111 +
b111 E
b111 ,"
b111 O
b10 h
b10 l
b111 r
b111 t
b100 e
b100 \
b1111100000000 C
b101 m
b101 o
b11 9
b11 K
b11 d
b101111100000000 T
b10100000 R
b11101010 %"
b11101010 ("
b101111100000000 U
b10011000 S
b111000 p
b111000 s
b10100 ~
b10100 #"
18
b11000110 k
b11000110 n
b1101 }
b10 3
b10 I
b10 y
b1010 v
b1 j
b11 :
b11 L
b11 f
b1100011 c
b11100000 %
b1010 $
b1010 (
b1010 u
b1100011 #
b1100011 '
b1100011 b
b10101 &
