waveforms/tb_mul_P8E0.vcd
$date
	Sun Dec 19 20:50:57 2021
$end
$version
	Icarus Verilog
$end
$timescale
	1s
$end
$scope module tb_mul $end
$var wire 8 ! pout [7:0] $end
$var reg 8 " p1 [7:0] $end
$var reg 8 # p2 [7:0] $end
$var reg 8 $ pout_expected [7:0] $end
$var reg 9 % test_no [8:0] $end
$scope module mul_inst $end
$var wire 8 & p1 [7:0] $end
$var wire 2 ' p1_exp [-1:0] $end
$var wire 8 ( p2 [7:0] $end
$var wire 2 ) p2_exp [-1:0] $end
$var wire 8 * p2_mant [7:0] $end
$var wire 8 + pout [7:0] $end
$var wire 1 , p2_sign $end
$var wire 1 - p2_reg_s $end
$var wire 3 . p2_reg_len [2:0] $end
$var wire 8 / p2_reg_bits [7:0] $end
$var wire 8 0 p2_k [7:0] $end
$var wire 1 1 p1_sign $end
$var wire 1 2 p1_reg_s $end
$var wire 3 3 p1_reg_len [2:0] $end
$var wire 8 4 p1_reg_bits [7:0] $end
$var wire 8 5 p1_mant [7:0] $end
$var wire 8 6 p1_k [7:0] $end
$scope module mul_core_inst $end
$var wire 8 7 exp [7:0] $end
$var wire 1 8 exp_carry $end
$var wire 1 9 exp_carry_I $end
$var wire 16 : mant_fraction_only [15:0] $end
$var wire 1 ; p1_is_inf $end
$var wire 1 < p1_is_zero $end
$var wire 1 = p2_is_inf $end
$var wire 1 > p2_is_zero $end
$var wire 8 ? p2_mant [7:0] $end
$var wire 1 @ pout_is_inf $end
$var wire 1 A pout_is_zero $end
$var wire 8 B pout_k [7:0] $end
$var wire 8 C pout_mant [7:0] $end
$var wire 3 D pout_reg_len [2:0] $end
$var wire 1 E pout_reg_s $end
$var wire 8 F pout_regime_bits [7:0] $end
$var wire 1 G pout_sign $end
$var wire 3 H reg_len [2:0] $end
$var wire 16 I prod_mantissae_adjusted [15:0] $end
$var wire 16 J prod_mantissae [15:0] $end
$var wire 1 , p2_sign $end
$var wire 8 K p2_regime_bits [7:0] $end
$var wire 1 - p2_reg_s $end
$var wire 3 L p2_reg_len [2:0] $end
$var wire 8 M p2_k [7:0] $end
$var wire 1 1 p1_sign $end
$var wire 8 N p1_regime_bits [7:0] $end
$var wire 1 2 p1_reg_s $end
$var wire 3 O p1_reg_len [2:0] $end
$var wire 8 P p1_mant [7:0] $end
$var wire 8 Q p1_k [7:0] $end
$var wire 8 R mant_len [7:0] $end
$var wire 1 S mant_carry $end
$var wire 8 T k_adjusted_III [7:0] $end
$var wire 8 U k_adjusted_II [7:0] $end
$var wire 8 V k_adjusted_I [7:0] $end
$var wire 8 W k [7:0] $end
$var wire 8 X final_mant [7:0] $end
$var wire 8 Y f2 [7:0] $end
$var wire 8 Z f1 [7:0] $end
$var wire 8 [ exp_adjusted_III [7:0] $end
$var wire 8 \ exp_adjusted_II [7:0] $end
$var wire 8 ] exp_adjusted_I [7:0] $end
$var wire 3 ^ F2 [2:0] $end
$var wire 3 _ F1 [2:0] $end
$scope function max $end
$var reg 8 ` a [7:0] $end
$var reg 8 a b [7:0] $end
$upscope $end
$scope function min $end
$var reg 8 b a [7:0] $end
$var reg 8 c b [7:0] $end
$upscope $end
$upscope $end
$scope module posit_decode_p1 $end
$var wire 8 d bits [7:0] $end
$var wire 2 e exp [-1:0] $end
$var wire 8 f u_bits [7:0] $end
$var wire 1 1 sign $end
$var wire 8 g regime_bits [7:0] $end
$var wire 1 2 reg_s $end
$var wire 3 h reg_len [2:0] $end
$var wire 8 i mant [7:0] $end
$var wire 3 j leading_zeros [2:0] $end
$var wire 3 k leading_ones [2:0] $end
$var wire 8 l k [7:0] $end
$var wire 1 m is_zero $end
$var wire 1 n is_inf $end
$scope function c2 $end
$var reg 8 o a [7:0] $end
$upscope $end
$scope function min $end
$var reg 8 p a [7:0] $end
$var reg 8 q b [7:0] $end
$upscope $end
$scope module clo_inst_o $end
$var wire 8 r bits [7:0] $end
$var wire 3 s leading_ones [2:0] $end
$var wire 3 t index_highest_set [2:0] $end
$scope module highest_set_inst $end
$var wire 8 u bits [7:0] $end
$var wire 3 v index [2:0] $end
$scope begin _gen[0] $end
$upscope $end
$scope begin _gen[1] $end
$upscope $end
$scope begin _gen[2] $end
$upscope $end
$scope begin _gen[3] $end
$upscope $end
$scope begin _gen[4] $end
$upscope $end
$scope begin _gen[5] $end
$upscope $end
$scope begin _gen[6] $end
$upscope $end
$scope begin _gen[7] $end
$upscope $end
$upscope $end
$upscope $end
$scope module clo_inst_z $end
$var wire 8 w bits [7:0] $end
$var wire 3 x leading_ones [2:0] $end
$var wire 3 y index_highest_set [2:0] $end
$scope module highest_set_inst $end
$var wire 8 z bits [7:0] $end
$var wire 3 { index [2:0] $end
$scope begin _gen[0] $end
$upscope $end
$scope begin _gen[1] $end
$upscope $end
$scope begin _gen[2] $end
$upscope $end
$scope begin _gen[3] $end
$upscope $end
$scope begin _gen[4] $end
$upscope $end
$scope begin _gen[5] $end
$upscope $end
$scope begin _gen[6] $end
$upscope $end
$scope begin _gen[7] $end
$upscope $end
$upscope $end
$upscope $end
$upscope $end
$scope module posit_decode_p2 $end
$var wire 8 | bits [7:0] $end
$var wire 2 } exp [-1:0] $end
$var wire 8 ~ mant [7:0] $end
$var wire 8 !" u_bits [7:0] $end
$var wire 1 , sign $end
$var wire 8 "" regime_bits [7:0] $end
$var wire 1 - reg_s $end
$var wire 3 #" reg_len [2:0] $end
$var wire 3 $" leading_zeros [2:0] $end
$var wire 3 %" leading_ones [2:0] $end
$var wire 8 &" k [7:0] $end
$var wire 1 '" is_zero $end
$var wire 1 (" is_inf $end
$scope function c2 $end
$var reg 8 )" a [7:0] $end
$upscope $end
$scope function min $end
$var reg 8 *" a [7:0] $end
$var reg 8 +" b [7:0] $end
$upscope $end
$scope module clo_inst_o $end
$var wire 8 ," bits [7:0] $end
$var wire 3 -" leading_ones [2:0] $end
$var wire 3 ." index_highest_set [2:0] $end
$scope module highest_set_inst $end
$var wire 8 /" bits [7:0] $end
$var wire 3 0" index [2:0] $end
$scope begin _gen[0] $end
$upscope $end
$scope begin _gen[1] $end
$upscope $end
$scope begin _gen[2] $end
$upscope $end
$scope begin _gen[3] $end
$upscope $end
$scope begin _gen[4] $end
$upscope $end
$scope begin _gen[5] $end
$upscope $end
$scope begin _gen[6] $end
$upscope $end
$scope begin _gen[7] $end
$upscope $end
$upscope $end
$upscope $end
$scope module clo_inst_z $end
$var wire 8 1" bits [7:0] $end
$var wire 3 2" leading_ones [2:0] $end
$var wire 3 3" index_highest_set [2:0] $end
$scope module highest_set_inst $end
$var wire 8 4" bits [7:0] $end
$var wire 3 5" index [2:0] $end
$scope begin _gen[0] $end
$upscope $end
$scope begin _gen[1] $end
$upscope $end
$scope begin _gen[2] $end
$upscope $end
$scope begin _gen[3] $end
$upscope $end
$scope begin _gen[4] $end
$upscope $end
$scope begin _gen[5] $end
$upscope $end
$scope begin _gen[6] $end
$upscope $end
$scope begin _gen[7] $end
$upscope $end
$upscope $end
$upscope $end
$upscope $end
$scope module posit_encode_inst $end
$var wire 2 6" exp [-1:0] $end
$var wire 1 7" is_inf $end
$var wire 1 8" is_zero $end
$var wire 8 9" k [7:0] $end
$var wire 8 :" mant [7:0] $end
$var wire 3 ;" reg_len [2:0] $end
$var wire 1 <" reg_s $end
$var wire 8 =" regime_bits [7:0] $end
$var wire 1 >" sign $end
$var wire 8 ?" posit [7:0] $end
$var wire 8 @" bits_assembled [7:0] $end
$var wire 8 A" bits [7:0] $end
$scope function c2 $end
$var reg 8 B" a [7:0] $end
$upscope $end
$scope function shl $end
$var reg 8 C" bits [7:0] $end
$var reg 8 D" rhs [7:0] $end
$upscope $end
$upscope $end
$upscope $end
$upscope $end
$enddefinitions $end
#0
$dumpvars
bx D"
b0zz C"
b0xxxxxxx B"
bx A"
bx @"
bx ?"
z>"
bz ="
z<"
bz ;"
bz :"
bz 9"
z8"
z7"
bz 6"
b110 5"
b10101000 4"
b110 3"
b1 2"
b10101000 1"
b111 0"
b1010110 /"
b111 ."
b0 -"
b1010110 ,"
b111 +"
b10 *"
b11111111 )"
0("
0'"
b11111111 &"
b0 %"
b1 $"
b10 #"
b1 ""
b101011 !"
b0xxxxx ~
b0 }
b101011 |
b111 {
b100100 z
b111 y
b0 x
b100100 w
b101 v
b11011010 u
b101 t
b10 s
b11011010 r
b111 q
b0 p
b1 o
0n
0m
b1 l
b10 k
b0 j
b1101 i
b11 h
b110 g
b1101101 f
b0 e
b1101101 d
b110 c
b0 b
b11111010 a
b0 `
b100 _
b101 ^
b0 ]
b0x \
b0x [
b11101000 Z
b1xxxxx00 Y
b0xxxxx X
b0 W
b0 V
b0 U
b0 T
xS
b101 R
b1 Q
b1101 P
b11 O
b110 N
b11111111 M
b10 L
b1 K
bx J
bx I
b10 H
0G
b0 F
0E
b0 D
b0xxxxx C
b0 B
xA
x@
bz ?
z>
z=
z<
z;
b0xxxxxxxxxxxxxx :
09
08
b0 7
b1 6
b1101 5
b110 4
b11 3
12
01
b11111111 0
b1 /
b10 .
0-
0,
bx +
b0xxxxx *
b0 )
b101011 (
b0 '
b1101101 &
b1 %
b11010100 $
b101011 #
b1101101 "
bx !
$end
#10
b0xxxxx X
b101 R
b1 *"
b10 H
b1xxxxx00 Y
b0 0
b0 M
b0 &"
b0 $"
b0 2"
b1 %"
b1 -"
b111 3"
b111 5"
b0 B
b0 T
b0 j
b0 x
b101 ^
b110 ."
b110 0"
b0 b
b0 `
b1 k
b1 s
b111 y
b111 {
b0xxxxx *
b0xxxxx C
b0xxxxx ~
b10 .
b10 L
b10 #"
b0 U
b101 _
b110 t
b110 v
b1 p
b0 V
b10 3
b10 O
b10 h
1-
b10 /
b10 K
b10 ""
b1000010 1"
b1000010 4"
b0 W
b0 6
b0 Q
b0 l
b11110000 Z
b1000110 w
b1000110 z
b10111100 ,"
b10111100 /"
12
b10 4
b10 N
b10 g
b10111000 r
b10111000 u
1,
b0 )"
b1011110 !"
11
b0 o
b11100 5
b11100 P
b11100 i
b1011100 f
b1110000 $
b10100010 #
b10100010 (
b10100010 |
b10100100 "
b10100100 &
b10100100 d
b10 %
#20
b0xxxxx *
b0xxxxx C
b0xxxxx ~
b0xxxx X
b100 R
b11 H
b100 _
b1 B
b1 T
b11 3
b11 O
b11 h
b1 b
b1 `
b1 U
b0 p
b1 V
b1 W
b1 6
b1 Q
b1 l
b10 k
b10 s
b101 t
b101 v
b1010110 1"
b1010110 4"
b11001000 Z
b101100 w
b101100 z
b10101000 ,"
b10101000 /"
b110 4
b110 N
b110 g
b11010010 r
b11010010 u
b1010100 !"
1G
b1001 5
b1001 P
b1001 i
b1101001 f
b10101100 )"
01
b1 o
b1101101 $
b10101100 #
b10101100 (
b10101100 |
b1101001 "
b1101001 &
b1101001 d
b11 %
#30
b1xxxx000 Y
b100 ^
b11 .
b11 L
b11 #"
b0 *"
b0xxxx X
b1 0
b1 M
b1 &"
b100 R
b10 %"
b10 -"
b11 H
b101 ."
b101 0"
b1 B
b1 T
b0 j
b0 x
b1 b
b1 `
b1 k
b1 s
b111 y
b111 {
b1 U
b101 _
b110 t
b110 v
b100110 1"
b100110 4"
b1 p
b1 V
b10 3
b10 O
b10 h
b110 /
b110 K
b110 ""
b11011000 ,"
b11011000 /"
b1 W
b0 6
b0 Q
b0 l
b11111100 Z
b1000000 w
b1000000 z
b0xxxx *
b0xxxx C
b0xxxx ~
b1101100 !"
0G
12
b10 4
b10 N
b10 g
b10111110 r
b10111110 u
b1 )"
11
b0 o
b11111 5
b11111 P
b11111 i
b1011111 f
b11000011 $
b10010100 #
b10010100 (
b10010100 |
b10100001 "
b10100001 &
b10100001 d
b100 %
#40
b1xx00000 Y
b0xx *
b0xx C
b0xx ~
b0x X
b1 R
b10 ^
b110 H
b101 .
b101 L
b101 #"
b100 _
b100 B
b100 T
b11111110 *"
b11 3
b11 O
b11 h
b100 b
b100 `
b11 0
b11 M
b11 &"
b100 U
b100 %"
b100 -"
b0 p
b100 V
b11 ."
b11 0"
b100 W
b1 6
b1 Q
b1 l
b10 k
b10 s
b101 t
b101 v
b1010 1"
b1010 4"
b10100000 Z
b110110 w
b110110 z
b11110 /
b11110 K
b11110 ""
b11110100 ,"
b11110100 /"
b110 4
b110 N
b110 g
b11001000 r
b11001000 u
b1111010 !"
b100 5
b100 P
b100 i
b1100100 f
0,
b11 )"
01
b1 o
b111110 $
b1111010 #
b1111010 (
b1111010 |
b1100100 "
b1100100 &
b1100100 d
b101 %
#50
b0xxxx X
b0x [
b100 R
b0x \
b11 H
xS
bx I
bx J
b1xxxxx00 Y
b0 $"
b0 2"
b1 B
b1 T
b0 j
b0 x
b1 %"
b1 -"
b111 3"
b111 5"
b1 b
b1 `
b10 k
b10 s
b111 y
b111 {
b101 ^
b110 ."
b110 0"
b1 U
b100 _
b101 t
b101 v
b1 *"
b0xxxxx *
b0xxxxx C
b0xxxxx ~
b10 .
b10 L
b10 #"
b0 p
b1 V
b11 3
b11 O
b11 h
b0 0
b0 M
b0 &"
b1001010 1"
b1001010 4"
b1 W
b1 6
b1 Q
b1 l
b11001000 Z
b101100 w
b101100 z
1-
b10 /
b10 K
b10 ""
b10110100 ,"
b10110100 /"
12
b110 4
b110 N
b110 g
b11010010 r
b11010010 u
1,
b0 )"
b1011010 !"
11
b1 o
b1001 5
b1001 P
b1001 i
b1101001 f
b1011001 $
b10100110 #
b10100110 (
b10100110 |
b10010111 "
b10010111 &
b10010111 d
b110 %
#60
b0xxxx X
b100 R
b1xxxx000 Y
b11 H
b100 ^
b101 _
b1 B
b1 T
b11 .
b11 L
b11 #"
b10 3
b10 O
b10 h
b1 b
b1 `
b1 U
b0 *"
b1 p
b1 V
b1 0
b1 M
b1 &"
b1 W
b0 6
b0 Q
b0 l
b10 %"
b10 -"
b1 k
b1 s
b101 ."
b101 0"
b110 t
b110 v
b101110 1"
b101110 4"
b11010000 Z
b1010110 w
b1010110 z
b110 /
b110 K
b110 ""
b11010000 ,"
b11010000 /"
b10 4
b10 N
b10 g
b10101000 r
b10101000 u
b0xxxx *
b0xxxx C
b0xxxx ~
b1101000 !"
b10100 5
b10100 P
b10100 i
b1010100 f
b1 )"
b0 o
b1100010 $
b10011000 #
b10011000 (
b10011000 |
b10101100 "
b10101100 &
b10101100 d
b111 %
#70
b1x000000 Y
b0xxx *
b0xxx C
b0xxx ~
b0xxx X
b11 R
b1 ^
b100 H
b110 .
b110 L
b110 #"
b10 B
b10 T
b11111101 *"
b10 b
b10 `
b100 0
b100 M
b100 &"
b10 U
b101 %"
b101 -"
b11 p
b10 V
b10 ."
b10 0"
b10 W
b11111110 6
b11111110 Q
b11111110 l
b10 j
b10 x
b0 k
b0 s
b101 y
b101 {
b100 _
b111 t
b111 v
b11 3
b11 O
b11 h
b110 1"
b110 4"
b10000000 Z
b11011110 w
b11011110 z
b111110 /
b111110 K
b111110 ""
b11111000 ,"
b11111000 /"
02
b1 4
b1 N
b1 g
b100000 r
b100000 u
b1111100 !"
1G
b0 5
b0 P
b0 i
b10000 f
b100 )"
01
b11111110 o
b10101111 $
b10000100 #
b10000100 (
b10000100 |
b10000 "
b10000 &
b10000 d
b1000 %
#80
b10 _
b101 3
b101 O
b101 h
b101 p
b11111100 6
b11111100 Q
b11111100 l
b0xxxxxxx X
b111 R
b0x [
b0xxxxxxxxxxxxxx :
b100 j
b100 x
b0 H
b0x \
b11 y
b11 {
xS
bx I
b0xxxxxxx *
b0xxxxxxx C
b0xxxxxxx ~
b110 B
b110 T
bx J
b1xxxxx00 Y
b1 $"
b1 2"
b11111011 b
b11111011 `
b0 %"
b0 -"
b110 3"
b110 5"
b11111011 U
b101 ^
b111 ."
b111 0"
b10 *"
b11111011 V
b10 .
b10 L
b10 #"
b11111011 W
b11111111 0
b11111111 M
b11111111 &"
b10100110 1"
b10100110 4"
0-
b1 /
b1 K
b1 ""
b1011000 ,"
b1011000 /"
b11100000 Z
b11110000 w
b11110000 z
0G
b101100 !"
b1 4
b1 N
b1 g
b1110 r
b1110 u
0,
b11111111 )"
b11111100 o
b11 5
b11 P
b11 i
b111 f
b111100 $
b101100 #
b101100 (
b101100 |
b111 "
b111 &
b111 d
b1001 %
#90
b1xxxx000 Y
b100 _
b11 3
b11 O
b11 h
b100 ^
b11 .
b11 L
b11 #"
b11111100 b
b11111100 `
b11 p
b11111100 U
b11111110 6
b11111110 Q
b11111110 l
b11 *"
b11111100 V
b11111100 W
b11111110 0
b11111110 M
b11111110 &"
b10 j
b10 x
b101 y
b101 {
b10 $"
b10 2"
b101 3"
b101 5"
b11001100 1"
b11001100 4"
b10010000 Z
b11011010 w
b11011010 z
b1 /
b1 K
b1 ""
b110010 ,"
b110010 /"
b1 4
b1 N
b1 g
b100100 r
b100100 u
b11111110 )"
b11001 !"
b11111110 o
b10 5
b10 P
b10 i
b10010 f
b110111 $
b11001 #
b11001 (
b11001 |
b10010 "
b10010 &
b10010 d
b1010 %
#100
b0xxxxx *
b0xxxxx C
b0xxxxx ~
b0xxxxx X
b101 R
b10 H
b0 B
b0 T
b1xxxx000 Y
b0 $"
b0 2"
b10 %"
b10 -"
b111 3"
b111 5"
b1 j
b1 x
b100 ^
b101 ."
b101 0"
b0 b
b0 `
b0 k
b0 s
b110 y
b110 {
b0 *"
b11 .
b11 L
b11 #"
b0 U
b101 _
b111 t
b111 v
b1 0
b1 M
b1 &"
b10 p
b0 V
b10 3
b10 O
b10 h
1-
b110 /
b110 K
b110 ""
b110110 1"
b110110 4"
b0 W
b11111111 6
b11111111 Q
b11111111 l
b11001000 Z
b10011010 w
b10011010 z
b11001000 ,"
b11001000 /"
02
b1 4
b1 N
b1 g
b1100100 r
b1100100 u
1,
b1 )"
b1100100 !"
11
b11111111 o
b10010 5
b10010 P
b10010 i
b110010 f
b1011100 $
b10011100 #
b10011100 (
b10011100 |
b11001110 "
b11001110 &
b11001110 d
b1011 %
#110
b0xxxxxxx X
b111 R
b0 H
b1 p
b110 B
b110 T
b1xxxxx00 Y
b1 $"
b1 2"
b0 6
b0 Q
b0 l
b0 j
b0 x
b11111111 b
b11111111 `
b0 %"
b0 -"
b110 3"
b110 5"
b1 k
b1 s
b111 y
b111 {
b11111111 U
b101 ^
b111 ."
b111 0"
b101 _
b110 t
b110 v
b10 *"
b11111111 V
b0xxxxxxx *
b0xxxxxxx C
b0xxxxxxx ~
b10 .
b10 L
b10 #"
b10 3
b10 O
b10 h
b11111111 W
b11111111 0
b11111111 M
b11111111 &"
b10101110 1"
b10101110 4"
b11101100 Z
b1001000 w
b1001000 z
0-
b1 /
b1 K
b1 ""
b1010000 ,"
b1010000 /"
12
b10 4
b10 N
b10 g
b10110110 r
b10110110 u
1G
b101000 !"
b11011 5
b11011 P
b11011 i
b1011011 f
0,
b11111111 )"
b0 o
b1010101 $
b101000 #
b101000 (
b101000 |
b10100101 "
b10100101 &
b10100101 d
b1100 %
#120
b0xxxxxxx *
b0xxxxxxx C
b0xxxxxxx ~
b0xxxxxxx X
b111 R
b0 H
b110 B
b110 T
b11111011 b
b11111011 `
b111 p
b0 *"
b11111011 U
b11111010 6
b11111010 Q
b11111010 l
b11111011 V
b1xxxx000 Y
b11111011 W
b1 0
b1 M
b1 &"
b0 $"
b0 2"
b110 j
b110 x
b10 %"
b10 -"
b111 3"
b111 5"
b0 k
b0 s
b1 y
b1 {
b100 ^
b101 ."
b101 0"
b0 _
b111 t
b111 v
b11 .
b11 L
b11 #"
b111 3
b111 O
b111 h
b10000000 Z
b11111100 w
b11111100 z
1-
b110100 1"
b110100 4"
02
b1 4
b1 N
b1 g
b10 r
b10 u
0G
b110 /
b110 K
b110 ""
b11001010 ,"
b11001010 /"
b0 5
b0 P
b0 i
b1 f
1,
b1 )"
b1100101 !"
b11111010 o
b1010011 $
b10011011 #
b10011011 (
b10011011 |
b11111111 "
b11111111 &
b11111111 d
b1101 %
#130
b10100000 Z
b100 _
b100 5
b100 P
b100 i
b11 3
b11 O
b11 h
b11 p
b11111110 6
b11111110 Q
b11111110 l
b10 j
b10 x
b101 y
b101 {
b1xxxx000 Y
b10 $"
b10 2"
b11111100 b
b11111100 `
b0 %"
b0 -"
b101 3"
b101 5"
b11111100 U
b100 ^
b111 ."
b111 0"
b11 *"
b11111100 V
b11 .
b11 L
b11 #"
b11111100 W
b11111110 0
b11111110 M
b11111110 &"
b11010100 1"
b11010100 4"
b11010110 w
b11010110 z
0-
b1 /
b1 K
b1 ""
b101010 ,"
b101010 /"
b1 4
b1 N
b1 g
b101000 r
b101000 u
b10101 !"
b10100 f
0,
b11111110 )"
01
b11111110 o
b101010 $
b10101 #
b10101 (
b10101 |
b10100 "
b10100 &
b10100 d
b1110 %
#140
b0xxxxxxx *
b0xxxxxxx C
b0xxxxxxx ~
b0xxxxxxx X
b111 R
b0 H
b110 B
b110 T
b1xxxxx00 Y
b0 $"
b0 2"
b1 %"
b1 -"
b111 3"
b111 5"
b10 j
b10 x
b101 ^
b110 ."
b110 0"
b11111110 b
b11111110 `
b0 k
b0 s
b101 y
b101 {
b1 *"
b10 .
b10 L
b10 #"
b11111110 U
b100 _
b111 t
b111 v
b0 0
b0 M
b0 &"
b11 p
b11111110 V
b11 3
b11 O
b11 h
1-
b1011100 1"
b1011100 4"
b11111110 W
b11111110 6
b11111110 Q
b11111110 l
b10110000 Z
b11010010 w
b11010010 z
b10 /
b10 K
b10 ""
b10100010 ,"
b10100010 /"
02
b1 4
b1 N
b1 g
b101100 r
b101100 u
1,
b0 )"
b1010001 !"
11
b11111110 o
b110 5
b110 P
b110 i
b10110 f
b1010100 $
b10101111 #
b10101111 (
b10101111 |
b11101010 "
b11101010 &
b11101010 d
b1111 %
#150
b0x0xxx *
b0x0xxx C
b0x0xxx ~
b0xxx X
b11 R
b100 H
b10 B
b10 T
b0 j
b0 x
b10 b
b10 `
b11 k
b11 s
b111 y
b111 {
b10 U
b11 _
b100 t
b100 v
b11111111 p
b10 V
b100 3
b100 O
b100 h
b1010000 1"
b1010000 4"
b10 W
b10 6
b10 Q
b10 l
b10100000 Z
b11010 w
b11010 z
b10101110 ,"
b10101110 /"
12
b1110 4
b1110 N
b1110 g
b11100100 r
b11100100 u
b1010111 !"
1G
b10 5
b10 P
b10 i
b1110010 f
b10101001 )"
01
b10 o
b11001100 $
b10101001 #
b10101001 (
b10101001 |
b1110010 "
b1110010 &
b1110010 d
b10000 %
#160
b0xxxxxxx X
b10 *"
b111 R
b11111111 0
b11111111 M
b11111111 &"
b0 H
b1xxxxx00 Y
b1 $"
b1 2"
b110 B
b110 T
b10 j
b10 x
b0 %"
b0 -"
b110 3"
b110 5"
b11111101 b
b11111101 `
b0 k
b0 s
b101 y
b101 {
b101 ^
b111 ."
b111 0"
b11111101 U
b100 _
b111 t
b111 v
b10 .
b10 L
b10 #"
b11 p
b11111101 V
b11 3
b11 O
b11 h
b10000110 1"
b10000110 4"
b11111101 W
b11111110 6
b11111110 Q
b11111110 l
0-
b1 /
b1 K
b1 ""
b1111000 ,"
b1111000 /"
02
b11111000 Z
b11000000 w
b11000000 z
b0xxxxxxx *
b0xxxxxxx C
b0xxxxxxx ~
b111100 !"
b1 4
b1 N
b1 g
b111110 r
b111110 u
0,
b11111111 )"
11
b11111110 o
b1111 5
b1111 P
b1111 i
b11111 f
b1010111 $
b111100 #
b111100 (
b111100 |
b11100001 "
b11100001 &
b11100001 d
b10001 %
#170
b0xxxxxxx *
b0xxxxxxx C
b0xxxxxxx ~
b0xxxxxxx X
b111 R
b0 H
b110 B
b110 T
b11111111 b
b11111111 `
b11111111 U
b0 *"
b11111111 V
b1xxxx000 Y
b11111111 W
b1 0
b1 M
b1 &"
b0 $"
b0 2"
b10 %"
b10 -"
b111 3"
b111 5"
b100 ^
b101 ."
b101 0"
b11 .
b11 L
b11 #"
b10000000 Z
b11011110 w
b11011110 z
b110010 1"
b110010 4"
b100000 r
b100000 u
1-
b110 /
b110 K
b110 ""
b11001100 ,"
b11001100 /"
0G
b0 5
b0 P
b0 i
b10000 f
b1 )"
b1100110 !"
01
b10000 o
b11100100 $
b1100110 #
b1100110 (
b1100110 |
b10000 "
b10000 &
b10000 d
b10010 %
#180
b0xxxxxxx *
b0xxxxxxx C
b0xxxxxxx ~
b0xxxxxxx X
b111 R
b0 H
b1xxxxx00 Y
b1 $"
b1 2"
b0 %"
b0 -"
b110 3"
b110 5"
b110 B
b110 T
b1 j
b1 x
b101 ^
b111 ."
b111 0"
b11111110 b
b11111110 `
b11000000 Z
b0 k
b0 s
b110 y
b110 {
b10 *"
b10 .
b10 L
b10 #"
b11111110 U
b101 _
b111 t
b111 v
b11111111 0
b11111111 M
b11111111 &"
b10 p
b11111110 V
b10000 5
b10000 P
b10000 i
b10 3
b10 O
b10 h
0-
b10011010 1"
b10011010 4"
b11111110 W
b11111111 6
b11111111 Q
b11111111 l
b10011110 w
b10011110 z
b1 /
b1 K
b1 ""
b1100100 ,"
b1100100 /"
02
b1 4
b1 N
b1 g
b1100000 r
b1100000 u
1,
b11111111 )"
b110010 !"
11
b11111111 o
b110000 f
b1101100 $
b11001110 #
b11001110 (
b11001110 |
b11010000 "
b11010000 &
b11010000 d
b10011 %
#190
b1xxxx000 Y
b100 ^
b11 .
b11 L
b11 #"
b11111101 b
b11111101 `
b11111101 U
b11 *"
b11111101 V
b11111101 W
b11111110 0
b11111110 M
b11111110 &"
b10 $"
b10 2"
b101 3"
b101 5"
b11011000 1"
b11011000 4"
b11010000 Z
b10010110 w
b10010110 z
b1 /
b1 K
b1 ""
b100110 ,"
b100110 /"
b1101000 r
b1101000 u
b10011 !"
b10100 5
b10100 P
b10100 i
b110100 f
0,
b11111110 )"
01
b110100 o
b10001 $
b10011 #
b10011 (
b10011 |
b110100 "
b110100 &
b110100 d
b10100 %
#200
b1xxx0000 Y
b11 ^
b100 .
b100 L
b100 #"
b0xxxxxxx *
b0xxxxxxx C
b0xxxxxxx ~
b0xxxxxxx X
b100 *"
b111 R
b11111101 0
b11111101 M
b11111101 &"
b0 H
b11 $"
b11 2"
b110 B
b110 T
b100 3"
b100 5"
b11111110 b
b11111110 `
b11111110 U
b0 p
b11111110 V
b11111110 W
b1 6
b1 Q
b1 l
b0 j
b0 x
b10 k
b10 s
b111 y
b111 {
b100 _
b101 t
b101 v
b11 3
b11 O
b11 h
b11101010 1"
b11101010 4"
b10011000 Z
b111000 w
b111000 z
b1 /
b1 K
b1 ""
b10100 ,"
b10100 /"
12
b110 4
b110 N
b110 g
b11000110 r
b11000110 u
b11111101 )"
b1010 !"
b1 o
b11 5
b11 P
b11 i
b1100011 f
b11100000 $
b1010 #
b1010 (
b1010 |
b1100011 "
b1100011 &
b1100011 d
b10101 %
#210
b0x [
b0x \
xS
bx I
bx J
b1xxxxx00 Y
b1 $"
b1 2"
b1 j
b1 x
b0 %"
b0 -"
b110 3"
b110 5"
b11111110 b
b11111110 `
b0 k
b0 s
b110 y
b110 {
b101 ^
b111 ."
b111 0"
b11111110 U
b101 _
b111 t
b111 v
b10 *"
b10 .
b10 L
b10 #"
b10 p
b11111110 V
b10 3
b10 O
b10 h
b11111111 0
b11111111 M
b11111111 &"
b10011000 1"
b10011000 4"
b11111110 W
b11111111 6
b11111111 Q
b11111111 l
b11100100 Z
b10001100 w
b10001100 z
1G
0-
b1 /
b1 K
b1 ""
b1100110 ,"
b1100110 /"
02
b1 4
b1 N
b1 g
b1110010 r
b1110010 u
1,
b11111111 )"
b110011 !"
b11111111 o
b11001 5
b11001 P
b11001 i
b111001 f
b101111 $
b11001101 #
b11001101 (
b11001101 |
b111001 "
b111001 &
b111001 d
b10110 %
#220
b0xxxxx *
b0xxxxx C
b0xxxxx ~
b0xxxxx X
b101 R
b10 H
b0 B
b0 T
b0 b
b0 `
b10 p
b0 U
b0 *"
b0 V
b11111111 6
b11111111 Q
b11111111 l
b1xxxx000 Y
b0 W
b1 0
b1 M
b1 &"
b0 $"
b0 2"
b10 %"
b10 -"
b111 3"
b111 5"
b1 j
b1 x
b100 ^
b101 ."
b101 0"
b0 k
b0 s
b110 y
b110 {
b11 .
b11 L
b11 #"
b101 _
b111 t
b111 v
b110000 1"
b110000 4"
b10 3
b10 O
b10 h
1-
b110 /
b110 K
b110 ""
b11001110 ,"
b11001110 /"
b10110000 Z
b10100110 w
b10100110 z
b1100111 !"
0G
02
b1 4
b1 N
b1 g
b1011000 r
b1011000 u
b1 )"
11
b11111111 o
b1100 5
b1100 P
b1100 i
b101100 f
b100101 $
b10011001 #
b10011001 (
b10011001 |
b11010100 "
b11010100 &
b11010100 d
b10111 %
#230
b1xxxxx00 Y
b0xxxx *
b0xxxx C
b0xxxx ~
b0xxxx X
b100 R
b101 ^
b11 H
b10 .
b10 L
b10 #"
b1 B
b1 T
b1 *"
b1 b
b1 `
b0 0
b0 M
b0 &"
b1 U
b1 %"
b1 -"
b0 p
b1 V
b110 ."
b110 0"
b1 W
b1 6
b1 Q
b1 l
b0 j
b0 x
b10 k
b10 s
b111 y
b111 {
b100 _
b101 t
b101 v
b11 3
b11 O
b11 h
b1100100 1"
b1100100 4"
b10011000 Z
b111000 w
b111000 z
b10 /
b10 K
b10 ""
b10011010 ,"
b10011010 /"
12
b110 4
b110 N
b110 g
b11000110 r
b11000110 u
b1001101 !"
b11 5
b11 P
b11 i
b1100011 f
b0 )"
b1 o
b11110000 $
b10110011 #
b10110011 (
b10110011 |
b10011101 "
b10011101 &
b10011101 d
b11000 %
