waveforms/tb_mul_core_P8E0.vcd
$date
	Mon Dec 20 15:38:00 2021
$end
$version
	Icarus Verilog
$end
$timescale
	1s
$end
$scope module tb_mul_core $end
$var wire 3 ! pout_reg_len [2:0] $end
$var wire 1 " pout_reg_s $end
$var wire 8 # pout_regime_bits [7:0] $end
$var wire 1 $ pout_sign $end
$var wire 8 % pout_mant [7:0] $end
$var wire 8 & pout_k [7:0] $end
$var wire 1 ' pout_is_zero $end
$var wire 1 ( pout_is_inf $end
$var reg 1 ) diff_pout_is_inf $end
$var reg 1 * diff_pout_is_zero $end
$var reg 1 + diff_pout_k $end
$var reg 1 , diff_pout_mant $end
$var reg 1 - diff_pout_reg_len $end
$var reg 1 . diff_pout_reg_s $end
$var reg 1 / diff_pout_regime_bits $end
$var reg 1 0 diff_pout_sign $end
$var reg 1 1 p1_is_inf $end
$var reg 1 2 p1_is_zero $end
$var reg 8 3 p1_k [7:0] $end
$var reg 8 4 p1_mant [7:0] $end
$var reg 3 5 p1_reg_len [2:0] $end
$var reg 1 6 p1_reg_s $end
$var reg 8 7 p1_regime_bits [7:0] $end
$var reg 1 8 p1_sign $end
$var reg 1 9 p2_is_inf $end
$var reg 1 : p2_is_zero $end
$var reg 8 ; p2_k [7:0] $end
$var reg 8 < p2_mant [7:0] $end
$var reg 3 = p2_reg_len [2:0] $end
$var reg 1 > p2_reg_s $end
$var reg 8 ? p2_regime_bits [7:0] $end
$var reg 1 @ p2_sign $end
$var reg 1 A pout_is_inf_expected $end
$var reg 1 B pout_is_zero_expected $end
$var reg 8 C pout_k_expected [7:0] $end
$var reg 8 D pout_mant_expected [7:0] $end
$var reg 3 E pout_reg_len_expected [2:0] $end
$var reg 1 F pout_reg_s_expected $end
$var reg 8 G pout_regime_bits_expected [7:0] $end
$var reg 1 H pout_sign_expected $end
$var reg 9 I test_no [8:0] $end
$scope module mul_core_inst $end
$var wire 8 J exp [7:0] $end
$var wire 1 K exp_carry $end
$var wire 1 L exp_carry_I $end
$var wire 16 M mant_fraction_only [15:0] $end
$var wire 1 1 p1_is_inf $end
$var wire 1 2 p1_is_zero $end
$var wire 8 N p1_k [7:0] $end
$var wire 8 O p1_mant [7:0] $end
$var wire 3 P p1_reg_len [2:0] $end
$var wire 1 6 p1_reg_s $end
$var wire 8 Q p1_regime_bits [7:0] $end
$var wire 1 8 p1_sign $end
$var wire 1 9 p2_is_inf $end
$var wire 1 : p2_is_zero $end
$var wire 8 R p2_k [7:0] $end
$var wire 8 S p2_mant [7:0] $end
$var wire 3 T p2_reg_len [2:0] $end
$var wire 1 > p2_reg_s $end
$var wire 8 U p2_regime_bits [7:0] $end
$var wire 1 @ p2_sign $end
$var wire 1 ( pout_is_inf $end
$var wire 1 ' pout_is_zero $end
$var wire 8 V pout_k [7:0] $end
$var wire 8 W pout_mant [7:0] $end
$var wire 3 X pout_reg_len [2:0] $end
$var wire 1 " pout_reg_s $end
$var wire 8 Y pout_regime_bits [7:0] $end
$var wire 1 $ pout_sign $end
$var wire 3 Z reg_len [2:0] $end
$var wire 16 [ prod_mantissae_adjusted [15:0] $end
$var wire 16 \ prod_mantissae [15:0] $end
$var wire 8 ] mant_len [7:0] $end
$var wire 1 ^ mant_carry $end
$var wire 8 _ k_adjusted_III [7:0] $end
$var wire 8 ` k_adjusted_II [7:0] $end
$var wire 8 a k_adjusted_I [7:0] $end
$var wire 8 b k [7:0] $end
$var wire 8 c final_mant [7:0] $end
$var wire 8 d f2 [7:0] $end
$var wire 8 e f1 [7:0] $end
$var wire 8 f exp_adjusted_III [7:0] $end
$var wire 8 g exp_adjusted_II [7:0] $end
$var wire 8 h exp_adjusted_I [7:0] $end
$var wire 3 i F2 [2:0] $end
$var wire 3 j F1 [2:0] $end
$scope function max $end
$var reg 8 k a [7:0] $end
$var reg 8 l b [7:0] $end
$upscope $end
$scope function min $end
$var reg 8 m a [7:0] $end
$var reg 8 n b [7:0] $end
$upscope $end
$upscope $end
$upscope $end
$enddefinitions $end
#0
$dumpvars
b110 n
bx m
b11111010 l
bx k
b101 j
b100 i
b0 h
b1 g
b1 f
b11110000 e
b11101000 d
bx c
bx b
bx a
bx `
bx _
1^
bx ]
b1101100110000000 \
b110110011000000 [
bx Z
b0 Y
b0 X
bx W
bx V
bx U
b11 T
b1101 S
bx R
bx Q
b10 P
b11100 O
bx N
b10110011000000 M
0L
0K
b0 J
b1 I
0H
bx G
0F
b11 E
b1011 D
bx C
0B
0A
0@
bx ?
0>
b11 =
b1101 <
bx ;
0:
09
08
bx 7
06
b10 5
b11100 4
bx 3
02
01
00
x/
0.
x-
x,
0+
0*
0)
0(
0'
bx &
bx %
0$
b0 #
0"
b0 !
$end
#10
b0 f
b11011000100000 M
b0 g
b111011000100000 [
0^
b10101000 d
b111011000100000 \
b10110100 e
x.
b1110 D
1F
b101 <
b101 S
1>
b1101 4
b1101 O
16
b10 I
#20
b1 f
b1 g
b111110100000 M
1^
b100111110100000 [
b11000100 d
b1001111101000000 \
b11010000 e
0.
b101 i
1$
b100 j
b100 D
0F
1H
b10001 <
b10001 S
b10 =
b10 T
0>
1@
b1010 4
b1010 O
b11 5
b11 P
06
b11 I
#30
b100111000000 M
b100100111000000 [
b11101100 d
b1001001110000000 \
b10100000 e
x.
b101 j
0$
b101 D
b10 E
1F
0H
b11011 <
b11011 S
b1000 4
b1000 O
b10 5
b10 P
16
18
b100 I
#40
b100110000000 M
b100100110000000 [
b11100000 d
b1001001100000000 \
b10101000 e
b100 j
1$
b10 D
b11 E
1H
b11000 <
b11000 S
b101 4
b101 O
b11 5
b11 P
08
b101 I
#50
b0 f
b10011000000000 M
b0 g
b110011000000000 [
0^
b10001000 d
b110011000000000 \
b11000000 e
b100 i
0$
b10 j
b1 D
b110 E
0H
b1 <
b1 S
b11 =
b11 T
1>
0@
b10 4
b10 O
b101 5
b101 P
b110 I
#60
b111000000000 M
b100111000000000 [
b10000000 d
b100111000000000 \
b10011100 e
0.
b101 i
1$
b101 j
b100 D
b11 E
0F
1H
b0 <
b0 S
b10 =
b10 T
0>
1@
b111 4
b111 O
b10 5
b10 P
06
b111 I
#70
b1 f
b1 g
b1000010000000 M
1^
b101000010000000 [
b10111000 e
b1010000100000000 \
b11100000 d
0$
b100 j
0H
b11000 <
b11000 S
0@
b11 5
b11 P
b1000 I
#80
b0 f
b10011000000000 M
b0 g
b110011000000000 [
0^
b11000000 d
b110011000000000 \
b10001000 e
x.
b11 i
1$
b10011 D
b10 E
1F
1H
b100 <
b100 S
b100 =
b100 T
1>
1@
b1 4
b1 O
b1001 I
#90
b1 f
b1 g
b100000000 M
1^
b100000100000000 [
b10100000 e
b1000001000000000 \
b11010000 d
0.
0$
b10 j
b0 D
b111 E
0F
0H
b101 <
b101 S
0>
0@
b101 5
b101 P
b1010 I
#100
b0 f
b1100000000000 M
b0 g
b101100000000000 [
0^
b10000000 d
b101100000000000 \
b10110000 e
1$
b100 j
b110 D
b11 E
1H
b0 <
b0 S
1@
b110 4
b110 O
b11 5
b11 P
16
b1011 I
#110
b1 f
b1 g
b111000000000 M
1^
b100111000000000 [
b11010000 d
b1001110000000000 \
b11000000 e
x.
b11 j
0$
b111 D
b10 E
1F
0H
b101 <
b101 S
b100 4
b100 O
b100 5
b100 P
18
b1100 I
#120
b11000100000 M
b100011000100000 [
b11001100 d
b1000110001000000 \
b10110000 e
0.
b101 i
1$
b100 j
b10 D
b11 E
0F
1H
b10011 <
b10011 S
b10 =
b10 T
0@
b110 4
b110 O
b11 5
b11 P
06
b1101 I
#130
b0 f
b10101110100000 M
b0 g
b110101110100000 [
0^
b10100100 d
b110101110100000 \
b10101000 e
b101 j
0$
b10110 D
b10 E
0H
b1001 <
b1001 S
b1010 4
b1010 O
b10 5
b10 P
16
08
b1110 I
#140
b1 f
b1 g
b1011000100000 M
1^
b101011000100000 [
b11010100 d
b1010110001000000 \
b11010000 e
x.
b1011 D
1F
b10101 <
b10101 S
1>
1@
b10100 4
b10100 O
06
18
b1111 I
#150
b1000000010000 M
b101000000010000 [
b10101000 d
b1010000000100000 \
b11110100 e
b100 i
b100 D
b11 E
b101 <
b101 S
b11 =
b11 T
b11101 4
b11101 O
b10000 I
#160
b10000110000000 M
b110000110000000 [
b11010000 d
b1100001100000000 \
b11110000 e
0.
b101 i
b11 j
b1000 D
0F
b10100 <
b10100 S
b10 =
b10 T
0@
b111 4
b111 O
b100 5
b100 P
08
b10001 I
#170
b1001001000000 M
b101001001000000 [
b10111100 d
b1010010010000000 \
b11100000 e
1$
b101 j
b1001 D
b10 E
1H
b1111 <
b1111 S
0>
1@
b11000 4
b11000 O
b10 5
b10 P
b10010 I
#180
b10001000000000 M
b110001000000000 [
b1100010000000000 \
b11100000 d
x.
b100 i
b10 j
0$
b100 D
b100 E
1F
0H
b1100 <
b1100 S
b11 =
b11 T
b11 4
b11 O
b101 5
b101 P
16
18
b10011 I
#190
b1110000000 M
b100001110000000 [
b10010000 d
b1000011100000000 \
b11110000 e
b11 i
b11 j
b0 D
b111 E
b1 <
b1 S
b100 =
b100 T
1>
b111 4
b111 O
b100 5
b100 P
b10100 I
#200
b10110011000000 M
b110110011000000 [
b1101100110000000 \
b11101000 d
b101 i
b101 j
1$
b10110 D
b10 E
1H
b11010 <
b11010 S
b10 =
b10 T
0>
b11100 4
b11100 O
b10 5
b10 P
08
b10101 I
#210
b0 f
b11001000000000 M
b0 g
b111001000000000 [
0^
b11000000 d
b111001000000000 \
b10011000 e
0.
b10 i
b11 D
b101 E
0F
b10 <
b10 S
b101 =
b101 T
b110 4
b110 O
b10110 I
#220
b10000000 d
b111001000000000 \
b11100100 e
x.
b110 D
b100 E
1F
b0 <
b0 S
1>
0@
b11001 4
b11001 O
06
18
b10111 I
#230
b1 f
b1 g
b1000000000 M
1^
b100001000000000 [
b11000000 d
b1000010000000000 \
b10110000 e
b0 D
b101 E
b10 <
b10 S
1@
b1100 4
b1100 O
08
b11000 I
#240
b0 f
b1101000000000 M
b0 g
b101101000000000 [
0^
b10000000 d
b101101000000000 \
b10110100 e
b11 i
b111 D
b11 E
b0 <
b0 S
b100 =
b100 T
0@
b1101 4
b1101 O
18
b11001 I
#250
b1 f
b1 g
b1000100000000 M
1^
b101000100000000 [
b11000000 d
b1010001000000000 \
b11011000 e
0.
b10 i
b100 j
0$
b1 D
b110 E
0F
0H
b10 <
b10 S
b101 =
b101 T
0>
b1011 4
b1011 O
b11 5
b11 P
08
b11010 I
#260
b0 f
b1011110000000 M
b0 g
b101011110000000 [
0^
b10100000 d
b101011110000000 \
b10001100 e
b100 i
b101 j
b110 D
b11 E
b100 <
b100 S
b11 =
b11 T
b11 4
b11 O
b10 5
b10 P
16
b11011 I
#270
b10110000000000 M
b110110000000000 [
b10000000 d
b110110000000000 \
b11011000 e
b11 i
b11 D
b101 E
b0 <
b0 S
b100 =
b100 T
b10110 4
b10110 O
06
b11100 I
#280
b1 f
b1 g
b10100000000 M
1^
b100010100000000 [
b10111000 d
b1000101000000000 \
b11000000 e
b101 i
1$
b10 j
b1 D
b100 E
1H
b1110 <
b1110 S
b10 =
b10 T
1>
1@
b10 4
b10 O
b101 5
b101 P
b11101 I
#290
b1000000000 M
b100001000000000 [
b11000000 d
b1000010000000000 \
b10110000 e
x.
b100 i
b101 j
0$
b0 D
b11 E
1F
0H
b1000 <
b1000 S
b11 =
b11 T
b1100 4
b1100 O
b10 5
b10 P
18
b11110 I
#300
b10100100000000 M
b110100100000000 [
b11100000 d
b1101001000000000 \
b11110000 e
0.
1$
b10101 D
b10 E
0F
1H
b1100 <
b1100 S
0>
0@
b11100 4
b11100 O
16
b11111 I
#310
b101100000000 M
b100101100000000 [
b11000000 d
b1001011000000000 \
b11001000 e
x.
b1 i
b0 D
b110 E
1F
b1 <
b1 S
b110 =
b110 T
1>
b10010 4
b10010 O
06
b100000 I
#320
b0 f
b1100101000000 M
b0 g
b101100101000000 [
0^
b10101000 d
b101100101000000 \
b10001000 e
0.
b100 i
b110 D
b11 E
0F
b101 <
b101 S
b11 =
b11 T
0>
1@
b10 4
b10 O
16
08
b100001 I
#330
b11000000000 M
b100011000000000 [
b10001100 d
b100011000000000 \
b10000000 e
b101 i
b100 j
0$
b1 D
b100 E
0H
b11 <
b11 S
b10 =
b10 T
b0 4
b0 O
b11 5
b11 P
06
18
b100010 I
#340
b110001010000 M
b100110001010000 [
b10000100 d
b100110001010000 \
b10010100 e
x.
b101 j
b110 D
b10 E
1F
b1 <
b1 S
1>
0@
b101 4
b101 O
b10 5
b10 P
16
08
b100011 I
#350
b10100000100000 M
b10001000 d
b110100000100000 [
b110100000100000 \
b11000100 e
0.
b100 i
1$
b101 D
b100 E
0F
1H
b11 =
b11 T
0>
1@
b10001 4
b10001 O
06
b100100 I
#360
b11001110000000 M
b111001110000000 [
b10110000 d
b111001110000000 \
b10101000 e
b110 D
b110 <
b110 S
b1010 4
b1010 O
b100101 I
#370
b10011011010000 M
b110011011010000 [
b10001100 d
b110011011010000 \
b10111100 e
b101 i
0$
b10011 D
b10 E
0H
b11 <
b11 S
b10 =
b10 T
0@
b1111 4
b1111 O
16
b100110 I
#380
b1 f
b1 g
b101100000000 M
1^
b100101100000000 [
b10100000 d
b1001011000000000 \
b11110000 e
b11 i
b11 j
1$
b0 D
b110 E
1H
b10 <
b10 S
b100 =
b100 T
b111 4
b111 O
b100 5
b100 P
06
18
b100111 I
#390
b0 f
b11100000000000 M
b0 g
b111100000000000 [
0^
b11110000 d
b111100000000000 \
b10000000 e
x.
b101 i
b100 j
b1110 D
b11 E
1F
b11100 <
b11100 S
b10 =
b10 T
1>
b0 4
b0 O
b11 5
b11 P
16
b101000 I
#400
b1110010000000 M
b101110010000000 [
b10100000 d
b101110010000000 \
b10010100 e
0.
b100 i
0$
b101 j
b111 D
0F
0H
b100 <
b100 S
b11 =
b11 T
0>
1@
b101 4
b101 O
b10 5
b10 P
b101001 I
#410
b1 f
b1 g
b11011000100000 M
1^
b111011000100000 [
b11110000 d
b1110110001000000 \
b11111100 e
x.
b101 i
1$
b11011 D
b10 E
1F
1H
b11100 <
b11100 S
b10 =
b10 T
b11111 4
b11111 O
08
b101010 I
#420
b110100000000 M
b100110100000000 [
b11100000 d
b1001101000000000 \
b10110000 e
b10 i
b100 j
b10 D
b100 E
b11 <
b11 S
b101 =
b101 T
1>
b110 4
b110 O
b11 5
b11 P
06
b101011 I
#430
b0 f
b1010000000000 M
b0 g
b101010000000000 [
0^
b10000000 d
b101010000000000 \
b10101000 e
0.
b1 i
b1 D
b101 E
0F
b0 <
b0 S
b110 =
b110 T
0>
0@
b101 4
b101 O
16
18
b101100 I
#440
b1 f
b1 g
b101001000000 M
1^
b100101001000000 [
b10110000 d
b1001010010000000 \
b11011000 e
x.
b101 i
b101 j
0$
b11 D
b11 E
1F
0H
b1100 <
b1100 S
b10 =
b10 T
1>
b10110 4
b10110 O
b10 5
b10 P
08
b101101 I
#450
b1110011000000 M
b101110011000000 [
b11100000 d
b1011100110000000 \
b11010100 e
1$
b111 D
1H
b11000 <
b11000 S
b10101 4
b10101 O
18
b101110 I
#460
b0 f
b1101001000000 M
b0 g
b101101001000000 [
0^
b10011000 d
b101101001000000 \
b10011000 e
0.
b100 i
b100 j
0$
b1101 D
b10 E
0F
0H
b11 <
b11 S
b11 =
b11 T
0>
b11 4
b11 O
b11 5
b11 P
08
b101111 I
#470
b1010000000000 M
b101010000000000 [
b10101000 d
b101010000000000 \
b10000000 e
x.
b111 j
1$
b1 D
b110 E
1F
1H
b101 <
b101 S
b0 4
b0 O
b0 5
b0 P
18
b110000 I
#480
b1 f
b1 g
b10011001100000 M
b11010000 d
1^
b110011001100000 [
b1100110011000000 \
b11111100 e
b11 i
b101 j
b101 D
b100 E
b100 =
b100 T
1>
1@
b11111 4
b11111 O
b10 5
b10 P
06
08
b110001 I
#490
b1110000000 M
b100001110000000 [
b11000000 d
b1000011100000000 \
b10110100 e
0$
b0 D
0H
b100 <
b100 S
0@
b1101 4
b1101 O
b110010 I
#500
b0 f
b11001110000000 M
b0 g
b111001110000000 [
0^
b11100000 d
b111001110000000 \
b10000100 e
0.
b10 i
b101 E
0F
b11 <
b11 S
b101 =
b101 T
0>
1@
b1 4
b1 O
18
b110011 I
#510
b1 f
b1 g
b100000000 M
1^
b100000100000000 [
b10100000 e
b1000001000000000 \
b11010000 d
x.
b101 i
b10 j
1F
b10100 <
b10100 S
b10 =
b10 T
0@
b101 5
b101 P
16
08
b110100 I
#520
b1100001000 M
b100001100001000 [
b11011100 d
b1000011000010000 \
b10011100 e
1$
b101 j
b10 D
b10 E
1H
b10111 <
b10111 S
1@
b111 4
b111 O
b10 5
b10 P
b110101 I
#530
b1101100010000 M
b101101100010000 [
b10111100 d
b1011011000100000 \
b11111000 e
0.
b100 j
b1110 D
0F
b1111 <
b1111 S
1>
0@
b1111 4
b1111 O
b11 5
b11 P
06
18
b110110 I
#540
b0 f
b11101110000000 M
b0 g
b111101110000000 [
0^
b10011000 d
b111101110000000 \
b11010000 e
b100 i
b11 j
b1111 D
b11 E
b11 <
b11 S
b11 =
b11 T
b101 4
b101 O
b100 5
b100 P
b110111 I
#550
b1 f
b1 g
b1000100100000 M
1^
b101000100100000 [
b11101100 d
b1010001001000000 \
b10110000 e
x.
b101 i
b101 j
0$
b1001 D
b10 E
1F
0H
b11011 <
b11011 S
b10 =
b10 T
0>
b1100 4
b1100 O
b10 5
b10 P
16
08
b111000 I
#560
b0 f
b11110000000000 M
b0 g
b111110000000000 [
0^
b11111000 d
b111110000000000 \
b10000000 e
0.
1$
b0 j
b0 D
b111 E
0F
1H
b11110 <
b11110 S
1@
b0 4
b0 O
b111 5
b111 P
06
b111001 I
#570
b1000000000000 M
b101000000000000 [
b10000000 d
b101000000000000 \
b10100000 e
x.
b1 i
b101 j
b1 D
b101 E
1F
b0 <
b0 S
b110 =
b110 T
1>
0@
b1000 4
b1000 O
b10 5
b10 P
18
b111010 I
#580
b1 f
b1 g
b1001010000000 M
1^
b101001010000000 [
b10110000 d
b1010010100000000 \
b11110000 e
b100 i
b100 j
b110 <
b110 S
b11 =
b11 T
b1110 4
b1110 O
b11 5
b11 P
16
b111011 I
#590
b1000000000 M
b100001000000000 [
b11000000 d
b1000010000000000 \
b10110000 e
0.
b101 j
b10 E
0F
b1000 <
b1000 S
0>
b1100 4
b1100 O
b10 5
b10 P
b111100 I
#600
b0 f
b11010100000000 M
b0 g
b111010100000000 [
0^
b111010100000000 \
b10011100 e
b101 i
0$
b1101 D
b11 E
0H
b10000 <
b10000 S
b10 =
b10 T
1@
b111 4
b111 O
06
b111101 I
#610
b0 M
b100000000000000 [
b10000000 d
b100000000000000 \
b10000000 e
x.
b1 i
b0 j
b0 D
b10 E
1F
b0 <
b0 S
b110 =
b110 T
b0 4
b0 O
b111 5
b111 P
16
b111110 I
#620
b1001101000000 M
b101001101000000 [
b10010000 d
b101001101000000 \
b10010100 e
b100 i
b101 j
b1010 D
b10 <
b10 S
b11 =
b11 T
1>
b101 4
b101 O
b10 5
b10 P
06
b111111 I
#630
b1 f
b1 g
b1111101010000 M
1^
b101111101010000 [
b11110100 d
b1011111010100000 \
b11001000 e
b101 i
b100 j
b100 D
b100 E
b11101 <
b11101 S
b10 =
b10 T
0@
b1001 4
b1001 O
b11 5
b11 P
16
08
b1000000 I
#640
b1010000000000 M
b101010000000000 [
b11000000 d
b1010100000000000 \
b11100000 e
0-
b1 i
1$
b0 D
b0 E
1H
b1 <
b1 S
b110 =
b110 T
1@
b1100 4
b1100 O
b1000001 I
#650
b1100100100000 M
b101100100100000 [
b11111000 d
b1011001001000000 \
b10111000 e
x-
b100 i
b10 D
b101 E
b1111 <
b1111 S
b11 =
b11 T
0@
b111 4
b111 O
18
b1000010 I
#660
b1010100000 M
b100001010100000 [
b11010000 d
b1000010101000000 \
b10100100 e
b101 j
0$
b0 D
b100 E
0H
b1010 <
b1010 S
b1001 4
b1001 O
b10 5
b10 P
08
b1000011 I
#670
b111011000000 M
b100111011000000 [
b10101000 d
b1001110110000000 \
b11110000 e
b101 i
1$
b100 j
b10 D
1H
b10 =
b10 T
1@
b1110 4
b1110 O
b11 5
b11 P
b1000100 I
#680
b0 f
b10001100000000 M
b0 g
b110001100000000 [
0^
b10010000 d
b110001100000000 \
b10110000 e
b11 i
0$
b11 j
b1 D
b110 E
0H
b1 <
b1 S
b100 =
b100 T
0@
b11 4
b11 O
b100 5
b100 P
b1000101 I
#690
b1011100100000 M
b10001000 d
b101011100100000 [
b101011100100000 \
b10100100 e
0.
b100 i
b101 j
b11 D
b100 E
0F
b11 =
b11 T
0>
b1001 4
b1001 O
b10 5
b10 P
06
b1000110 I
#700
b11011000000000 M
b111011000000000 [
b10000000 d
b111011000000000 \
b11101100 e
x.
1$
b11011 D
b10 E
1F
1H
b0 <
b0 S
1>
1@
b11011 4
b11011 O
b1000111 I
#710
b1 f
b1 g
b11111100000 M
1^
b100011111100000 [
b11001000 d
b1000111111000000 \
b10111000 e
b101 i
0$
b100 D
0H
b10010 <
b10010 S
b10 =
b10 T
0>
0@
b1110 4
b1110 O
16
b1001000 I
#720
b11010000 M
b100000011010000 [
b11110100 d
b1000000110100000 \
b10001000 e
b0 D
b11101 <
b11101 S
1>
1@
b10 4
b10 O
06
18
b1001001 I
#730
b0 f
b11101111000000 M
b0 g
b111101111000000 [
0^
b10110100 d
b111101111000000 \
b10110000 e
0.
b11 j
b111 D
b100 E
0F
b1101 <
b1101 S
0@
b11 4
b11 O
b100 5
b100 P
08
b1001010 I
#740
b11100000000000 M
b111100000000000 [
b11000000 d
b111100000000000 \
b10100000 e
x.
b10 i
b100 j
b1110 D
b11 E
1F
b10 <
b10 S
b101 =
b101 T
b100 4
b100 O
b11 5
b11 P
b1001011 I
#750
b1 f
b1 g
b101101000000 M
1^
b100101101000000 [
b11100000 d
b1001011010000000 \
b10101100 e
b100 i
b101 j
1$
b1 D
b100 E
1H
b1100 <
b1100 S
b11 =
b11 T
b1011 4
b1011 O
b10 5
b10 P
16
18
b1001100 I
#760
b10100100000000 M
b110100100000000 [
b11110000 d
b1101001000000000 \
b11100000 e
b11 j
0$
b1010 D
b11 E
0H
b1110 <
b1110 S
0>
b110 4
b110 O
b100 5
b100 P
08
b1001101 I
#770
b0 f
b10011010000000 M
b0 g
b110011010000000 [
0^
b10100000 d
b110011010000000 \
b10100100 e
b11 i
b101 j
b10 <
b10 S
b100 =
b100 T
1>
1@
b1001 4
b1001 O
b10 5
b10 P
06
18
b1001110 I
#780
b1 f
b1 g
b11011100000 M
1^
b100011011100000 [
b10101000 d
b1000110111000000 \
b11011000 e
0.
b101 i
1$
b11 D
b10 E
0F
1H
b1010 <
b1010 S
b10 =
b10 T
0>
0@
b10110 4
b10110 O
b1001111 I
#790
b0 f
b11111000000000 M
b0 g
b111111000000000 [
0^
b11111100 d
b111111000000000 \
b10000000 e
x.
b1 j
b0 D
b111 E
1F
b11111 <
b11111 S
1>
b0 4
b0 O
b110 5
b110 P
16
b1010000 I
#800
b11100000000000 M
b111100000000000 [
b111100000000000 \
b11110000 d
b11 i
0$
b10 j
b11100 D
b10 E
0H
b111 <
b111 S
b100 =
b100 T
0>
1@
b101 5
b101 P
b1010001 I
#810
b1 f
b1 g
b1001011111000 M
1^
b101001011111000 [
b10110100 d
b1010010111110000 \
b11101100 e
b101 i
1$
b101 j
b1001 D
1H
b1101 <
b1101 S
b10 =
b10 T
0@
b11011 4
b11011 O
b10 5
b10 P
b1010010 I
#820
b0 f
b110000000000 M
b0 g
b100110000000000 [
0^
b10011000 d
b100110000000000 \
b10000000 e
b10 j
0$
b1 D
b100 E
0H
b110 <
b110 S
b0 4
b0 O
b101 5
b101 P
08
b1010011 I
#830
b1 f
b1 g
b1011110101000 M
1^
b101011110101000 [
b11001100 d
b1010111101010000 \
b11011100 e
b101 j
b110 D
b11 E
b10011 <
b10011 S
1>
b10111 4
b10111 O
b10 5
b10 P
b1010100 I
#840
b0 f
b101000000000 M
b0 g
b100101000000000 [
0^
b10000000 d
b100101000000000 \
b10010100 e
b0 i
b0 D
b110 E
b0 <
b0 S
b111 =
b111 T
b101 4
b101 O
06
b1010101 I
#850
b1 f
b1 g
b1010001100000 M
1^
b101010001100000 [
b11011000 d
b1010100011000000 \
b11001000 e
b101 i
b1010 D
b10 E
b10110 <
b10110 S
b10 =
b10 T
b10010 4
b10010 O
b1010110 I
#860
b0 f
b1010100000000 M
b0 g
b101010100000000 [
0^
b10001000 d
b101010100000000 \
b10100000 e
0.
b11 j
1$
b11 D
b100 E
0F
1H
b10 <
b10 S
b10 4
b10 O
b100 5
b100 P
18
b1010111 I
#870
b11001110000000 M
b111001110000000 [
b11100000 d
b111001110000000 \
b10000100 e
x.
b11 i
0$
b101 j
b110 D
1F
0H
b110 <
b110 S
b100 =
b100 T
1@
b1 4
b1 O
b10 5
b10 P
16
b1011000 I
#880
b10011000000000 M
b110011000000000 [
b10000000 d
b110011000000000 \
b11001100 e
0.
b0 i
b0 D
b111 E
0F
b0 <
b0 S
b111 =
b111 T
0>
0@
b10011 4
b10011 O
06
08
b1011001 I
#890
b1 f
b1 g
b1001101010000 M
1^
b101001101010000 [
b10101100 d
b1010011010100000 \
b11111000 e
x.
b101 i
1$
b1010 D
b10 E
1F
1H
b1011 <
b1011 S
b10 =
b10 T
b11110 4
b11110 O
16
18
b1011010 I
#900
b11001000110000 M
b111001000110000 [
b11101000 d
b1110010001100000 \
b11111100 e
0$
b1101 D
b11 E
0H
b11010 <
b11010 S
1>
1@
b11111 4
b11111 O
b1011011 I
#910
b0 f
b10110000000000 M
b0 g
b110110000000000 [
0^
b11011000 d
b110110000000000 \
b10000000 e
b11 j
1$
b1011 D
1H
b10110 <
b10110 S
0>
b0 4
b0 O
b100 5
b100 P
08
b1011100 I
#920
b1 f
b1 g
b1011001000000 M
1^
b101011001000000 [
b11110000 d
b1010110010000000 \
b10111000 e
0.
b100 i
b100 j
0$
b11 D
b100 E
0F
0H
b1110 <
b1110 S
b11 =
b11 T
b111 4
b111 O
b11 5
b11 P
06
18
b1011101 I
#930
b100101110000 M
b100100101110000 [
b11001000 d
b1001001011100000 \
b10111100 e
b101 i
b101 j
1$
b101 D
b10 E
1H
b10010 <
b10010 S
b10 =
b10 T
b1111 4
b1111 O
b10 5
b10 P
08
b1011110 I
#940
b1100010000000 M
b101100010000000 [
b11000000 d
b1011000100000000 \
b11101100 e
b11 i
b110 D
b11 E
b100 <
b100 S
b100 =
b100 T
b11011 4
b11011 O
16
b1011111 I
#950
b110110000000 M
b100110110000000 [
b10100000 d
b1001101100000000 \
b11111000 e
b10 i
b100 j
b11 D
b1 <
b1 S
b101 =
b101 T
b1111 4
b1111 O
b11 5
b11 P
b1100000 I
#960
b101011000000 M
b100101011000000 [
b10111000 d
b1001010110000000 \
b11010000 e
x.
b100 i
0$
b1 D
b101 E
1F
0H
b111 <
b111 S
b11 =
b11 T
1>
b1010 4
b1010 O
18
b1100001 I
#970
b1011110000000 M
b101011110000000 [
b11100000 d
b1010111100000000 \
b11001000 e
b10 i
b101 j
b110 E
b11 <
b11 S
b101 =
b101 T
0@
b10010 4
b10010 O
b10 5
b10 P
08
b1100010 I
#980
b0 f
b11110100000000 M
b0 g
b111110100000000 [
0^
b11001000 d
b111110100000000 \
b10100000 e
b100 i
b11 j
b11110 D
b10 E
b1001 <
b1001 S
b11 =
b11 T
0>
1@
b10 4
b10 O
b100 5
b100 P
18
b1100011 I
#990
b1 f
b1 g
b101010000 M
1^
b100000101010000 [
b10011000 d
b1000001010100000 \
b11011100 e
b101 i
b101 j
b1 D
b110 <
b110 S
b10 =
b10 T
b10111 4
b10111 O
b10 5
b10 P
b1100100 I
#1000
b0 f
b10100010000000 M
b0 g
b110100010000000 [
0^
b10110000 d
b110100010000000 \
b10011000 e
b100 j
b10100 D
b1100 <
b1100 S
b11 4
b11 O
b11 5
b11 P
b1100101 I
#1010
b1 f
b1 g
b10000011100000 M
1^
b110000011100000 [
b11111000 d
b1100000111000000 \
b11001000 e
0.
b1000 D
b11 E
0F
b11110 <
b11110 S
0@
b1001 4
b1001 O
06
08
b1100110 I
#1020
b0 f
b11000010000000 M
b0 g
b111000010000000 [
0^
b11001000 d
b111000010000000 \
b10010000 e
b100 i
1$
b11000 D
b10 E
1H
b1001 <
b1001 S
b11 =
b11 T
1>
b10 4
b10 O
18
b1100111 I
#1030
b1 f
b1 g
b110111110000 M
1^
b100110111110000 [
b10101100 d
b1001101111100000 \
b11101000 e
x.
b101 i
b101 j
0$
b111 D
1F
0H
b1011 <
b1011 S
b10 =
b10 T
b11010 4
b11010 O
b10 5
b10 P
08
b1101000 I
#1040
b1100010000000 M
b101100010000000 [
b11101100 d
b1011000100000000 \
b11000000 e
1$
b110 D
b11 E
1H
b11011 <
b11011 S
b10000 4
b10000 O
16
18
b1101001 I
#1050
b10000111100000 M
b110000111100000 [
b11101000 d
b1100001111000000 \
b11011000 e
b100 j
b1000 D
b11010 <
b11010 S
0>
b1011 4
b1011 O
b11 5
b11 P
b1101010 I
#1060
b0 f
b1110000000000 M
b0 g
b101110000000000 [
0^
b10111000 d
b101110000000000 \
b10000000 e
0.
b1 j
b0 D
b111 E
0F
b1110 <
b1110 S
b0 4
b0 O
b110 5
b110 P
06
b1101011 I
#1070
b0x f
b0x g
b0xxxxxxxxxxxxxx M
x^
bx [
b1xxxxxxx d
bx \
b11111000 e
x.
bx i
1'
b100 j
0$
bx E
xF
0H
1B
b0 <
b0 S
bx =
bx T
x>
1:
b1111 4
b1111 O
b11 5
b11 P
08
b1101100 I
