waveforms/tb_mul_core_P8E0.vcd
$date
	Mon Dec 20 19:50:57 2021
$end
$version
	Icarus Verilog
$end
$timescale
	1s
$end
$scope module tb_mul_core $end
$var wire 4 ! pout_reg_len [3:0] $end
$var wire 1 " pout_reg_s $end
$var wire 1 # pout_sign $end
$var wire 8 $ pout_mant [7:0] $end
$var wire 4 % pout_k [3:0] $end
$var wire 1 & pout_is_zero $end
$var wire 1 ' pout_is_inf $end
$var reg 1 ( diff_pout_is_inf $end
$var reg 1 ) diff_pout_is_zero $end
$var reg 1 * diff_pout_k $end
$var reg 1 + diff_pout_mant $end
$var reg 1 , diff_pout_reg_len $end
$var reg 1 - diff_pout_reg_s $end
$var reg 1 . diff_pout_sign $end
$var reg 1 / p1_is_inf $end
$var reg 1 0 p1_is_zero $end
$var reg 4 1 p1_k [3:0] $end
$var reg 8 2 p1_mant [7:0] $end
$var reg 4 3 p1_reg_len [3:0] $end
$var reg 1 4 p1_reg_s $end
$var reg 1 5 p1_sign $end
$var reg 1 6 p2_is_inf $end
$var reg 1 7 p2_is_zero $end
$var reg 4 8 p2_k [3:0] $end
$var reg 8 9 p2_mant [7:0] $end
$var reg 4 : p2_reg_len [3:0] $end
$var reg 1 ; p2_reg_s $end
$var reg 1 < p2_sign $end
$var reg 1 = pout_is_inf_expected $end
$var reg 1 > pout_is_zero_expected $end
$var reg 4 ? pout_k_expected [3:0] $end
$var reg 8 @ pout_mant_expected [7:0] $end
$var reg 4 A pout_reg_len_expected [3:0] $end
$var reg 1 B pout_reg_s_expected $end
$var reg 1 C pout_sign_expected $end
$var reg 9 D test_no [8:0] $end
$scope module mul_core_inst $end
$var wire 8 E exp [7:0] $end
$var wire 1 F exp_carry $end
$var wire 1 G exp_carry_I $end
$var wire 16 H mant_fraction_only [15:0] $end
$var wire 1 / p1_is_inf $end
$var wire 1 0 p1_is_zero $end
$var wire 4 I p1_k [3:0] $end
$var wire 8 J p1_mant [7:0] $end
$var wire 4 K p1_reg_len [3:0] $end
$var wire 1 4 p1_reg_s $end
$var wire 1 5 p1_sign $end
$var wire 1 6 p2_is_inf $end
$var wire 1 7 p2_is_zero $end
$var wire 4 L p2_k [3:0] $end
$var wire 8 M p2_mant [7:0] $end
$var wire 4 N p2_reg_len [3:0] $end
$var wire 1 ; p2_reg_s $end
$var wire 1 < p2_sign $end
$var wire 1 ' pout_is_inf $end
$var wire 1 & pout_is_zero $end
$var wire 8 O pout_mant [7:0] $end
$var wire 4 P pout_reg_len [3:0] $end
$var wire 1 " pout_reg_s $end
$var wire 1 Q pout_regime_bits $end
$var wire 1 # pout_sign $end
$var wire 3 R reg_len [2:0] $end
$var wire 16 S prod_mantissae_adjusted [15:0] $end
$var wire 16 T prod_mantissae [15:0] $end
$var wire 4 U pout_k [3:0] $end
$var wire 8 V mant_len [7:0] $end
$var wire 1 W mant_carry $end
$var wire 8 X k_adjusted_III [7:0] $end
$var wire 8 Y k_adjusted_II [7:0] $end
$var wire 8 Z k_adjusted_I [7:0] $end
$var wire 8 [ k [7:0] $end
$var wire 8 \ final_mant [7:0] $end
$var wire 8 ] f2 [7:0] $end
$var wire 8 ^ f1 [7:0] $end
$var wire 8 _ exp_adjusted_III [7:0] $end
$var wire 8 ` exp_adjusted_II [7:0] $end
$var wire 8 a exp_adjusted_I [7:0] $end
$var wire 3 b F2 [2:0] $end
$var wire 3 c F1 [2:0] $end
$scope function max $end
$var reg 8 d a [7:0] $end
$var reg 8 e b [7:0] $end
$upscope $end
$scope function min $end
$var reg 8 f a [7:0] $end
$var reg 8 g b [7:0] $end
$upscope $end
$upscope $end
$upscope $end
$enddefinitions $end
#0
$dumpvars
b110 g
bx f
b11111010 e
bx d
b101 c
b100 b
b0 a
b1 `
b1 _
b11110000 ^
b11101000 ]
bx \
bx [
bx Z
bx Y
bx X
1W
bx V
bx U
b1101100110000000 T
b110110011000000 S
bx R
0Q
b0 P
bx O
b11 N
b1101 M
bx L
b10 K
b11100 J
bx I
b10110011000000 H
0G
0F
b0 E
b1 D
0C
0B
b11 A
b1011 @
bx ?
0>
0=
0<
0;
b11 :
b1101 9
bx 8
07
06
05
04
b10 3
b11100 2
bx 1
00
0/
0.
0-
x,
x+
0*
0)
0(
0'
0&
bx %
bx $
0#
0"
b0 !
$end
#10
b0 _
b11011000100000 H
b0 `
b111011000100000 S
0W
b10101000 ]
b111011000100000 T
b10110100 ^
x-
b1110 @
1B
b101 9
b101 M
1;
b1101 2
b1101 J
14
b10 D
#20
b1 _
b1 `
b111110100000 H
1W
b100111110100000 S
b11000100 ]
b1001111101000000 T
b11010000 ^
0-
b101 b
1#
b100 c
b100 @
0B
1C
b10001 9
b10001 M
b10 :
b10 N
0;
1<
b1010 2
b1010 J
b11 3
b11 K
04
b11 D
#30
b100111000000 H
b100100111000000 S
b11101100 ]
b1001001110000000 T
b10100000 ^
x-
b101 c
0#
b101 @
b10 A
1B
0C
b11011 9
b11011 M
b1000 2
b1000 J
b10 3
b10 K
14
15
b100 D
#40
b100110000000 H
b100100110000000 S
b11100000 ]
b1001001100000000 T
b10101000 ^
b100 c
1#
b10 @
b11 A
1C
b11000 9
b11000 M
b101 2
b101 J
b11 3
b11 K
05
b101 D
#50
b0 _
b10011000000000 H
b0 `
b110011000000000 S
0W
b10001000 ]
b110011000000000 T
b11000000 ^
b100 b
0#
b10 c
b1 @
b110 A
0C
b1 9
b1 M
b11 :
b11 N
1;
0<
b10 2
b10 J
b101 3
b101 K
b110 D
#60
b111000000000 H
b100111000000000 S
b10000000 ]
b100111000000000 T
b10011100 ^
0-
b101 b
1#
b101 c
b100 @
b11 A
0B
1C
b0 9
b0 M
b10 :
b10 N
0;
1<
b111 2
b111 J
b10 3
b10 K
04
b111 D
#70
b1 _
b1 `
b1000010000000 H
1W
b101000010000000 S
b10111000 ^
b1010000100000000 T
b11100000 ]
0#
b100 c
0C
b11000 9
b11000 M
0<
b11 3
b11 K
b1000 D
#80
b0 _
b10011000000000 H
b0 `
b110011000000000 S
0W
b11000000 ]
b110011000000000 T
b10001000 ^
x-
b11 b
1#
b10011 @
b10 A
1B
1C
b100 9
b100 M
b100 :
b100 N
1;
1<
b1 2
b1 J
b1001 D
#90
b1 _
b1 `
b100000000 H
1W
b100000100000000 S
b10100000 ^
b1000001000000000 T
b11010000 ]
0-
0#
b10 c
b0 @
b111 A
0B
0C
b101 9
b101 M
0;
0<
b101 3
b101 K
b1010 D
#100
b0 _
b1100000000000 H
b0 `
b101100000000000 S
0W
b10000000 ]
b101100000000000 T
b10110000 ^
1#
b100 c
b110 @
b11 A
1C
b0 9
b0 M
1<
b110 2
b110 J
b11 3
b11 K
14
b1011 D
#110
b1 _
b1 `
b111000000000 H
1W
b100111000000000 S
b11010000 ]
b1001110000000000 T
b11000000 ^
x-
b11 c
0#
b111 @
b10 A
1B
0C
b101 9
b101 M
b100 2
b100 J
b100 3
b100 K
15
b1100 D
#120
b11000100000 H
b100011000100000 S
b11001100 ]
b1000110001000000 T
b10110000 ^
0-
b101 b
1#
b100 c
b10 @
b11 A
0B
1C
b10011 9
b10011 M
b10 :
b10 N
0<
b110 2
b110 J
b11 3
b11 K
04
b1101 D
#130
b0 _
b10101110100000 H
b0 `
b110101110100000 S
0W
b10100100 ]
b110101110100000 T
b10101000 ^
b101 c
0#
b10110 @
b10 A
0C
b1001 9
b1001 M
b1010 2
b1010 J
b10 3
b10 K
14
05
b1110 D
#140
b1 _
b1 `
b1011000100000 H
1W
b101011000100000 S
b11010100 ]
b1010110001000000 T
b11010000 ^
x-
b1011 @
1B
b10101 9
b10101 M
1;
1<
b10100 2
b10100 J
04
15
b1111 D
#150
b1000000010000 H
b101000000010000 S
b10101000 ]
b1010000000100000 T
b11110100 ^
b100 b
b100 @
b11 A
b101 9
b101 M
b11 :
b11 N
b11101 2
b11101 J
b10000 D
#160
b10000110000000 H
b110000110000000 S
b11010000 ]
b1100001100000000 T
b11110000 ^
0-
b101 b
b11 c
b1000 @
0B
b10100 9
b10100 M
b10 :
b10 N
0<
b111 2
b111 J
b100 3
b100 K
05
b10001 D
#170
b1001001000000 H
b101001001000000 S
b10111100 ]
b1010010010000000 T
b11100000 ^
1#
b101 c
b1001 @
b10 A
1C
b1111 9
b1111 M
0;
1<
b11000 2
b11000 J
b10 3
b10 K
b10010 D
#180
b10001000000000 H
b110001000000000 S
b1100010000000000 T
b11100000 ]
x-
b100 b
b10 c
0#
b100 @
b100 A
1B
0C
b1100 9
b1100 M
b11 :
b11 N
b11 2
b11 J
b101 3
b101 K
14
15
b10011 D
#190
b1110000000 H
b100001110000000 S
b10010000 ]
b1000011100000000 T
b11110000 ^
b11 b
b11 c
b0 @
b111 A
b1 9
b1 M
b100 :
b100 N
1;
b111 2
b111 J
b100 3
b100 K
b10100 D
#200
b10110011000000 H
b110110011000000 S
b1101100110000000 T
b11101000 ]
b101 b
b101 c
1#
b10110 @
b10 A
1C
b11010 9
b11010 M
b10 :
b10 N
0;
b11100 2
b11100 J
b10 3
b10 K
05
b10101 D
#210
b0 _
b11001000000000 H
b0 `
b111001000000000 S
0W
b11000000 ]
b111001000000000 T
b10011000 ^
0-
b10 b
b11 @
b101 A
0B
b10 9
b10 M
b101 :
b101 N
b110 2
b110 J
b10110 D
#220
b10000000 ]
b111001000000000 T
b11100100 ^
x-
b110 @
b100 A
1B
b0 9
b0 M
1;
0<
b11001 2
b11001 J
04
15
b10111 D
#230
b1 _
b1 `
b1000000000 H
1W
b100001000000000 S
b11000000 ]
b1000010000000000 T
b10110000 ^
b0 @
b101 A
b10 9
b10 M
1<
b1100 2
b1100 J
05
b11000 D
#240
b0 _
b1101000000000 H
b0 `
b101101000000000 S
0W
b10000000 ]
b101101000000000 T
b10110100 ^
b11 b
b111 @
b11 A
b0 9
b0 M
b100 :
b100 N
0<
b1101 2
b1101 J
15
b11001 D
#250
b1 _
b1 `
b1000100000000 H
1W
b101000100000000 S
b11000000 ]
b1010001000000000 T
b11011000 ^
0-
b10 b
b100 c
0#
b1 @
b110 A
0B
0C
b10 9
b10 M
b101 :
b101 N
0;
b1011 2
b1011 J
b11 3
b11 K
05
b11010 D
#260
b0 _
b1011110000000 H
b0 `
b101011110000000 S
0W
b10100000 ]
b101011110000000 T
b10001100 ^
b100 b
b101 c
b110 @
b11 A
b100 9
b100 M
b11 :
b11 N
b11 2
b11 J
b10 3
b10 K
14
b11011 D
#270
b10110000000000 H
b110110000000000 S
b10000000 ]
b110110000000000 T
b11011000 ^
b11 b
b11 @
b101 A
b0 9
b0 M
b100 :
b100 N
b10110 2
b10110 J
04
b11100 D
#280
b1 _
b1 `
b10100000000 H
1W
b100010100000000 S
b10111000 ]
b1000101000000000 T
b11000000 ^
b101 b
1#
b10 c
b1 @
b100 A
1C
b1110 9
b1110 M
b10 :
b10 N
1;
1<
b10 2
b10 J
b101 3
b101 K
b11101 D
#290
b1000000000 H
b100001000000000 S
b11000000 ]
b1000010000000000 T
b10110000 ^
x-
b100 b
b101 c
0#
b0 @
b11 A
1B
0C
b1000 9
b1000 M
b11 :
b11 N
b1100 2
b1100 J
b10 3
b10 K
15
b11110 D
#300
b10100100000000 H
b110100100000000 S
b11100000 ]
b1101001000000000 T
b11110000 ^
0-
1#
b10101 @
b10 A
0B
1C
b1100 9
b1100 M
0;
0<
b11100 2
b11100 J
14
b11111 D
#310
b101100000000 H
b100101100000000 S
b11000000 ]
b1001011000000000 T
b11001000 ^
x-
b1 b
b0 @
b110 A
1B
b1 9
b1 M
b110 :
b110 N
1;
b10010 2
b10010 J
04
b100000 D
#320
b0 _
b1100101000000 H
b0 `
b101100101000000 S
0W
b10101000 ]
b101100101000000 T
b10001000 ^
0-
b100 b
b110 @
b11 A
0B
b101 9
b101 M
b11 :
b11 N
0;
1<
b10 2
b10 J
14
05
b100001 D
#330
b11000000000 H
b100011000000000 S
b10001100 ]
b100011000000000 T
b10000000 ^
b101 b
b100 c
0#
b1 @
b100 A
0C
b11 9
b11 M
b10 :
b10 N
b0 2
b0 J
b11 3
b11 K
04
15
b100010 D
#340
b110001010000 H
b100110001010000 S
b10000100 ]
b100110001010000 T
b10010100 ^
x-
b101 c
b110 @
b10 A
1B
b1 9
b1 M
1;
0<
b101 2
b101 J
b10 3
b10 K
14
05
b100011 D
#350
b10100000100000 H
b10001000 ]
b110100000100000 S
b110100000100000 T
b11000100 ^
0-
b100 b
1#
b101 @
b100 A
0B
1C
b11 :
b11 N
0;
1<
b10001 2
b10001 J
04
b100100 D
#360
b11001110000000 H
b111001110000000 S
b10110000 ]
b111001110000000 T
b10101000 ^
b110 @
b110 9
b110 M
b1010 2
b1010 J
b100101 D
#370
b10011011010000 H
b110011011010000 S
b10001100 ]
b110011011010000 T
b10111100 ^
b101 b
0#
b10011 @
b10 A
0C
b11 9
b11 M
b10 :
b10 N
0<
b1111 2
b1111 J
14
b100110 D
#380
b1 _
b1 `
b101100000000 H
1W
b100101100000000 S
b10100000 ]
b1001011000000000 T
b11110000 ^
b11 b
b11 c
1#
b0 @
b110 A
1C
b10 9
b10 M
b100 :
b100 N
b111 2
b111 J
b100 3
b100 K
04
15
b100111 D
#390
b0 _
b11100000000000 H
b0 `
b111100000000000 S
0W
b11110000 ]
b111100000000000 T
b10000000 ^
x-
b101 b
b100 c
b1110 @
b11 A
1B
b11100 9
b11100 M
b10 :
b10 N
1;
b0 2
b0 J
b11 3
b11 K
14
b101000 D
#400
b1110010000000 H
b101110010000000 S
b10100000 ]
b101110010000000 T
b10010100 ^
0-
b100 b
0#
b101 c
b111 @
0B
0C
b100 9
b100 M
b11 :
b11 N
0;
1<
b101 2
b101 J
b10 3
b10 K
b101001 D
#410
b1 _
b1 `
b11011000100000 H
1W
b111011000100000 S
b11110000 ]
b1110110001000000 T
b11111100 ^
x-
b101 b
1#
b11011 @
b10 A
1B
1C
b11100 9
b11100 M
b10 :
b10 N
b11111 2
b11111 J
05
b101010 D
#420
b110100000000 H
b100110100000000 S
b11100000 ]
b1001101000000000 T
b10110000 ^
b10 b
b100 c
b10 @
b100 A
b11 9
b11 M
b101 :
b101 N
1;
b110 2
b110 J
b11 3
b11 K
04
b101011 D
#430
b0 _
b1010000000000 H
b0 `
b101010000000000 S
0W
b10000000 ]
b101010000000000 T
b10101000 ^
0-
b1 b
b1 @
b101 A
0B
b0 9
b0 M
b110 :
b110 N
0;
0<
b101 2
b101 J
14
15
b101100 D
#440
b1 _
b1 `
b101001000000 H
1W
b100101001000000 S
b10110000 ]
b1001010010000000 T
b11011000 ^
x-
b101 b
b101 c
0#
b11 @
b11 A
1B
0C
b1100 9
b1100 M
b10 :
b10 N
1;
b10110 2
b10110 J
b10 3
b10 K
05
b101101 D
#450
b1110011000000 H
b101110011000000 S
b11100000 ]
b1011100110000000 T
b11010100 ^
1#
b111 @
1C
b11000 9
b11000 M
b10101 2
b10101 J
15
b101110 D
#460
b0 _
b1101001000000 H
b0 `
b101101001000000 S
0W
b10011000 ]
b101101001000000 T
b10011000 ^
0-
b100 b
b100 c
0#
b1101 @
b10 A
0B
0C
b11 9
b11 M
b11 :
b11 N
0;
b11 2
b11 J
b11 3
b11 K
05
b101111 D
#470
b1010000000000 H
b101010000000000 S
b10101000 ]
b101010000000000 T
b10000000 ^
x-
b111 c
1#
b1 @
b110 A
1B
1C
b101 9
b101 M
b0 2
b0 J
b1000 3
b1000 K
15
b110000 D
#480
b1 _
b1 `
b10011001100000 H
b11010000 ]
1W
b110011001100000 S
b1100110011000000 T
b11111100 ^
b11 b
b101 c
b101 @
b100 A
b100 :
b100 N
1;
1<
b11111 2
b11111 J
b10 3
b10 K
04
05
b110001 D
#490
b1110000000 H
b100001110000000 S
b11000000 ]
b1000011100000000 T
b10110100 ^
0#
b0 @
0C
b100 9
b100 M
0<
b1101 2
b1101 J
b110010 D
#500
b0 _
b11001110000000 H
b0 `
b111001110000000 S
0W
b11100000 ]
b111001110000000 T
b10000100 ^
0-
b10 b
b101 A
0B
b11 9
b11 M
b101 :
b101 N
0;
1<
b1 2
b1 J
15
b110011 D
#510
b1 _
b1 `
b100000000 H
1W
b100000100000000 S
b10100000 ^
b1000001000000000 T
b11010000 ]
x-
b101 b
b10 c
1B
b10100 9
b10100 M
b10 :
b10 N
0<
b101 3
b101 K
14
05
b110100 D
#520
b1100001000 H
b100001100001000 S
b11011100 ]
b1000011000010000 T
b10011100 ^
1#
b101 c
b10 @
b10 A
1C
b10111 9
b10111 M
1<
b111 2
b111 J
b10 3
b10 K
b110101 D
#530
b1101100010000 H
b101101100010000 S
b10111100 ]
b1011011000100000 T
b11111000 ^
0-
b100 c
b1110 @
0B
b1111 9
b1111 M
1;
0<
b1111 2
b1111 J
b11 3
b11 K
04
15
b110110 D
#540
b0 _
b11101110000000 H
b0 `
b111101110000000 S
0W
b10011000 ]
b111101110000000 T
b11010000 ^
b100 b
b11 c
b1111 @
b11 A
b11 9
b11 M
b11 :
b11 N
b101 2
b101 J
b100 3
b100 K
b110111 D
#550
b1 _
b1 `
b1000100100000 H
1W
b101000100100000 S
b11101100 ]
b1010001001000000 T
b10110000 ^
x-
b101 b
b101 c
0#
b1001 @
b10 A
1B
0C
b11011 9
b11011 M
b10 :
b10 N
0;
b1100 2
b1100 J
b10 3
b10 K
14
05
b111000 D
#560
b0 _
b11110000000000 H
b0 `
b111110000000000 S
0W
b11111000 ]
b111110000000000 T
b10000000 ^
0-
1#
b0 c
b0 @
b111 A
0B
1C
b11110 9
b11110 M
1<
b0 2
b0 J
b111 3
b111 K
04
b111001 D
#570
b1000000000000 H
b101000000000000 S
b10000000 ]
b101000000000000 T
b10100000 ^
x-
b1 b
b101 c
b1 @
b101 A
1B
b0 9
b0 M
b110 :
b110 N
1;
0<
b1000 2
b1000 J
b10 3
b10 K
15
b111010 D
#580
b1 _
b1 `
b1001010000000 H
1W
b101001010000000 S
b10110000 ]
b1010010100000000 T
b11110000 ^
b100 b
b100 c
b110 9
b110 M
b11 :
b11 N
b1110 2
b1110 J
b11 3
b11 K
14
b111011 D
#590
b1000000000 H
b100001000000000 S
b11000000 ]
b1000010000000000 T
b10110000 ^
0-
b101 c
b10 A
0B
b1000 9
b1000 M
0;
b1100 2
b1100 J
b10 3
b10 K
b111100 D
#600
b0 _
b11010100000000 H
b0 `
b111010100000000 S
0W
b111010100000000 T
b10011100 ^
b101 b
0#
b1101 @
b11 A
0C
b10000 9
b10000 M
b10 :
b10 N
1<
b111 2
b111 J
04
b111101 D
#610
b0 H
b100000000000000 S
b10000000 ]
b100000000000000 T
b10000000 ^
x-
b1 b
b0 c
b0 @
b10 A
1B
b0 9
b0 M
b110 :
b110 N
b0 2
b0 J
b111 3
b111 K
14
b111110 D
#620
b1001101000000 H
b101001101000000 S
b10010000 ]
b101001101000000 T
b10010100 ^
b100 b
b101 c
b1010 @
b10 9
b10 M
b11 :
b11 N
1;
b101 2
b101 J
b10 3
b10 K
04
b111111 D
#630
b1 _
b1 `
b1111101010000 H
1W
b101111101010000 S
b11110100 ]
b1011111010100000 T
b11001000 ^
b101 b
b100 c
b100 @
b100 A
b11101 9
b11101 M
b10 :
b10 N
0<
b1001 2
b1001 J
b11 3
b11 K
14
05
b1000000 D
#640
b1010000000000 H
b101010000000000 S
b11000000 ]
b1010100000000000 T
b11100000 ^
b1 b
1#
b0 @
b1000 A
1C
b1 9
b1 M
b110 :
b110 N
1<
b1100 2
b1100 J
b1000001 D
#650
b1100100100000 H
b101100100100000 S
b11111000 ]
b1011001001000000 T
b10111000 ^
b100 b
b10 @
b101 A
b1111 9
b1111 M
b11 :
b11 N
0<
b111 2
b111 J
15
b1000010 D
#660
b1010100000 H
b100001010100000 S
b11010000 ]
b1000010101000000 T
b10100100 ^
b101 c
0#
b0 @
b100 A
0C
b1010 9
b1010 M
b1001 2
b1001 J
b10 3
b10 K
05
b1000011 D
#670
b111011000000 H
b100111011000000 S
b10101000 ]
b1001110110000000 T
b11110000 ^
b101 b
1#
b100 c
b10 @
1C
b10 :
b10 N
1<
b1110 2
b1110 J
b11 3
b11 K
b1000100 D
#680
b0 _
b10001100000000 H
b0 `
b110001100000000 S
0W
b10010000 ]
b110001100000000 T
b10110000 ^
b11 b
0#
b11 c
b1 @
b110 A
0C
b1 9
b1 M
b100 :
b100 N
0<
b11 2
b11 J
b100 3
b100 K
b1000101 D
#690
b1011100100000 H
b10001000 ]
b101011100100000 S
b101011100100000 T
b10100100 ^
0-
b100 b
b101 c
b11 @
b100 A
0B
b11 :
b11 N
0;
b1001 2
b1001 J
b10 3
b10 K
04
b1000110 D
#700
b11011000000000 H
b111011000000000 S
b10000000 ]
b111011000000000 T
b11101100 ^
x-
1#
b11011 @
b10 A
1B
1C
b0 9
b0 M
1;
1<
b11011 2
b11011 J
b1000111 D
#710
b1 _
b1 `
b11111100000 H
1W
b100011111100000 S
b11001000 ]
b1000111111000000 T
b10111000 ^
b101 b
0#
b100 @
0C
b10010 9
b10010 M
b10 :
b10 N
0;
0<
b1110 2
b1110 J
14
b1001000 D
#720
b11010000 H
b100000011010000 S
b11110100 ]
b1000000110100000 T
b10001000 ^
b0 @
b11101 9
b11101 M
1;
1<
b10 2
b10 J
04
15
b1001001 D
#730
b0 _
b11101111000000 H
b0 `
b111101111000000 S
0W
b10110100 ]
b111101111000000 T
b10110000 ^
0-
b11 c
b111 @
b100 A
0B
b1101 9
b1101 M
0<
b11 2
b11 J
b100 3
b100 K
05
b1001010 D
#740
b11100000000000 H
b111100000000000 S
b11000000 ]
b111100000000000 T
b10100000 ^
x-
b10 b
b100 c
b1110 @
b11 A
1B
b10 9
b10 M
b101 :
b101 N
b100 2
b100 J
b11 3
b11 K
b1001011 D
#750
b1 _
b1 `
b101101000000 H
1W
b100101101000000 S
b11100000 ]
b1001011010000000 T
b10101100 ^
b100 b
b101 c
1#
b1 @
b100 A
1C
b1100 9
b1100 M
b11 :
b11 N
b1011 2
b1011 J
b10 3
b10 K
14
15
b1001100 D
#760
b10100100000000 H
b110100100000000 S
b11110000 ]
b1101001000000000 T
b11100000 ^
b11 c
0#
b1010 @
b11 A
0C
b1110 9
b1110 M
0;
b110 2
b110 J
b100 3
b100 K
05
b1001101 D
#770
b0 _
b10011010000000 H
b0 `
b110011010000000 S
0W
b10100000 ]
b110011010000000 T
b10100100 ^
b11 b
b101 c
b10 9
b10 M
b100 :
b100 N
1;
1<
b1001 2
b1001 J
b10 3
b10 K
04
15
b1001110 D
#780
b1 _
b1 `
b11011100000 H
1W
b100011011100000 S
b10101000 ]
b1000110111000000 T
b11011000 ^
0-
b101 b
1#
b11 @
b10 A
0B
1C
b1010 9
b1010 M
b10 :
b10 N
0;
0<
b10110 2
b10110 J
b1001111 D
#790
b0 _
b11111000000000 H
b0 `
b111111000000000 S
0W
b11111100 ]
b111111000000000 T
b10000000 ^
x-
b1 c
b0 @
b111 A
1B
b11111 9
b11111 M
1;
b0 2
b0 J
b110 3
b110 K
14
b1010000 D
#800
b11100000000000 H
b111100000000000 S
b111100000000000 T
b11110000 ]
b11 b
0#
b10 c
b11100 @
b10 A
0C
b111 9
b111 M
b100 :
b100 N
0;
1<
b101 3
b101 K
b1010001 D
#810
b1 _
b1 `
b1001011111000 H
1W
b101001011111000 S
b10110100 ]
b1010010111110000 T
b11101100 ^
b101 b
1#
b101 c
b1001 @
1C
b1101 9
b1101 M
b10 :
b10 N
0<
b11011 2
b11011 J
b10 3
b10 K
b1010010 D
#820
b0 _
b110000000000 H
b0 `
b100110000000000 S
0W
b10011000 ]
b100110000000000 T
b10000000 ^
b10 c
0#
b1 @
b100 A
0C
b110 9
b110 M
b0 2
b0 J
b101 3
b101 K
05
b1010011 D
#830
b1 _
b1 `
b1011110101000 H
1W
b101011110101000 S
b11001100 ]
b1010111101010000 T
b11011100 ^
b101 c
b110 @
b11 A
b10011 9
b10011 M
1;
b10111 2
b10111 J
b10 3
b10 K
b1010100 D
#840
b0 _
b101000000000 H
b0 `
b100101000000000 S
0W
b10000000 ]
b100101000000000 T
b10010100 ^
b0 b
b0 @
b110 A
b0 9
b0 M
b111 :
b111 N
b101 2
b101 J
04
b1010101 D
#850
b1 _
b1 `
b1010001100000 H
1W
b101010001100000 S
b11011000 ]
b1010100011000000 T
b11001000 ^
b101 b
b1010 @
b10 A
b10110 9
b10110 M
b10 :
b10 N
b10010 2
b10010 J
b1010110 D
#860
b0 _
b1010100000000 H
b0 `
b101010100000000 S
0W
b10001000 ]
b101010100000000 T
b10100000 ^
0-
b11 c
1#
b11 @
b100 A
0B
1C
b10 9
b10 M
b10 2
b10 J
b100 3
b100 K
15
b1010111 D
#870
b11001110000000 H
b111001110000000 S
b11100000 ]
b111001110000000 T
b10000100 ^
x-
b11 b
0#
b101 c
b110 @
1B
0C
b110 9
b110 M
b100 :
b100 N
1<
b1 2
b1 J
b10 3
b10 K
14
b1011000 D
#880
b10011000000000 H
b110011000000000 S
b10000000 ]
b110011000000000 T
b11001100 ^
0-
b0 b
b0 @
b111 A
0B
b0 9
b0 M
b111 :
b111 N
0;
0<
b10011 2
b10011 J
04
05
b1011001 D
#890
b1 _
b1 `
b1001101010000 H
1W
b101001101010000 S
b10101100 ]
b1010011010100000 T
b11111000 ^
x-
b101 b
1#
b1010 @
b10 A
1B
1C
b1011 9
b1011 M
b10 :
b10 N
b11110 2
b11110 J
14
15
b1011010 D
#900
b11001000110000 H
b111001000110000 S
b11101000 ]
b1110010001100000 T
b11111100 ^
0#
b1101 @
b11 A
0C
b11010 9
b11010 M
1;
1<
b11111 2
b11111 J
b1011011 D
#910
b0 _
b10110000000000 H
b0 `
b110110000000000 S
0W
b11011000 ]
b110110000000000 T
b10000000 ^
b11 c
1#
b1011 @
1C
b10110 9
b10110 M
0;
b0 2
b0 J
b100 3
b100 K
05
b1011100 D
#920
b1 _
b1 `
b1011001000000 H
1W
b101011001000000 S
b11110000 ]
b1010110010000000 T
b10111000 ^
0-
b100 b
b100 c
0#
b11 @
b100 A
0B
0C
b1110 9
b1110 M
b11 :
b11 N
b111 2
b111 J
b11 3
b11 K
04
15
b1011101 D
#930
b100101110000 H
b100100101110000 S
b11001000 ]
b1001001011100000 T
b10111100 ^
b101 b
b101 c
1#
b101 @
b10 A
1C
b10010 9
b10010 M
b10 :
b10 N
b1111 2
b1111 J
b10 3
b10 K
05
b1011110 D
#940
b1100010000000 H
b101100010000000 S
b11000000 ]
b1011000100000000 T
b11101100 ^
b11 b
b110 @
b11 A
b100 9
b100 M
b100 :
b100 N
b11011 2
b11011 J
14
b1011111 D
#950
b110110000000 H
b100110110000000 S
b10100000 ]
b1001101100000000 T
b11111000 ^
b10 b
b100 c
b11 @
b1 9
b1 M
b101 :
b101 N
b1111 2
b1111 J
b11 3
b11 K
b1100000 D
#960
b101011000000 H
b100101011000000 S
b10111000 ]
b1001010110000000 T
b11010000 ^
x-
b100 b
0#
b1 @
b101 A
1B
0C
b111 9
b111 M
b11 :
b11 N
1;
b1010 2
b1010 J
15
b1100001 D
#970
b1011110000000 H
b101011110000000 S
b11100000 ]
b1010111100000000 T
b11001000 ^
b10 b
b101 c
b110 A
b11 9
b11 M
b101 :
b101 N
0<
b10010 2
b10010 J
b10 3
b10 K
05
b1100010 D
#980
b0 _
b11110100000000 H
b0 `
b111110100000000 S
0W
b11001000 ]
b111110100000000 T
b10100000 ^
b100 b
b11 c
b11110 @
b10 A
b1001 9
b1001 M
b11 :
b11 N
0;
1<
b10 2
b10 J
b100 3
b100 K
15
b1100011 D
#990
b1 _
b1 `
b101010000 H
1W
b100000101010000 S
b10011000 ]
b1000001010100000 T
b11011100 ^
b101 b
b101 c
b1 @
b110 9
b110 M
b10 :
b10 N
b10111 2
b10111 J
b10 3
b10 K
b1100100 D
#1000
b0 _
b10100010000000 H
b0 `
b110100010000000 S
0W
b10110000 ]
b110100010000000 T
b10011000 ^
b100 c
b10100 @
b1100 9
b1100 M
b11 2
b11 J
b11 3
b11 K
b1100101 D
#1010
b1 _
b1 `
b10000011100000 H
1W
b110000011100000 S
b11111000 ]
b1100000111000000 T
b11001000 ^
0-
b1000 @
b11 A
0B
b11110 9
b11110 M
0<
b1001 2
b1001 J
04
05
b1100110 D
#1020
b0 _
b11000010000000 H
b0 `
b111000010000000 S
0W
b11001000 ]
b111000010000000 T
b10010000 ^
b100 b
1#
b11000 @
b10 A
1C
b1001 9
b1001 M
b11 :
b11 N
1;
b10 2
b10 J
15
b1100111 D
#1030
b1 _
b1 `
b110111110000 H
1W
b100110111110000 S
b10101100 ]
b1001101111100000 T
b11101000 ^
x-
b101 b
b101 c
0#
b111 @
1B
0C
b1011 9
b1011 M
b10 :
b10 N
b11010 2
b11010 J
b10 3
b10 K
05
b1101000 D
#1040
b1100010000000 H
b101100010000000 S
b11101100 ]
b1011000100000000 T
b11000000 ^
1#
b110 @
b11 A
1C
b11011 9
b11011 M
b10000 2
b10000 J
14
15
b1101001 D
#1050
b10000111100000 H
b110000111100000 S
b11101000 ]
b1100001111000000 T
b11011000 ^
b100 c
b1000 @
b11010 9
b11010 M
0;
b1011 2
b1011 J
b11 3
b11 K
b1101010 D
#1060
b0 _
b1110000000000 H
b0 `
b101110000000000 S
0W
b10111000 ]
b101110000000000 T
b10000000 ^
0-
b1 c
b0 @
b111 A
0B
b1110 9
b1110 M
b0 2
b0 J
b110 3
b110 K
04
b1101011 D
#1070
b0x _
b0x `
b0xxxxxxxxxxxxxx H
xW
bx S
b1xxxxxxx ]
bx T
b11111000 ^
x-
bx b
1&
b100 c
0#
bx A
xB
0C
1>
b0 9
b0 M
bx :
bx N
x;
17
b1111 2
b1111 J
b11 3
b11 K
05
b1101100 D
