waveforms/tb_mul_P16E1.vcd
$date
	Mon Dec 20 10:02:26 2021
$end
$version
	Icarus Verilog
$end
$timescale
	1s
$end
$scope module tb_mul $end
$var wire 16 ! pout [15:0] $end
$var reg 1 " diff_pout $end
$var reg 16 # p1 [15:0] $end
$var reg 16 $ p2 [15:0] $end
$var reg 16 % pout_expected [15:0] $end
$var reg 17 & test_no [16:0] $end
$scope module mul_inst $end
$var wire 16 ' p1 [15:0] $end
$var wire 16 ( p2 [15:0] $end
$var wire 4 ) pout_reg_len [3:0] $end
$var wire 1 * pout_reg_s $end
$var wire 16 + pout_regime_bits [15:0] $end
$var wire 1 , pout_sign $end
$var wire 16 - pout_mant [15:0] $end
$var wire 16 . pout_k [15:0] $end
$var wire 1 / pout_is_zero $end
$var wire 1 0 pout_is_inf $end
$var wire 1 1 pout_exp $end
$var wire 16 2 pout [15:0] $end
$var wire 1 3 p2_sign $end
$var wire 1 4 p2_reg_s $end
$var wire 4 5 p2_reg_len [3:0] $end
$var wire 16 6 p2_reg_bits [15:0] $end
$var wire 16 7 p2_mant [15:0] $end
$var wire 16 8 p2_k [15:0] $end
$var wire 1 9 p2_is_zero $end
$var wire 1 : p2_is_inf $end
$var wire 1 ; p2_exp $end
$var wire 1 < p1_sign $end
$var wire 1 = p1_reg_s $end
$var wire 4 > p1_reg_len [3:0] $end
$var wire 16 ? p1_reg_bits [15:0] $end
$var wire 16 @ p1_mant [15:0] $end
$var wire 16 A p1_k [15:0] $end
$var wire 1 B p1_is_zero $end
$var wire 1 C p1_is_inf $end
$var wire 1 D p1_exp $end
$scope module mul_core_inst $end
$var wire 32 E mant_fraction_only [31:0] $end
$var wire 1 0 pout_is_inf $end
$var wire 1 / pout_is_zero $end
$var wire 16 F pout_k [15:0] $end
$var wire 16 G pout_mant [15:0] $end
$var wire 4 H pout_reg_len [3:0] $end
$var wire 1 * pout_reg_s $end
$var wire 16 I pout_regime_bits [15:0] $end
$var wire 1 , pout_sign $end
$var wire 4 J reg_len [3:0] $end
$var wire 32 K prod_mantissae_adjusted [31:0] $end
$var wire 32 L prod_mantissae [31:0] $end
$var wire 1 1 pout_exp $end
$var wire 1 3 p2_sign $end
$var wire 16 M p2_regime_bits [15:0] $end
$var wire 1 4 p2_reg_s $end
$var wire 4 N p2_reg_len [3:0] $end
$var wire 16 O p2_mant [15:0] $end
$var wire 16 P p2_k [15:0] $end
$var wire 1 9 p2_is_zero $end
$var wire 1 : p2_is_inf $end
$var wire 1 ; p2_exp $end
$var wire 1 < p1_sign $end
$var wire 16 Q p1_regime_bits [15:0] $end
$var wire 1 = p1_reg_s $end
$var wire 4 R p1_reg_len [3:0] $end
$var wire 16 S p1_mant [15:0] $end
$var wire 16 T p1_k [15:0] $end
$var wire 1 B p1_is_zero $end
$var wire 1 C p1_is_inf $end
$var wire 1 D p1_exp $end
$var wire 16 U mant_len [15:0] $end
$var wire 1 V mant_carry $end
$var wire 16 W k_adjusted_III [15:0] $end
$var wire 16 X k_adjusted_II [15:0] $end
$var wire 16 Y k_adjusted_I [15:0] $end
$var wire 16 Z k [15:0] $end
$var wire 16 [ final_mant [15:0] $end
$var wire 16 \ f2 [15:0] $end
$var wire 16 ] f1 [15:0] $end
$var wire 1 ^ exp_carry_I $end
$var wire 1 _ exp_carry $end
$var wire 16 ` exp_adjusted_III [15:0] $end
$var wire 16 a exp_adjusted_II [15:0] $end
$var wire 16 b exp_adjusted_I [15:0] $end
$var wire 16 c exp [15:0] $end
$var wire 4 d F2 [3:0] $end
$var wire 4 e F1 [3:0] $end
$scope function max $end
$var reg 16 f a [15:0] $end
$var reg 16 g b [15:0] $end
$upscope $end
$scope function min $end
$var reg 16 h a [15:0] $end
$var reg 16 i b [15:0] $end
$upscope $end
$upscope $end
$scope module posit_decode_p1 $end
$var wire 16 j bits [15:0] $end
$var wire 16 k u_bits [15:0] $end
$var wire 1 < sign $end
$var wire 16 l regime_bits [15:0] $end
$var wire 1 = reg_s $end
$var wire 4 m reg_len [3:0] $end
$var wire 16 n mant [15:0] $end
$var wire 4 o leading_zeros [3:0] $end
$var wire 4 p leading_ones [3:0] $end
$var wire 16 q k [15:0] $end
$var wire 1 B is_zero $end
$var wire 1 C is_inf $end
$var wire 1 D exp $end
$scope function c2 $end
$var reg 16 r a [15:0] $end
$upscope $end
$scope function min $end
$var reg 16 s a [15:0] $end
$var reg 16 t b [15:0] $end
$upscope $end
$scope module clo_inst_o $end
$var wire 16 u bits [15:0] $end
$var wire 4 v leading_ones [3:0] $end
$var wire 4 w index_highest_set [3:0] $end
$scope module highest_set_inst $end
$var wire 16 x bits [15:0] $end
$var wire 4 y index [3:0] $end
$scope begin _gen[0] $end
$upscope $end
$scope begin _gen[1] $end
$upscope $end
$scope begin _gen[2] $end
$upscope $end
$scope begin _gen[3] $end
$upscope $end
$scope begin _gen[4] $end
$upscope $end
$scope begin _gen[5] $end
$upscope $end
$scope begin _gen[6] $end
$upscope $end
$scope begin _gen[7] $end
$upscope $end
$scope begin _gen[8] $end
$upscope $end
$scope begin _gen[9] $end
$upscope $end
$scope begin _gen[10] $end
$upscope $end
$scope begin _gen[11] $end
$upscope $end
$scope begin _gen[12] $end
$upscope $end
$scope begin _gen[13] $end
$upscope $end
$scope begin _gen[14] $end
$upscope $end
$scope begin _gen[15] $end
$upscope $end
$upscope $end
$upscope $end
$scope module clo_inst_z $end
$var wire 16 z bits [15:0] $end
$var wire 4 { leading_ones [3:0] $end
$var wire 4 | index_highest_set [3:0] $end
$scope module highest_set_inst $end
$var wire 16 } bits [15:0] $end
$var wire 4 ~ index [3:0] $end
$scope begin _gen[0] $end
$upscope $end
$scope begin _gen[1] $end
$upscope $end
$scope begin _gen[2] $end
$upscope $end
$scope begin _gen[3] $end
$upscope $end
$scope begin _gen[4] $end
$upscope $end
$scope begin _gen[5] $end
$upscope $end
$scope begin _gen[6] $end
$upscope $end
$scope begin _gen[7] $end
$upscope $end
$scope begin _gen[8] $end
$upscope $end
$scope begin _gen[9] $end
$upscope $end
$scope begin _gen[10] $end
$upscope $end
$scope begin _gen[11] $end
$upscope $end
$scope begin _gen[12] $end
$upscope $end
$scope begin _gen[13] $end
$upscope $end
$scope begin _gen[14] $end
$upscope $end
$scope begin _gen[15] $end
$upscope $end
$upscope $end
$upscope $end
$upscope $end
$scope module posit_decode_p2 $end
$var wire 16 !" bits [15:0] $end
$var wire 16 "" u_bits [15:0] $end
$var wire 1 3 sign $end
$var wire 16 #" regime_bits [15:0] $end
$var wire 1 4 reg_s $end
$var wire 4 $" reg_len [3:0] $end
$var wire 16 %" mant [15:0] $end
$var wire 4 &" leading_zeros [3:0] $end
$var wire 4 '" leading_ones [3:0] $end
$var wire 16 (" k [15:0] $end
$var wire 1 9 is_zero $end
$var wire 1 : is_inf $end
$var wire 1 ; exp $end
$scope function c2 $end
$var reg 16 )" a [15:0] $end
$upscope $end
$scope function min $end
$var reg 16 *" a [15:0] $end
$var reg 16 +" b [15:0] $end
$upscope $end
$scope module clo_inst_o $end
$var wire 16 ," bits [15:0] $end
$var wire 4 -" leading_ones [3:0] $end
$var wire 4 ." index_highest_set [3:0] $end
$scope module highest_set_inst $end
$var wire 16 /" bits [15:0] $end
$var wire 4 0" index [3:0] $end
$scope begin _gen[0] $end
$upscope $end
$scope begin _gen[1] $end
$upscope $end
$scope begin _gen[2] $end
$upscope $end
$scope begin _gen[3] $end
$upscope $end
$scope begin _gen[4] $end
$upscope $end
$scope begin _gen[5] $end
$upscope $end
$scope begin _gen[6] $end
$upscope $end
$scope begin _gen[7] $end
$upscope $end
$scope begin _gen[8] $end
$upscope $end
$scope begin _gen[9] $end
$upscope $end
$scope begin _gen[10] $end
$upscope $end
$scope begin _gen[11] $end
$upscope $end
$scope begin _gen[12] $end
$upscope $end
$scope begin _gen[13] $end
$upscope $end
$scope begin _gen[14] $end
$upscope $end
$scope begin _gen[15] $end
$upscope $end
$upscope $end
$upscope $end
$scope module clo_inst_z $end
$var wire 16 1" bits [15:0] $end
$var wire 4 2" leading_ones [3:0] $end
$var wire 4 3" index_highest_set [3:0] $end
$scope module highest_set_inst $end
$var wire 16 4" bits [15:0] $end
$var wire 4 5" index [3:0] $end
$scope begin _gen[0] $end
$upscope $end
$scope begin _gen[1] $end
$upscope $end
$scope begin _gen[2] $end
$upscope $end
$scope begin _gen[3] $end
$upscope $end
$scope begin _gen[4] $end
$upscope $end
$scope begin _gen[5] $end
$upscope $end
$scope begin _gen[6] $end
$upscope $end
$scope begin _gen[7] $end
$upscope $end
$scope begin _gen[8] $end
$upscope $end
$scope begin _gen[9] $end
$upscope $end
$scope begin _gen[10] $end
$upscope $end
$scope begin _gen[11] $end
$upscope $end
$scope begin _gen[12] $end
$upscope $end
$scope begin _gen[13] $end
$upscope $end
$scope begin _gen[14] $end
$upscope $end
$scope begin _gen[15] $end
$upscope $end
$upscope $end
$upscope $end
$upscope $end
$scope module posit_encode_inst $end
$var wire 1 1 exp $end
$var wire 1 0 is_inf $end
$var wire 1 / is_zero $end
$var wire 16 6" k [15:0] $end
$var wire 16 7" mant [15:0] $end
$var wire 4 8" reg_len [3:0] $end
$var wire 1 * reg_s $end
$var wire 16 9" regime_bits [15:0] $end
$var wire 1 , sign $end
$var wire 16 :" posit [15:0] $end
$var wire 16 ;" bits_assembled [15:0] $end
$var wire 16 <" bits [15:0] $end
$scope function c2 $end
$var reg 16 =" a [15:0] $end
$upscope $end
$scope function shl $end
$var reg 16 >" bits [15:0] $end
$var reg 16 ?" rhs [15:0] $end
$upscope $end
$upscope $end
$upscope $end
$upscope $end
$enddefinitions $end
#0
$dumpvars
b1110 ?"
b1 >"
b100010100101011 ="
b1011101011010101 <"
b1100010100101011 ;"
b1011101011010101 :"
b0 9"
b0 8"
b10100101011 7"
b0 6"
b1111 5"
b101000001010100 4"
b1111 3"
b0 2"
b101000001010100 1"
b1110 0"
b1010111110101010 /"
b1110 ."
b1 -"
b1010111110101010 ,"
b1111 +"
b1 *"
b0 )"
b0 ("
b1 '"
b0 &"
b11111010101 %"
b10 $"
b10 #"
b101011111010101 ""
b1010100000101011 !"
b1110 ~
b1000011100100100 }
b1110 |
b1 {
b1000011100100100 z
b1111 y
b111100011011010 x
b1111 w
b0 v
b111100011011010 u
b1111 t
b10 s
b1111111111111111 r
b1111111111111111 q
b0 p
b1 o
b110001101101 n
b10 m
b1 l
b11110001101101 k
b11110001101101 j
b1110 i
b0 h
b1111111111110010 g
b0 f
b1100 e
b1100 d
b10 c
b0 b
b1 a
b1 `
1_
0^
b1110001101101000 ]
b1011111010101000 \
b10100101011 [
b1111111111111111 Z
b0 Y
b0 X
b0 W
1V
b1100 U
b1111111111111111 T
b110001101101 S
b10 R
b1 Q
b0 P
b11111010101 O
b10 N
b10 M
b10101001010111000110110001000000 L
b1010100101011100011011000100000 K
b10 J
b0 I
b0 H
b10100101011 G
b0 F
b10100101011100011011000100000 E
1D
0C
0B
b1111111111111111 A
b110001101101 @
b1 ?
b10 >
0=
0<
1;
0:
09
b0 8
b11111010101 7
b10 6
b10 5
14
13
b1011101011010101 2
11
00
0/
b0 .
b10100101011 -
1,
b0 +
0*
b0 )
b1010100000101011 (
b11110001101101 '
b1 &
b1010101011010100 %
b1010100000101011 $
b11110001101101 #
x"
b1011101011010101 !
$end
#10
0;
b1001 d
b101 5
b101 N
b101 $"
b1111111111111110 *"
b1001 U
b11 8
b11 P
b11 ("
b101 J
b100 '"
b100 -"
b100000001110000 ="
b1011 ."
b1011 0"
b11 .
b11 F
b11 6"
b11 W
11
b1 s
b11 h
b11 f
0^
b1 `
b1110000 -
b1110000 G
b1110000 7"
b1110000 [
b11 Z
b0 A
b0 T
b0 q
b0 o
b0 {
b11 X
b1 a
b1110000010011100100000000000 E
b1 p
b1 v
b1111 |
b1111 ~
b100000001110000 !
b100000001110000 2
b100000001110000 :"
b1100 e
b11 Y
b0 b
b1001110000010011100100000000000 K
b1110 w
b1110 y
b1010100010000000 \
b111010111010 1"
b111010111010 4"
b10 >
b10 R
b10 m
0_
b100000001110000 ;"
b1110 ?"
b1 >"
b100000001110000 <"
b11110 6
b11110 M
b11110 #"
b1111000101000100 ,"
b1111000101000100 /"
b0 c
0D
b10011100000100111001000000000000 L
b1110110100100000 ]
b110010010110110 z
b110010010110110 }
0,
b10100010 7
b10100010 O
b10100010 %"
b111100010100010 ""
1=
b10 ?
b10 Q
b10 l
b1001101101001000 u
b1001101101001000 x
03
b11 )"
b0 r
b110110100100 @
b110110100100 S
b110110100100 n
b100110110100100 k
b111101001110000 %
b111100010100010 $
b111100010100010 (
b111100010100010 !"
b100110110100100 #
b100110110100100 '
b100110110100100 j
b10 &
#20
b1110 U
b0 J
b11 s
b10010010011010 ="
b1111111111111110 A
b1111111111111110 T
b1111111111111110 q
b1110 .
b1110 F
b1110 6"
b1110 W
0V
b1 &"
b1 2"
b0 >"
b1111111111111110 h
b1111111111111110 f
b0 '"
b0 -"
b1110 3"
b1110 5"
01
b10010010011010 -
b10010010011010 G
b10010010011010 7"
b10010010011010 [
b10 o
b10 {
b1111111111111110 X
b1100 d
b1111 ."
b1111 0"
0^
b0 `
b100100100110101011101000000000 E
b0 p
b0 v
b1101 |
b1101 ~
b10 *"
b1111111111111110 Y
b10 5
b10 N
b10 $"
1_
b1101101101100110 !
b1101101101100110 2
b1101101101100110 :"
b1011 e
b0 a
b1100100100110101011101000000000 K
b1111 w
b1111 y
b1111111111111101 Z
b1111111111111111 8
b1111111111111111 P
b1111111111111111 ("
1;
b11 >
b11 R
b11 m
b0 b
04
b1010010010011010 ;"
b1110 ?"
b1101101101100110 <"
b1001101010100000 \
b1001100101010110 1"
b1001100101010110 4"
b10 c
1D
b1100100100110101011101000000000 L
b1010011010010000 ]
b1100101100101100 z
b1100101100101100 }
1,
b1 6
b1 M
b1 #"
b110011010101000 ,"
b110011010101000 /"
0=
b1 ?
b1 Q
b1 l
b11010011010010 u
b11010011010010 x
13
b1111111111111111 )"
b1101010100 7
b1101010100 O
b1101010100 %"
b11001101010100 ""
b1111111111111110 r
b1001101001 @
b1001101001 S
b1001101001 n
b1101001101001 k
b1110101101101101 %
b1100110010101100 $
b1100110010101100 (
b1100110010101100 !"
b1101001101001 #
b1101001101001 '
b1101001101001 j
b11 &
#30
b1011 d
b11 5
b11 N
b11 $"
b1110 U
b11 *"
b0 J
b1111111111111110 8
b1111111111111110 P
b1111111111111110 ("
b1110 .
b1110 F
b1110 6"
b1110 W
b10 &"
b10 2"
b1111111111111110 h
b1111111111111110 f
b1101 3"
b1101 5"
b1111111111111110 X
b1 >"
b1111111111111110 Y
0^
11
b0 o
b0 {
b110111000011001 ="
b1 `
b1 p
b1 v
b1111 |
b1111 ~
b1100 e
b1 b
b1 a
b1110 w
b1110 y
b10111000011001 -
b10111000011001 G
b10111000011001 7"
b10111000011001 [
b1 s
b10 >
b10 R
b10 m
0_
0V
b110111000011001 !
b110111000011001 2
b110111000011001 :"
b101110000110011000101000000000 E
b1001011011000000 \
b1100110100100110 1"
b1100110100100110 4"
b1111111111111110 Z
b0 A
b0 T
b0 q
b1 c
0D
b1101110000110011000101000000000 K
b1 6
b1 M
b1 #"
b11001011011000 ,"
b11001011011000 /"
1=
b110111000011001 ;"
b1110 ?"
b110111000011001 <"
b1101110000110011000101000000000 L
b1011101011111000 ]
b111000101000000 z
b111000101000000 }
b101101100 7
b101101100 O
b101101100 %"
b1100101101100 ""
0,
b10 ?
b10 Q
b10 l
b1000111010111110 u
b1000111010111110 x
b1111111111111110 )"
1<
b0 r
b11101011111 @
b11101011111 S
b11101011111 n
b100011101011111 k
b1110111000011 %
b1110011010010100 $
b1110011010010100 (
b1110011010010100 !"
b1011100010100001 #
b1011100010100001 '
b1011100010100001 j
b100 &
#40
b0 >"
01
1^
b0 `
b10 a
b1010 U
b100 J
b1011 e
b11 >
b11 R
b11 m
b10 .
b10 F
b10 6"
b10 W
b0 s
b1 b
1V
b1 A
b1 T
b1 q
b1 c
1;
b111000010 ="
b10 p
b10 v
b0 &"
b0 2"
b1101 w
b1101 y
b10 h
b10 f
b1 '"
b1 -"
b1111 3"
b1111 5"
b111000010 -
b111000010 G
b111000010 7"
b111000010 [
b10 X
b1100 d
b1110 ."
b1110 0"
b11100001000111001011000000000 E
b1 *"
b1 Y
b10 5
b10 N
b10 $"
b1111111000111110 !
b1111111000111110 2
b1111111000111110 :"
b1011100001000111001011000000000 K
b1 Z
b0 8
b0 P
b0 ("
b1101110000110000 \
b100100011110010 1"
b100100011110010 4"
b10111000010001110010110000000000 L
b1101011001000000 ]
b11010100110110 z
b11010100110110 }
14
b10 6
b10 M
b10 #"
b1011011100001100 ,"
b1011011100001100 /"
b1000000111000010 ;"
b1110 ?"
b1111111000111110 <"
b110 ?
b110 Q
b110 l
b1100101011001000 u
b1100101011001000 x
b101110000110 7
b101110000110 O
b101110000110 %"
b101101110000110 ""
1,
b10101100100 @
b10101100100 S
b10101100100 n
b110010101100100 k
b0 )"
0<
b1 r
b1000111000111110 %
b1010010001111010 $
b1010010001111010 (
b1010010001111010 !"
b110010101100100 #
b110010101100100 '
b110010101100100 j
b101 &
#50
b1001 e
b101 >
b101 R
b101 m
b1111111111111110 s
b1000 U
b11 Z
b11 A
b11 T
b11 q
b110 J
b100 p
b100 v
b0 >"
b1011000 ="
b1011 w
b1011 y
b100 .
b100 F
b100 6"
b100 W
01
b100 h
b100 f
0^
b0 `
b1011000 -
b1011000 G
b1011000 7"
b1011000 [
b100 X
b10110001110111101010000000000 E
b1011000 !
b1011000 2
b1011000 :"
0V
b100 Y
b0 a
b1010110001110111101010000000000 K
b1000010100110000 \
b101111010110010 1"
b101111010110010 4"
1_
b0 b
b1011000 ;"
b1110 ?"
b1011000 <"
b1010000101001100 ,"
b1010000101001100 /"
b10 c
1D
b1010110001110111101010000000000 L
b1010010111000000 ]
b101011010000 z
b101011010000 }
0,
b10100110 7
b10100110 O
b10100110 %"
b101000010100110 ""
b11110 ?
b11110 Q
b11110 l
b1111010100101110 u
b1111010100101110 x
03
b101000010100110 )"
b11 r
b10010111 @
b10010111 S
b10010111 n
b111101010010111 k
b111110001011001 %
b101000010100110 $
b101000010100110 (
b101000010100110 !"
b111101010010111 #
b111101010010111 '
b111101010010111 j
b110 &
#60
0^
b10 *"
b1111111111111111 8
b1111111111111111 P
b1111111111111111 ("
b1110 U
b0 J
b0 b
11
b1 &"
b1 2"
b101110011101110 ="
b1 `
b0 '"
b0 -"
b1110 3"
b1110 5"
b1110 .
b1110 F
b1110 6"
b1110 W
b1 o
b1 {
b1100 d
b1 a
b1111 ."
b1111 0"
b1111111111111110 h
b1111111111111110 f
0D
b1110011101110 -
b1110011101110 G
b1110011101110 7"
b1110011101110 [
b0 p
b0 v
b1110 |
b1110 ~
b10 5
b10 N
b10 $"
0_
1V
b1010001100010010 !
b1010001100010010 2
b1010001100010010 :"
b1111111111111110 X
b1100 e
b11100111011100011110000000000 E
b1111 w
b1111 y
b0 c
0;
b10 s
b1111111111111110 Y
b10 >
b10 R
b10 m
b1011100111011100011110000000000 K
04
b1 6
b1 M
b1 #"
b1101110011101110 ;"
b1110 ?"
b1 >"
b1010001100010010 <"
b1111101101000000 \
b1010000100101110 1"
b1010000100101110 4"
b1111111111111110 Z
b1111111111111111 A
b1111111111111111 T
b1111111111111111 q
b10111001110111000111100000000000 L
b1011110101100000 ]
b1011000010100110 z
b1011000010100110 }
1,
b101111011010000 ,"
b101111011010000 /"
0=
b1 ?
b1 Q
b1 l
b100111101011000 u
b100111101011000 x
13
b1111111111111111 )"
b111101101000 7
b111101101000 O
b111101101000 %"
b10111101101000 ""
b1111111111111111 r
b11110101100 @
b11110101100 S
b11110101100 n
b10011110101100 k
b1110010001100010 %
b1101000010011000 $
b1101000010011000 (
b1101000010011000 !"
b10011110101100 #
b10011110101100 '
b10011110101100 j
b111 &
#70
b1111 d
b1111 5
b1111 N
b1111 $"
b1011 e
b11 >
b11 R
b11 m
b10000 *"
b1111111111110001 8
b1111111111110001 P
b1111111111110001 ("
b11 s
b1111111111101111 Y
b1111111111101111 Z
b1111111111111110 A
b1111111111111110 T
b1111111111111110 q
b1111 &"
b1111 2"
b0 3"
b0 5"
b11100010000000 ="
b10 o
b10 {
b1111111111101111 h
b1111111111101111 f
b1101 |
b1101 ~
b1111111111101111 X
01
b11100010000000 -
b11100010000000 G
b11100010000000 7"
b11100010000000 [
0^
b0 `
b111000100000000000000000000000 E
0V
b0 a
b1111000100000000000000000000000 K
b1000000000000000 \
b1111111111111110 1"
b1111111111111110 4"
b0 b
0"
b11100010000000 ;"
b1110 ?"
b0 >"
b11100010000000 <"
b0 6
b0 M
b0 #"
b0 ,"
b0 /"
b0 c
0D
b1111000100000000000000000000000 L
b1111000100000000 ]
b1101000111011110 z
b1101000111011110 }
b0 !
b0 2
b0 :"
0,
b0 7
b0 O
b0 %"
b0 ""
b1 ?
b1 Q
b1 l
b10111000100000 u
b10111000100000 x
1/
03
b1111111111110001 )"
b1111111111111110 r
b11100010000 @
b11100010000 S
b11100010000 n
b1011100010000 k
b0 %
19
b0 $
b0 (
b0 !"
b1011100010000 #
b1011100010000 '
b1011100010000 j
b1000 &
#80
b1011 U
01
b11 J
b1 .
b1 F
b1 6"
b1 W
0^
b0 `
b0 a
b0 b
0V
b0 c
0;
b1011010100000000 \
b1001 d
b0 &"
b0 2"
b10011000011 ="
b11010100 7
b11010100 O
b11010100 %"
b101 5
b101 N
b101 $"
b1 h
b1 f
b100 '"
b100 -"
b1111 3"
b1111 5"
b1 X
b1011 ."
b1011 0"
b10011000011 -
b10011000011 G
b10011000011 7"
b10011000011 [
b1111111111111110 *"
b1 Y
b100110000111110011000000000000 E
b1 Z
b11 8
b11 P
b11 ("
b1100110000111110011000000000000 K
14
b1000010011000011 ;"
b1110 ?"
b0 >"
b1111101100111101 <"
b111001010110 1"
b111001010110 4"
b1100110000111110011000000000000 L
b1001000001110000 ]
b1101110111110000 z
b1101110111110000 }
b1111101100111101 !
b1111101100111101 2
b1111101100111101 :"
1,
b11110 6
b11110 M
b11110 #"
b1111000110101000 ,"
b1111000110101000 /"
b10001000001110 u
b10001000001110 x
x"
0/
13
b11 )"
b111100011010100 ""
b1000100000111 r
b100000111 @
b100000111 S
b100000111 n
b1000100000111 k
b1001101100111100 %
09
b1000011100101100 $
b1000011100101100 (
b1000011100101100 !"
b1000100000111 #
b1000100000111 '
b1000100000111 j
b1001 &
#90
b1111 e
b1111 >
b1111 R
b1111 m
b10000 s
b1111111111110001 A
b1111111111110001 T
b1111111111110001 q
b1110 U
b1111 o
b1111 {
b0 J
b0 |
b0 ~
b1 >"
b1110 .
b1110 F
b1110 6"
b1110 W
11
b1 &"
b1 2"
b101110001100100 ="
b1111111111110000 h
b1111111111110000 f
b1 `
b0 '"
b0 -"
b1110 3"
b1110 5"
b1111111111110000 X
b1100 d
b1 a
b1111 ."
b1111 0"
b1110001100100 -
b1110001100100 G
b1110001100100 7"
b1110001100100 [
b10 *"
b1111111111110000 Y
b10 5
b10 N
b10 $"
b1 b
b11100011001000000000000000000 E
b1111111111110000 Z
b1111111111111111 8
b1111111111111111 P
b1111111111111111 ("
b1 c
1;
b1011100011001000 \
b1001000111001100 1"
b1001000111001100 4"
b1011100011001000000000000000000 K
b101110001100100 ;"
b1110 ?"
b101110001100100 <"
04
b1 6
b1 M
b1 #"
b110111000110010 ,"
b110111000110010 /"
0"
b1011100011001000000000000000000 L
b1000000000000000 ]
b1111111111111110 z
b1111111111111110 }
0,
b11100011001 7
b11100011001 O
b11100011001 %"
b11011100011001 ""
b0 !
b0 2
b0 :"
b0 ?
b0 Q
b0 l
b0 u
b0 x
03
b1111111111111111 )"
1/
b1111111111110001 r
b0 @
b0 S
b0 n
b0 k
b0 %
b11011100011001 $
b11011100011001 (
b11011100011001 !"
1B
b0 #
b0 '
b0 j
b1010 &
#100
b1010 U
b100 J
b10 .
b10 F
b10 6"
b10 W
1^
b1 *"
1V
b0 8
b0 P
b0 ("
b0 &"
b0 2"
b0 >"
b110100100 ="
0D
b1110110011100000 ]
b1 '"
b1 -"
b1111 3"
b1111 5"
01
b1011 e
b0 o
b0 {
b1100 d
b1110 ."
b1110 0"
b0 `
b110100100 -
b110100100 G
b110100100 7"
b110100100 [
b11011001110 @
b11011001110 S
b11011001110 n
b11 >
b11 R
b11 m
b10 h
b10 f
b10 p
b10 v
b1111 |
b1111 ~
b10 5
b10 N
b10 $"
b10 a
b11010010001100001111000000000 E
b10 X
b1101 w
b1101 y
b1 b
b1011010010001100001111000000000 K
b0 s
b1 Y
14
b10 6
b10 M
b10 #"
b1000000110100100 ;"
b1110 ?"
b1111111001011100 <"
b1 c
1;
b10110100100011000011110000000000 L
b1100001100100000 \
b100111100110110 1"
b100111100110110 4"
b1 Z
b1 A
b1 T
b1 q
b11001001100010 z
b11001001100010 }
1,
b1011000011001000 ,"
b1011000011001000 /"
b1111111001011100 !
b1111111001011100 2
b1111111001011100 :"
1=
b110 ?
b110 Q
b110 l
b1100110110011100 u
b1100110110011100 x
x"
13
b0 )"
b100001100100 7
b100001100100 O
b100001100100 %"
b101100001100100 ""
0/
b1 r
b110011011001110 k
b1000111001011100 %
b1010011110011100 $
b1010011110011100 (
b1010011110011100 !"
0B
b110011011001110 #
b110011011001110 '
b110011011001110 j
b1011 &
#110
1;
b1010 U
b100 J
b10 *"
b1111111111111111 8
b1111111111111111 P
b1111111111111111 ("
b10 .
b10 F
b10 6"
b10 W
b10 h
b10 f
b0 >"
b1010100 ="
b1 &"
b1 2"
b10 X
01
b1 Y
b0 '"
b0 -"
b1110 3"
b1110 5"
1^
b0 `
b1010100 -
b1010100 G
b1010100 7"
b1010100 [
b0 o
b0 {
b1100 d
b1111 ."
b1111 0"
b101010011010110010000000000 E
b11 p
b11 v
b1111 |
b1111 ~
b10 5
b10 N
b10 $"
1V
b1010100 !
b1010100 2
b1010100 :"
b1010 e
b10 a
b1000101010011010110010000000000 K
b1100 w
b1100 y
b1001011011000000 \
b1001101001001110 1"
b1001101001001110 4"
b1111111111111111 s
b100 >
b100 R
b100 m
0_
b1 b
04
b1 6
b1 M
b1 #"
b110010110110000 ,"
b110010110110000 /"
b1010100 ;"
b1110 ?"
b1010100 <"
b1 Z
b10 A
b10 T
b10 q
b1 c
0D
b10001010100110101100100000000000 L
b1110101101100000 ]
b1100101001000 z
b1100101001000 }
b1011011000 7
b1011011000 O
b1011011000 %"
b11001011011000 ""
0,
1=
b1110 ?
b1110 Q
b1110 l
b1110011010110110 u
b1110011010110110 x
b1111111111111111 )"
1<
b10 r
b1101011011 @
b1101011011 S
b1101011011 n
b111001101011011 k
b111000001010101 %
b1100110100101000 $
b1100110100101000 (
b1100110100101000 !"
b1000110010100101 #
b1000110010100101 '
b1000110010100101 j
b1100 &
#120
b1110 U
b0 J
b1 >"
b100000110010100 ="
b1 *"
11
b100000110010100 <"
b1 b
b0 8
b0 P
b0 ("
b0 &"
b0 2"
b1110 .
b1110 F
b1110 6"
b1110 W
b1 `
b100000110010100 ;"
b110010100 -
b110010100 G
b110010100 7"
b110010100 [
b1111 o
b1111 {
b1 c
1;
b1 '"
b1 -"
b1111 3"
b1111 5"
b1111111111110001 h
b1111111111110001 f
0^
b1100101000000000000000000 E
b0 p
b0 v
b0 |
b0 ~
b1100 d
b1110 ."
b1110 0"
b1111111111110001 X
b1111 e
b1 a
b1000001100101000000000000000000 K
b1111 w
b1111 y
b10 5
b10 N
b10 $"
0"
b10000 s
b1111111111110001 Y
b1111 >
b1111 R
b1111 m
0V
b1000001100101000 \
b101111100110100 1"
b101111100110100 4"
b1000000000000000 !
b1000000000000000 2
b1000000000000000 :"
b1111111111110001 Z
b1111111111110001 A
b1111111111110001 T
b1111111111110001 q
b1000001100101000000000000000000 L
b1000000000000000 ]
b1111111111111110 z
b1111111111111110 }
14
b10 6
b10 M
b10 #"
b1010000011001010 ,"
b1010000011001010 /"
0=
b0 ?
b0 Q
b0 l
b0 u
b0 x
b1100101 7
b1100101 O
b1100101 %"
b101000001100101 ""
10
b0 @
b0 S
b0 n
b1000000000000000 k
b0 )"
b1111111111110001 r
b1000000000000000 %
b1010111110011011 $
b1010111110011011 (
b1010111110011011 !"
1C
b1000000000000000 #
b1000000000000000 '
b1000000000000000 j
b1101 &
