waveforms/tb_posit_decode_P8E0.vcd
$date
	Sat Dec 18 18:35:28 2021
$end
$version
	Icarus Verilog
$end
$timescale
	1s
$end
$scope module tb_posit_decode $end
$var wire 2 ! exp [-1:0] $end
$var wire 1 " sign $end
$var wire 8 # regime_bits [7:0] $end
$var wire 1 $ reg_s $end
$var wire 3 % reg_len [2:0] $end
$var wire 8 & mant [7:0] $end
$var wire 8 ' k [7:0] $end
$var wire 1 ( is_zero $end
$var wire 1 ) is_inf $end
$var reg 8 * bits [7:0] $end
$var reg 8 + diff_exp [7:0] $end
$var reg 8 , diff_mant [7:0] $end
$var reg 8 - diff_regime_bits [7:0] $end
$var reg 1 . err $end
$var reg 2 / exp_expected [-1:0] $end
$var reg 8 0 mant_expected [7:0] $end
$var reg 3 1 reg_len_expected [2:0] $end
$var reg 1 2 reg_s_expected $end
$var reg 8 3 regime_bits_expected [7:0] $end
$var reg 1 4 sign_expected $end
$scope function abs $end
$var reg 8 5 in [7:0] $end
$upscope $end
$scope function c2 $end
$var reg 8 6 a [7:0] $end
$upscope $end
$scope module posit_decode_inst $end
$var wire 8 7 bits [7:0] $end
$var wire 2 8 exp [-1:0] $end
$var wire 8 9 u_bits [7:0] $end
$var wire 1 " sign $end
$var wire 8 : regime_bits [7:0] $end
$var wire 1 $ reg_s $end
$var wire 3 ; reg_len [2:0] $end
$var wire 8 < mant [7:0] $end
$var wire 3 = leading_zeros [2:0] $end
$var wire 3 > leading_ones [2:0] $end
$var wire 8 ? k [7:0] $end
$var wire 1 ( is_zero $end
$var wire 1 ) is_inf $end
$scope function c2 $end
$var reg 8 @ a [7:0] $end
$upscope $end
$scope function min $end
$var reg 8 A a [7:0] $end
$var reg 8 B b [7:0] $end
$upscope $end
$scope module clo_inst_o $end
$var wire 8 C bits [7:0] $end
$var wire 3 D leading_ones [2:0] $end
$var wire 3 E index_highest_set [2:0] $end
$scope module highest_set_inst $end
$var wire 8 F bits [7:0] $end
$var wire 3 G index [2:0] $end
$scope begin _gen[0] $end
$upscope $end
$scope begin _gen[1] $end
$upscope $end
$scope begin _gen[2] $end
$upscope $end
$scope begin _gen[3] $end
$upscope $end
$scope begin _gen[4] $end
$upscope $end
$scope begin _gen[5] $end
$upscope $end
$scope begin _gen[6] $end
$upscope $end
$scope begin _gen[7] $end
$upscope $end
$upscope $end
$upscope $end
$scope module clo_inst_z $end
$var wire 8 H bits [7:0] $end
$var wire 3 I leading_ones [2:0] $end
$var wire 3 J index_highest_set [2:0] $end
$scope module highest_set_inst $end
$var wire 8 K bits [7:0] $end
$var wire 3 L index [2:0] $end
$scope begin _gen[0] $end
$upscope $end
$scope begin _gen[1] $end
$upscope $end
$scope begin _gen[2] $end
$upscope $end
$scope begin _gen[3] $end
$upscope $end
$scope begin _gen[4] $end
$upscope $end
$scope begin _gen[5] $end
$upscope $end
$scope begin _gen[6] $end
$upscope $end
$scope begin _gen[7] $end
$upscope $end
$upscope $end
$upscope $end
$upscope $end
$upscope $end
$enddefinitions $end
#0
$dumpvars
b111 L
b100010 K
b111 J
b0 I
b100010 H
b101 G
b11011100 F
b101 E
b10 D
b11011100 C
b111 B
b0 A
b1 @
b1 ?
b10 >
b0 =
b1110 <
b11 ;
b110 :
b1101110 9
b0 8
b10010010 7
bx 6
b0 5
14
b110 3
12
b11 1
b1110 0
b0 /
0.
b0 -
b0 ,
b0 +
b10010010 *
0)
0(
b1 '
b1110 &
b11 %
1$
b110 #
1"
b0 !
$end
#10
b11 =
b11 I
b0 >
b0 D
b100 J
b100 L
b111 E
b111 G
b100 A
b100 %
b100 ;
b11111101 '
b11111101 ?
b11111111 6
b11101110 H
b11101110 K
0$
b1 #
b1 :
b10000 C
b10000 F
b0 &
b0 <
b1000 9
0.
b0 -
b0 ,
b0 5
0"
b11111101 @
b0 0
b1 3
b100 1
02
04
b1000 *
b1000 7
#20
b0 =
b0 I
b10 >
b10 D
b111 J
b111 L
b101 E
b101 G
b0 A
b11 %
b11 ;
b1 '
b1 ?
b100100 H
b100100 K
1$
b110 #
b110 :
b11011010 C
b11011010 F
0.
b0 -
b0 ,
b11111101 6
b0 5
b1 @
b1101 &
b1101 <
b1101101 9
b1101 0
b110 3
b11 1
12
b1101101 *
b1101101 7
#30
b101 %
b101 ;
b11111110 A
b11 '
b11 ?
b100 >
b100 D
b11 E
b11 G
b1000 H
b1000 K
b11110 #
b11110 :
b11110110 C
b11110110 F
0.
b0 -
b11111110 6
b0 ,
b0 5
b11 @
b11 &
b11 <
b1111011 9
b11 0
b11110 3
b101 1
b1111011 *
b1111011 7
#40
b0 =
b0 I
b10 >
b10 D
b111 J
b111 L
b101 E
b101 G
b0 A
b11 %
b11 ;
b1 '
b1 ?
b100100 H
b100100 K
b1101 &
b1101 <
1$
b110 #
b110 :
b11011010 C
b11011010 F
0.
b0 -
b0 ,
b11110100 6
b0 5
1"
b1 @
b1101101 9
b1101 0
b110 3
b11 1
14
b10010011 *
b10010011 7
#50
b101 =
b101 I
b0 >
b0 D
b10 J
b10 L
b111 E
b111 G
b110 A
b110 %
b110 ;
b11111011 '
b11111011 ?
b11111111 6
b11111000 H
b11111000 K
0$
b1 #
b1 :
b110 C
b110 F
b1 &
b1 <
b11 9
0.
b0 -
b0 ,
b0 5
0"
b11111011 @
b1 0
b1 3
b110 1
02
04
b11 *
b11 7
#60
b10 %
b10 ;
b10 A
b11111111 '
b11111111 ?
b1 =
b1 I
b110 J
b110 L
b0 -
b10010110 H
b10010110 K
b1 #
b1 :
b1101000 C
b1101000 F
0.
b0 ,
b11101100 6
b0 5
b11111111 @
b10100 &
b10100 <
b110100 9
b10100 0
b10 1
b110100 *
b110100 7
#70
b11111111 A
b10 '
b10 ?
b0 =
b0 I
b11 >
b11 D
b111 J
b111 L
b100 E
b100 G
b100 %
b100 ;
b10010 H
b10010 K
1$
b1110 #
b1110 :
b11101100 C
b11101100 F
0.
b0 -
b11110011 6
b0 ,
b0 5
b10 @
b110 &
b110 <
b1110110 9
b110 0
b1110 3
b100 1
12
b1110110 *
b1110110 7
#80
b1 =
b1 I
b0 >
b0 D
b110 J
b110 L
b111 E
b111 G
b10 A
b10 %
b10 ;
b11111111 '
b11111111 ?
0$
b10011110 H
b10011110 K
b1 #
b1 :
b1100000 C
b1100000 F
0.
b0 -
b0 ,
b11110000 6
b0 5
1"
b11111111 @
b10000 &
b10000 <
b110000 9
b10000 0
b1 3
b10 1
02
14
b11010000 *
b11010000 7
#90
b11111101 A
b100 '
b100 ?
b0 =
b0 I
b101 >
b101 D
b111 J
b111 L
b10 E
b10 G
b110 %
b110 ;
b100 H
b100 K
1$
b111110 #
b111110 :
b11111010 C
b11111010 F
b1 &
b1 <
b1111101 9
0.
b0 -
b11100001 6
b0 ,
b0 5
0"
b100 @
b1 0
b111110 3
b110 1
12
04
b1111101 *
b1111101 7
#100
b1 =
b1 I
b0 >
b0 D
b110 J
b110 L
b111 E
b111 G
b10 A
b10 %
b10 ;
b11111111 '
b11111111 ?
0$
b10100010 H
b10100010 K
b1 #
b1 :
b1011100 C
b1011100 F
0.
b0 -
b0 ,
b11111111 6
b0 5
1"
b11111111 @
b1110 &
b1110 <
b101110 9
b1110 0
b1 3
b10 1
02
14
b11010010 *
b11010010 7
#110
b1 A
b0 '
b0 ?
b0 =
b0 I
b1 >
b1 D
b111 J
b111 L
b110 E
b110 G
b10 %
b10 ;
b1110000 H
b1110000 K
1$
b10 #
b10 :
b10001110 C
b10001110 F
b111 &
b111 <
b1000111 9
0.
b0 -
b0 ,
b0 5
0"
b0 @
b111 0
b10 3
12
04
b1000111 *
b1000111 7
#120
b1 A
b0 '
b0 ?
b0 =
b0 I
b1 >
b1 D
b111 J
b111 L
b110 E
b110 G
b10 %
b10 ;
b0 -
b1001100 H
b1001100 K
b11001 &
b11001 <
1$
b10 #
b10 :
b10110010 C
b10110010 F
0.
b0 ,
b11110000 6
b0 5
1"
b0 @
b1011001 9
b11001 0
14
b10100111 *
b10100111 7
#130
b10 A
b11111111 '
b11111111 ?
b1 =
b1 I
b0 >
b0 D
b110 J
b110 L
b11110000 6
b111 E
b111 G
b10 %
b10 ;
b10011100 H
b10011100 K
0$
b1 #
b1 :
b1100010 C
b1100010 F
b10001 &
b10001 <
b110001 9
0.
b0 -
b0 ,
b0 5
b11111111 @
b10001 0
b1 3
02
b11001111 *
b11001111 7
#140
b10101100 H
b10101100 K
b1010010 C
b1010010 F
b1001 &
b1001 <
b101001 9
0.
b0 ,
b0 5
0"
b101001 @
b1001 0
04
b101001 *
b101001 7
#150
b110 A
b11111011 '
b11111011 ?
b101 =
b101 I
b0 >
b0 D
b10 J
b10 L
b111 E
b111 G
b11111111 6
b110 %
b110 ;
b0 -
b11111000 H
b11111000 K
0$
b1 #
b1 :
b110 C
b110 F
0.
b0 ,
b0 5
1"
b11111011 @
b1 &
b1 <
b11 9
b1 0
b110 1
14
b11111101 *
b11111101 7
#160
b0 =
b0 I
b100 >
b100 D
b111 J
b111 L
b11 E
b11 G
b11111110 A
b11 &
b11 <
b101 %
b101 ;
b11 '
b11 ?
b1000 H
b1000 K
1$
b11110 #
b11110 :
b11110110 C
b11110110 F
b1111011 9
0.
b0 -
b0 ,
b11110001 6
b0 5
b11 @
b11 0
b11110 3
b101 1
12
b10000101 *
b10000101 7
#170
b11 =
b11 I
b0 >
b0 D
b100 J
b100 L
b0 ,
b11111111 6
b111 E
b111 G
b100 A
b11 &
b11 <
b100 %
b100 ;
b11111101 '
b11111101 ?
b11101000 H
b11101000 K
0$
b1 #
b1 :
b10110 C
b10110 F
b1011 9
0.
b0 -
b0 5
b11111101 @
b1 3
b100 1
02
b11110101 *
b11110101 7
#180
b0 =
b0 I
b1 >
b1 D
b111 J
b111 L
b110 E
b110 G
b1 A
b10011 &
b10011 <
b10 %
b10 ;
b0 '
b0 ?
b1011000 H
b1011000 K
1$
b10 #
b10 :
b10100110 C
b10100110 F
b1010011 9
0.
b0 -
b0 ,
b11111111 6
b0 5
0"
b0 @
b10011 0
b10 3
b10 1
12
04
b1010011 *
b1010011 7
#190
b11 A
b11111110 '
b11111110 ?
b10 =
b10 I
b0 >
b0 D
b101 J
b101 L
b111 E
b111 G
b11 &
b11 <
b11 %
b11 ;
b11011000 H
b11011000 K
0$
b1 #
b1 :
b100110 C
b100110 F
0.
b0 -
b0 ,
b0 5
b11111110 @
b10011 9
b11 0
b1 3
b11 1
02
b10011 *
b10011 7
#200
b10 %
b10 ;
b10 A
b11111111 '
b11111111 ?
b1 =
b1 I
b110 J
b110 L
b0 -
b10000000 H
b10000000 K
b1 #
b1 :
b1111110 C
b1111110 F
0.
b0 ,
b11110000 6
b0 5
b11111111 @
b11111 &
b11111 <
b111111 9
b11111 0
b10 1
b111111 *
b111111 7
#210
b1 A
b0 '
b0 ?
b0 =
b0 I
b1 >
b1 D
b111 J
b111 L
b110 E
b110 G
b10 %
b10 ;
1$
b10 #
b10 :
b1111010 H
b1111010 K
b10000100 C
b10000100 F
0.
b0 -
b11111110 6
b0 ,
b0 5
1"
b0 @
b10 &
b10 <
b1000010 9
b10 0
b10 3
12
14
b10111110 *
b10111110 7
#220
b1000110 H
b1000110 K
b10111000 C
b10111000 F
b11100 &
b11100 <
b1011100 9
0.
b0 ,
b11100110 6
b0 5
0"
b1011100 @
b11100 0
04
b1011100 *
b1011100 7
#230
b100 A
b11111101 '
b11111101 ?
b11 =
b11 I
b0 >
b0 D
b100 J
b100 L
b111 E
b111 G
b100 %
b100 ;
b11111111 6
b11101000 H
b11101000 K
0$
b1 #
b1 :
b10110 C
b10110 F
0.
b0 -
b0 ,
b0 5
b11111101 @
b11 &
b11 <
b1011 9
b11 0
b1 3
b100 1
02
b1011 *
b1011 7
#240
b0 =
b0 I
b10 >
b10 D
b111 J
b111 L
b101 E
b101 G
b0 A
b1011 &
b1011 <
b11 %
b11 ;
b1 '
b1 ?
b101000 H
b101000 K
1$
b110 #
b110 :
b11010110 C
b11010110 F
0.
b0 -
b0 ,
b11111101 6
b0 5
b1 @
b1101011 9
b1011 0
b110 3
b11 1
12
b1101011 *
b1101011 7
#250
b1 =
b1 I
b0 >
b0 D
b110 J
b110 L
b11111111 6
b111 E
b111 G
b10 A
b10 %
b10 ;
b11111111 '
b11111111 ?
0$
b10110110 H
b10110110 K
b1 #
b1 :
b1001000 C
b1001000 F
0.
b0 -
b0 ,
b0 5
1"
b11111111 @
b100 &
b100 <
b100100 9
b100 0
b1 3
b10 1
02
14
b11011100 *
b11011100 7
#260
b10111000 H
b10111000 K
b1000110 C
b1000110 F
b11 &
b11 <
b100011 9
0.
b0 ,
b0 5
0"
b100011 @
b11 0
04
b100011 *
b100011 7
#270
b0 A
b1 '
b1 ?
b0 =
b0 I
b10 >
b10 D
b111 J
b111 L
b101 E
b101 G
b11 %
b11 ;
1$
b110010 H
b110010 K
b110 #
b110 :
b11001100 C
b11001100 F
0.
b0 -
b11111101 6
b0 ,
b0 5
1"
b1 @
b110 &
b110 <
b1100110 9
b110 0
b110 3
b11 1
12
14
b10011010 *
b10011010 7
#280
b10 %
b10 ;
b1 A
b0 '
b0 ?
b1 >
b1 D
b110 E
b110 G
b1001010 H
b1001010 K
b10 #
b10 :
b10110100 C
b10110100 F
b11010 &
b11010 <
b1011010 9
0.
b0 -
b0 ,
b11110000 6
b0 5
0"
b0 @
b11010 0
b10 3
b10 1
04
b1011010 *
b1011010 7
#290
b11 %
b11 ;
b0 A
b1 '
b1 ?
b10 >
b10 D
b101 E
b101 G
b111100 H
b111100 K
b110 #
b110 :
b11000010 C
b11000010 F
0.
b0 -
b11111101 6
b0 5
b1 @
b1 &
b1 <
b1100001 9
b1 0
b110 3
b11 1
b1100001 *
b1100001 7
#300
b10 =
b10 I
b0 >
b0 D
b101 J
b101 L
b111 E
b111 G
b11 A
b11 %
b11 ;
b11111110 '
b11111110 ?
0$
b1 #
b1 :
b11001010 H
b11001010 K
b110100 C
b110100 F
0.
b0 -
b0 ,
b11110110 6
b0 5
1"
b11111110 @
b1010 &
b1010 <
b11010 9
b1010 0
b1 3
02
14
b11100110 *
b11100110 7
#310
b0 =
b0 I
b1 >
b1 D
b111 J
b111 L
b110 E
b110 G
b1 A
b10 %
b10 ;
b0 '
b0 ?
b1101110 H
b1101110 K
1$
b10 #
b10 :
b10010000 C
b10010000 F
b1000 &
b1000 <
b1001000 9
0.
b0 -
b11111111 6
b0 ,
b0 5
0"
b0 @
b1000 0
b10 3
b10 1
12
04
b1001000 *
b1001000 7
#320
b11111000 6
b10 A
b11111111 '
b11111111 ?
b1 =
b1 I
b0 >
b0 D
b110 J
b110 L
b111 E
b111 G
b10 %
b10 ;
0$
b1 #
b1 :
b10100100 H
b10100100 K
b1011010 C
b1011010 F
0.
b0 -
b0 ,
b0 5
1"
b11111111 @
b1101 &
b1101 <
b101101 9
b1101 0
b1 3
02
14
b11010011 *
b11010011 7
#330
b1 A
b0 '
b0 ?
b0 =
b0 I
b1 >
b1 D
b111 J
b111 L
b110 E
b110 G
b10 %
b10 ;
b1010110 H
b1010110 K
1$
b10 #
b10 :
b10101000 C
b10101000 F
b10100 &
b10100 <
b1010100 9
0.
b0 -
b0 ,
b11110000 6
b0 5
b0 @
b10100 0
b10 3
12
b10101100 *
b10101100 7
#340
b1111000 H
b1111000 K
b10000110 C
b10000110 F
b11 &
b11 <
b1000011 9
0.
b0 ,
b0 5
0"
b1000011 @
b11 0
04
b1000011 *
b1000011 7
#350
b100 %
b100 ;
b11111111 A
b10 '
b10 ?
b11 >
b11 D
b100 E
b100 G
b10110 H
b10110 K
b1110 #
b1110 :
b11101000 C
b11101000 F
0.
b0 -
b11111001 6
b0 ,
b0 5
b10 @
b100 &
b100 <
b1110100 9
b100 0
b1110 3
b100 1
b1110100 *
b1110100 7
#360
b1 =
b1 I
b0 >
b0 D
b110 J
b110 L
b111 E
b111 G
b10 A
b1100 &
b1100 <
b10 %
b10 ;
b11111111 '
b11111111 ?
b10100110 H
b10100110 K
0$
b1 #
b1 :
b1011000 C
b1011000 F
0.
b0 -
b0 ,
b11111111 6
b0 5
b11111111 @
b101100 9
b1100 0
b1 3
b10 1
02
b101100 *
b101100 7
#370
b1 A
b0 '
b0 ?
b0 =
b0 I
b1 >
b1 D
b111 J
b111 L
b110 E
b110 G
b10 %
b10 ;
1$
b10 #
b10 :
b1011100 H
b1011100 K
b10100010 C
b10100010 F
0.
b0 -
b0 ,
b11110000 6
b0 5
1"
b0 @
b10001 &
b10001 <
b1010001 9
b10001 0
b10 3
12
14
b10101111 *
b10101111 7
#380
b1100100 H
b1100100 K
b10011010 C
b10011010 F
b1101 &
b1101 <
b1001101 9
0.
b0 ,
b0 5
0"
b1001101 @
b1101 0
04
b1001101 *
b1001101 7
#390
b1 A
b0 '
b0 ?
b0 =
b0 I
b1 >
b1 D
b111 J
b111 L
b110 E
b110 G
b10 %
b10 ;
b0 -
b1010000 H
b1010000 K
1$
b10 #
b10 :
b10101110 C
b10101110 F
0.
b0 ,
b11110000 6
b0 5
1"
b0 @
b10111 &
b10111 <
b1010111 9
b10111 0
14
b10101001 *
b10101001 7
#400
b11 A
b11111110 '
b11111110 ?
b10 =
b10 I
b0 >
b0 D
b101 J
b101 L
b111 E
b111 G
b11 %
b11 ;
b11111111 6
b11001110 H
b11001110 K
0$
b1 #
b1 :
b110000 C
b110000 F
b1000 &
b1000 <
b11000 9
0.
b0 -
b0 ,
b0 5
b11111110 @
b1000 0
b1 3
b11 1
02
b11101000 *
b11101000 7
#410
b10 %
b10 ;
b10 A
b11111111 '
b11111111 ?
b1 =
b1 I
b110 J
b110 L
b0 -
b10111010 H
b10111010 K
b1 #
b1 :
b1000100 C
b1000100 F
b10 &
b10 <
b100010 9
0.
b0 ,
b0 5
0"
b11111111 @
b10 0
b10 1
04
b100010 *
b100010 7
#420
b11111100 6
b10 A
b11111111 '
b11111111 ?
b1 =
b1 I
b0 >
b0 D
b110 J
b110 L
b111 E
b111 G
b10 %
b10 ;
b0 -
b10110100 H
b10110100 K
0$
b1 #
b1 :
b1001010 C
b1001010 F
0.
b0 ,
b0 5
1"
b11111111 @
b101 &
b101 <
b100101 9
b101 0
14
b11011011 *
b11011011 7
#430
b10000110 H
b10000110 K
b1111000 C
b1111000 F
b11100 &
b11100 <
b111100 9
0.
b0 ,
b11101001 6
b0 5
b11000100 @
b11100 0
b11000100 *
b11000100 7
#440
b10000100 H
b10000100 K
b1111010 C
b1111010 F
b11101 &
b11101 <
b111101 9
0.
b0 ,
b11111111 6
b0 5
0"
b111101 @
b11101 0
04
b111101 *
b111101 7
#450
b11111111 A
b10 '
b10 ?
b0 =
b0 I
b11 >
b11 D
b111 J
b111 L
b100 E
b100 G
b100 %
b100 ;
b11110 H
b11110 K
1$
b1110 #
b1110 :
b11100000 C
b11100000 F
0.
b0 -
b11110011 6
b0 ,
b0 5
b10 @
b0 &
b0 <
b1110000 9
b0 0
b1110 3
b100 1
12
b1110000 *
b1110000 7
#460
b0 =
b0 I
b10 >
b10 D
b111 J
b111 L
b101 E
b101 G
b0 A
b11 %
b11 ;
b1 '
b1 ?
b11111101 6
b111000 H
b111000 K
1$
b110 #
b110 :
b11000110 C
b11000110 F
0.
b0 -
b0 ,
b0 5
1"
b1 @
b11 &
b11 <
b1100011 9
b11 0
b110 3
b11 1
14
b10011101 *
b10011101 7
#470
b111110 H
b111110 K
b11000000 C
b11000000 F
b0 &
b0 <
b1100000 9
0.
b0 ,
b0 5
0"
b1100000 @
b0 0
04
b1100000 *
b1100000 7
#480
b10 =
b10 I
b0 >
b0 D
b101 J
b101 L
b111 E
b111 G
b11 A
b11 %
b11 ;
b11111110 '
b11111110 ?
0$
b1 #
b1 :
b11001100 H
b11001100 K
b110010 C
b110010 F
0.
b0 -
b0 ,
b11110111 6
b0 5
1"
b11111110 @
b1001 &
b1001 <
b11001 9
b1001 0
b1 3
02
14
b11100111 *
b11100111 7
#490
b0 =
b0 I
b10 >
b10 D
b111 J
b111 L
b101 E
b101 G
b0 A
b11 %
b11 ;
b1 '
b1 ?
b101000 H
b101000 K
1$
b110 #
b110 :
b11010110 C
b11010110 F
b1011 &
b1011 <
b1101011 9
0.
b0 -
b0 ,
b11111000 6
b0 5
b1 @
b1011 0
b110 3
12
b10010101 *
b10010101 7
#500
b110 =
b110 I
b0 >
b0 D
b1 J
b1 L
b111 E
b111 G
b111 A
b11111010 @
b111 %
b111 ;
b11111010 '
b11111010 ?
b11111111 6
b11111100 H
b11111100 K
0$
b1 #
b1 :
b10 C
b10 F
b0 &
b0 <
b1 9
0.
b0 -
b0 ,
b0 5
0"
b0 0
b1 3
b111 1
02
04
b1 *
b1 7
#510
b11100 &
b11100 <
b10 %
b10 ;
b10 A
b11111111 '
b11111111 ?
b1 =
b1 I
b110 J
b110 L
b0 -
b10000110 H
b10000110 K
b1 #
b1 :
b1111000 C
b1111000 F
0.
b0 ,
b11100100 6
b0 5
b11111111 @
b111100 9
b11100 0
b10 1
b111100 *
b111100 7
#520
b10 A
b11111111 '
b11111111 ?
b1 =
b1 I
b0 >
b0 D
b110 J
b110 L
b111 E
b111 G
b11111111 6
b10 %
b10 ;
b0 -
b10101000 H
b10101000 K
0$
b1 #
b1 :
b1010110 C
b1010110 F
0.
b0 ,
b0 5
1"
b11111111 @
b1011 &
b1011 <
b101011 9
b1011 0
14
b11010101 *
b11010101 7
#530
b10011100 H
b10011100 K
b1100010 C
b1100010 F
b10001 &
b10001 <
b110001 9
0.
b0 ,
b11111010 6
b0 5
0"
b110001 @
b10001 0
04
b110001 *
b110001 7
#540
b10 A
b11111111 '
b11111111 ?
b1 =
b1 I
b0 >
b0 D
b110 J
b110 L
b111 E
b111 G
b11111111 6
b10 %
b10 ;
b0 -
b10101110 H
b10101110 K
0$
b1 #
b1 :
b1010000 C
b1010000 F
0.
b0 ,
b0 5
1"
b11111111 @
b1000 &
b1000 <
b101000 9
b1000 0
14
b11011000 *
b11011000 7
#550
b11111111 A
b10 '
b10 ?
b0 =
b0 I
b11 >
b11 D
b111 J
b111 L
b100 E
b100 G
b100 %
b100 ;
b10000 H
b10000 K
1$
b1110 #
b1110 :
b11101110 C
b11101110 F
b111 &
b111 <
b1110111 9
0.
b0 -
b11111100 6
b0 ,
b0 5
b10 @
b111 0
b1110 3
b100 1
12
b10001001 *
b10001001 7
#560
b10 %
b10 ;
b1 A
b0 '
b0 ?
b1 >
b1 D
b110 E
b110 G
b1000100 H
b1000100 K
b10 #
b10 :
b10111010 C
b10111010 F
b11101 &
b11101 <
b1011101 9
0.
b0 -
b0 ,
b11101000 6
b0 5
0"
b0 @
b11101 0
b10 3
b10 1
04
b1011101 *
b1011101 7
#570
b10 A
b11111111 '
b11111111 ?
b1 =
b1 I
b0 >
b0 D
b110 J
b110 L
b111 E
b111 G
b10 %
b10 ;
0$
b1 #
b1 :
b10001000 H
b10001000 K
b1110110 C
b1110110 F
0.
b0 -
b0 ,
b11110000 6
b0 5
1"
b11111111 @
b11011 &
b11011 <
b111011 9
b11011 0
b1 3
02
14
b11000101 *
b11000101 7
#580
b100 %
b100 ;
b100 A
b11111101 '
b11111101 ?
b11 =
b11 I
b100 J
b100 L
b0 -
b11111111 6
b11100110 H
b11100110 K
b1 #
b1 :
b11000 C
b11000 F
b100 &
b100 <
b1100 9
0.
b0 ,
b0 5
b11111101 @
b100 0
b100 1
b11110100 *
b11110100 7
#590
b0 =
b0 I
b1 >
b1 D
b111 J
b111 L
b110 E
b110 G
b1 A
b10 %
b10 ;
b0 '
b0 ?
b1011110 H
b1011110 K
1$
b10 #
b10 :
b10100000 C
b10100000 F
b10000 &
b10000 <
b1010000 9
0.
b0 -
b0 ,
b11111111 6
b0 5
0"
b0 @
b10000 0
b10 3
b10 1
12
04
b1010000 *
b1010000 7
#600
b1 A
b0 '
b0 ?
b0 =
b0 I
b1 >
b1 D
b111 J
b111 L
b110 E
b110 G
b10 %
b10 ;
b0 -
b1010010 H
b1010010 K
1$
b10 #
b10 :
b10101100 C
b10101100 F
0.
b0 ,
b11110000 6
b0 5
1"
b0 @
b10110 &
b10110 <
b1010110 9
b10110 0
14
b10101010 *
b10101010 7
#610
b100 %
b100 ;
b11111111 A
b10 '
b10 ?
b11 >
b11 D
b100 E
b100 G
b10110 H
b10110 K
b1110 #
b1110 :
b11101000 C
b11101000 F
b100 &
b100 <
b1110100 9
0.
b0 -
b11110101 6
b0 ,
b0 5
b10 @
b100 0
b1110 3
b100 1
b10001100 *
b10001100 7
#620
b11000 H
b11000 K
b11100110 C
b11100110 F
b11 &
b11 <
b1110011 9
0.
b0 ,
b0 5
0"
b1110011 @
b11 0
04
b1110011 *
b1110011 7
#630
b11 %
b11 ;
b0 A
b1 '
b1 ?
b10 >
b10 D
b101 E
b101 G
b100000 H
b100000 K
b110 #
b110 :
b11011110 C
b11011110 F
0.
b0 -
b0 ,
b11111000 6
b0 5
b1 @
b1111 &
b1111 <
b1101111 9
b1111 0
b110 3
b11 1
b1101111 *
b1101111 7
#640
b101 %
b101 ;
b11111110 A
b11 '
b11 ?
b100 >
b100 D
b11 E
b11 G
b1110 H
b1110 K
b11110 #
b11110 :
b11110000 C
b11110000 F
0.
b0 -
b11101001 6
b0 ,
b0 5
b11 @
b0 &
b0 <
b1111000 9
b0 0
b11110 3
b101 1
b1111000 *
b1111000 7
#650
b11111111 6
b0 ,
b0 &
b0 <
b10 =
b10 I
b0 >
b0 D
b101 J
b101 L
b111 E
b111 G
b11 A
b11 %
b11 ;
b11111110 '
b11111110 ?
b11011110 H
b11011110 K
0$
b1 #
b1 :
b100000 C
b100000 F
0.
b0 -
b0 5
b11111110 @
b10000 9
b1 3
b11 1
02
b10000 *
b10000 7
#660
b11 =
b11 I
b0 >
b0 D
b100 J
b100 L
b111 E
b111 G
b100 A
b100 %
b100 ;
b11111101 '
b11111101 ?
b0 -
b11100010 H
b11100010 K
0$
b1 #
b1 :
b11100 C
b11100 F
0.
b0 ,
b11111010 6
b0 5
1"
b11111101 @
b110 &
b110 <
b1110 9
b110 0
b100 1
14
b11110010 *
b11110010 7
#670
b10 %
b10 ;
b10 A
b11111111 '
b11111111 ?
b1 =
b1 I
b110 J
b110 L
b0 -
b10011000 H
b10011000 K
b1 #
b1 :
b1100110 C
b1100110 F
b10011 &
b10011 <
b110011 9
0.
b0 ,
b11110000 6
b0 5
b11111111 @
b10011 0
b10 1
b11001101 *
b11001101 7
#680
b11 %
b11 ;
b11 A
b11111110 '
b11111110 ?
b10 =
b10 I
b101 J
b101 L
b0 -
b11111111 6
b11010110 H
b11010110 K
b1 #
b1 :
b101000 C
b101000 F
b100 &
b100 <
b10100 9
0.
b0 ,
b0 5
b11111110 @
b100 0
b11 1
b11101100 *
b11101100 7
#690
b10 %
b10 ;
b10 A
b11111111 '
b11111111 ?
b1 =
b1 I
b110 J
b110 L
b0 -
b10101110 H
b10101110 K
b1 #
b1 :
b1010000 C
b1010000 F
b1000 &
b1000 <
b101000 9
0.
b0 ,
b11111100 6
b0 5
0"
b11111111 @
b1000 0
b10 1
04
b101000 *
b101000 7
#700
b10001100 H
b10001100 K
b1110010 C
b1110010 F
b111001 @
b11001 &
b11001 <
b111001 9
b11001 0
b111001 *
b111001 7
#710
b0 A
b1 '
b1 ?
b0 =
b0 I
b10 >
b10 D
b111 J
b111 L
b0 ,
b101 E
b101 G
b11 %
b11 ;
b101100 H
b101100 K
1$
b110 #
b110 :
b11010010 C
b11010010 F
0.
b0 -
b11111000 6
b0 5
b1 @
b1001 &
b1001 <
b1101001 9
b1001 0
b110 3
b11 1
12
b1101001 *
b1101001 7
#720
b1 =
b1 I
b0 >
b0 D
b110 J
b110 L
b11111111 6
b111 E
b111 G
b10 A
b10 %
b10 ;
b11111111 '
b11111111 ?
0$
b10111010 H
b10111010 K
b1 #
b1 :
b1000100 C
b1000100 F
0.
b0 -
b0 ,
b0 5
1"
b11111111 @
b10 &
b10 <
b100010 9
b10 0
b1 3
b10 1
02
14
b11011110 *
b11011110 7
#730
b100 %
b100 ;
b100 A
b11111101 '
b11111101 ?
b11 =
b11 I
b100 J
b100 L
b0 -
b11101100 H
b11101100 K
b1 #
b1 :
b10010 C
b10010 F
b1 &
b1 <
b1001 9
0.
b0 ,
b0 5
0"
b11111101 @
b1 0
b100 1
04
b1001 *
b1001 7
#740
b10 =
b10 I
b0 >
b0 D
b101 J
b101 L
b111 E
b111 G
b11 A
b11 %
b11 ;
b11111110 '
b11111110 ?
b0 -
b11011100 H
b11011100 K
0$
b1 #
b1 :
0.
b0 ,
b0 5
b100010 C
b100010 F
1"
b11111110 @
b1 &
b1 <
b10001 9
b11 1
14
b11101111 *
b11101111 7
#750
b0 =
b0 I
b111 >
b111 D
b111 J
b111 L
b0 E
b0 G
b11111011 A
b111 %
b111 ;
b110 '
b110 ?
b0 H
b0 K
1$
b1111111 #
b1111111 :
b11111110 C
b11111110 F
b0 &
b0 <
b1111111 9
0.
b0 -
b11000000 6
b0 ,
b0 5
0"
b110 @
b0 0
b1111111 3
b111 1
12
04
b1111111 *
b1111111 7
#760
b11000 &
b11000 <
b10 %
b10 ;
b1 =
b1 I
b0 >
b0 D
b110 J
b110 L
b111 E
b111 G
b10 A
b11111111 '
b11111111 ?
0$
b10001110 H
b10001110 K
b1 #
b1 :
b1110000 C
b1110000 F
0.
b0 -
b0 ,
b11110000 6
b0 5
1"
b11111111 @
b111000 9
b11000 0
b1 3
b10 1
02
14
b11001000 *
b11001000 7
