waveforms/tb_posit_decode_P5E1.vcd
$date
	Sun Dec 19 11:45:29 2021
$end
$version
	Icarus Verilog
$end
$timescale
	1s
$end
$scope module tb_posit_decode $end
$var wire 1 ! sign $end
$var wire 5 " regime_bits [4:0] $end
$var wire 1 # reg_s $end
$var wire 3 $ reg_len [2:0] $end
$var wire 5 % mant [4:0] $end
$var wire 5 & k [4:0] $end
$var wire 1 ' is_zero $end
$var wire 1 ( is_inf $end
$var wire 1 ) exp $end
$var reg 5 * bits [4:0] $end
$var reg 5 + diff_exp [4:0] $end
$var reg 5 , diff_mant [4:0] $end
$var reg 5 - diff_regime_bits [4:0] $end
$var reg 1 . err $end
$var reg 1 / exp_expected $end
$var reg 5 0 mant_expected [4:0] $end
$var reg 3 1 reg_len_expected [2:0] $end
$var reg 1 2 reg_s_expected $end
$var reg 5 3 regime_bits_expected [4:0] $end
$var reg 1 4 sign_expected $end
$var reg 6 5 test_no [5:0] $end
$scope function abs $end
$var reg 5 6 in [4:0] $end
$upscope $end
$scope function c2 $end
$var reg 5 7 a [4:0] $end
$upscope $end
$scope module posit_decode_inst $end
$var wire 5 8 bits [4:0] $end
$var wire 5 9 u_bits [4:0] $end
$var wire 1 ! sign $end
$var wire 5 : regime_bits [4:0] $end
$var wire 1 # reg_s $end
$var wire 3 ; reg_len [2:0] $end
$var wire 5 < mant [4:0] $end
$var wire 3 = leading_zeros [2:0] $end
$var wire 3 > leading_ones [2:0] $end
$var wire 5 ? k [4:0] $end
$var wire 1 ' is_zero $end
$var wire 1 ( is_inf $end
$var wire 1 ) exp $end
$scope function c2 $end
$var reg 5 @ a [4:0] $end
$upscope $end
$scope function min $end
$var reg 5 A a [4:0] $end
$var reg 5 B b [4:0] $end
$upscope $end
$scope module clo_inst_o $end
$var wire 5 C bits [4:0] $end
$var wire 3 D leading_ones [2:0] $end
$var wire 3 E index_highest_set [2:0] $end
$scope module highest_set_inst $end
$var wire 5 F bits [4:0] $end
$var wire 3 G index [2:0] $end
$scope begin _gen[0] $end
$upscope $end
$scope begin _gen[1] $end
$upscope $end
$scope begin _gen[2] $end
$upscope $end
$scope begin _gen[3] $end
$upscope $end
$scope begin _gen[4] $end
$upscope $end
$upscope $end
$upscope $end
$scope module clo_inst_z $end
$var wire 5 H bits [4:0] $end
$var wire 3 I leading_ones [2:0] $end
$var wire 3 J index_highest_set [2:0] $end
$scope module highest_set_inst $end
$var wire 5 K bits [4:0] $end
$var wire 3 L index [2:0] $end
$scope begin _gen[0] $end
$upscope $end
$scope begin _gen[1] $end
$upscope $end
$scope begin _gen[2] $end
$upscope $end
$scope begin _gen[3] $end
$upscope $end
$scope begin _gen[4] $end
$upscope $end
$upscope $end
$upscope $end
$upscope $end
$upscope $end
$enddefinitions $end
#0
$dumpvars
b11 L
b10000 K
b11 J
b1 I
b10000 H
b100 G
b1110 F
b100 E
b0 D
b1110 C
b100 B
b10 A
b11111 @
b11111 ?
b0 >
b1 =
b1 <
b10 ;
b1 :
b111 9
b111 8
bx 7
bx 6
b1 5
04
b1 3
02
b10 1
b1 0
1/
0.
b0 -
b0 ,
b0 +
b111 *
1)
0(
0'
b11111 &
b1 %
b10 $
0#
b1 "
0!
$end
#10
b0 ,
b1 A
b0 &
b0 ?
b0 =
b0 I
b1 >
b1 D
b100 J
b100 L
b11 E
b11 G
b1 %
b1 <
b10 $
b10 ;
0)
b1100 H
b1100 K
1#
b10 "
b10 :
b10010 C
b10010 F
0.
b0 -
b0 +
b0 @
b1001 9
0/
b10 3
12
b1001 *
b1001 8
b10 5
#20
b11 A
b11110 &
b11110 ?
b10 =
b10 I
b0 >
b0 D
b10 J
b10 L
b100 E
b100 G
b0 %
b0 <
b11 $
b11 ;
1)
b11000 H
b11000 K
0#
b1 "
b1 :
b110 C
b110 F
0.
b0 -
b0 ,
b0 +
b11110 @
b11 9
b0 0
1/
b1 3
b11 1
02
b11 *
b11 8
b11 5
#30
0)
b0 =
b0 I
b1 >
b1 D
b100 J
b100 L
b11 E
b11 G
b1 A
b1 %
b1 <
b10 $
b10 ;
b0 &
b0 ?
1#
b1100 H
b1100 K
b10 "
b10 :
b10010 C
b10010 F
0.
b0 -
b0 ,
b0 +
1!
b0 @
b1001 9
b1 0
0/
b10 3
b10 1
12
14
b10111 *
b10111 8
b100 5
#40
b11 $
b11 ;
b0 A
b1 &
b1 ?
b10 >
b10 D
b10 E
b10 G
b110 H
b110 K
b110 "
b110 :
b11000 C
b11000 F
b0 %
b0 <
b1100 9
0.
b0 -
b0 ,
0!
b1 @
b0 0
b110 3
b11 1
04
b1100 *
b1100 8
b101 5
#50
b100 $
b100 ;
b11110 A
b11 &
b11 ?
b100 >
b100 D
b0 E
b0 G
b0 +
0)
b0 H
b0 K
b1111 "
b1111 :
b11110 C
b11110 F
x.
bx -
b11 @
b1111 9
b11110 3
b101 1
b1111 *
b1111 8
b110 5
#60
0.
b0 -
b0 +
0)
b10 $
b10 ;
b1 =
b1 I
b0 >
b0 D
b11 J
b11 L
b100 E
b100 G
b10 A
b11111 &
b11111 ?
b10110 H
b10110 K
0#
b1 "
b1 :
b1000 C
b1000 F
b11111 @
b100 9
b1 3
b10 1
02
b100 *
b100 8
b111 5
#70
b11 $
b11 ;
b11 A
b11110 &
b11110 ?
b10 =
b10 I
b10 J
b10 L
0.
b0 -
b0 +
0)
b11010 H
b11010 K
b1 "
b1 :
b100 C
b100 F
b11110 @
b10 9
b11 1
b10 *
b10 8
b1000 5
#80
b1 =
b1 I
b0 >
b0 D
b11 J
b11 L
b100 E
b100 G
b10 A
b1 %
b1 <
b10 $
b10 ;
b11111 &
b11111 ?
b0 -
b0 +
0)
b10100 H
b10100 K
0#
b1 "
b1 :
b1010 C
b1010 F
0.
b0 ,
1!
b11111 @
b101 9
b1 0
b10 1
14
b11011 *
b11011 8
b1001 5
#90
b100 $
b100 ;
b101 A
b11100 &
b11100 ?
b100 =
b100 I
b0 J
b0 L
b11110 H
b11110 K
b0 "
b0 :
b0 C
b0 F
b0 %
b0 <
b0 9
0.
b0 -
b0 ,
0!
b11100 @
b0 0
b0 3
bx 1
x2
04
1'
b0 *
b0 8
b1010 5
#100
b0 ,
b0 %
b0 <
1)
b10 $
b10 ;
b1 =
b1 I
b0 >
b0 D
b11 J
b11 L
b100 E
b100 G
b10 A
b11111 &
b11111 ?
b10010 H
b10010 K
0#
b1 "
b1 :
b1100 C
b1100 F
0.
b0 -
b0 +
1!
b11111 @
b110 9
1/
b1 3
b10 1
02
14
0'
b11010 *
b11010 8
b1011 5
#110
0)
b11110 A
b11 &
b11 ?
b0 =
b0 I
b100 >
b100 D
b100 J
b100 L
b0 E
b0 G
b100 $
b100 ;
b0 H
b0 K
1#
b1111 "
b1111 :
b0 ,
b11110 C
b11110 F
b0 %
b0 <
b1111 9
x.
bx -
b0 +
b11 @
0/
b11110 3
b101 1
12
b10001 *
b10001 8
b1100 5
#120
0.
b0 -
1)
b0 ,
b0 %
b0 <
b11 $
b11 ;
b10 =
b10 I
b0 >
b0 D
b10 J
b10 L
b100 E
b100 G
b11 A
b11110 &
b11110 ?
b11000 H
b11000 K
0#
b1 "
b1 :
b110 C
b110 F
b11 9
b0 +
b11110 @
1/
b1 3
b11 1
02
b11101 *
b11101 8
b1101 5
#130
0)
b100 $
b100 ;
b100 A
b11101 &
b11101 ?
b11 =
b11 I
b1 J
b1 L
b0 -
b11100 H
b11100 K
b1 "
b1 :
b10 C
b10 F
b1 9
0.
b0 +
0!
b11101 @
0/
b100 1
04
b1 *
b1 8
b1110 5
#140
b0 ,
b0 %
b0 <
b0 +
0)
b11 $
b11 ;
b10 =
b10 I
b0 >
b0 D
b10 J
b10 L
b100 E
b100 G
b11 A
b11110 &
b11110 ?
0.
b0 -
b11010 H
b11010 K
0#
b1 "
b1 :
b100 C
b100 F
1!
b11110 @
b10 9
b11 1
14
b11110 *
b11110 8
b1111 5
#150
b0 =
b0 I
b1 >
b1 D
b100 J
b100 L
b11 E
b11 G
b1 A
b1 %
b1 <
b10 $
b10 ;
b0 &
b0 ?
1)
b1000 H
b1000 K
1#
b10 "
b10 :
b10110 C
b10110 F
b1011 9
0.
b0 -
b0 ,
b0 +
0!
b0 @
b1 0
1/
b10 3
b10 1
12
04
b1011 *
b1011 8
b10000 5
#160
0)
b1110 H
b1110 K
b10000 C
b10000 F
0.
b0 +
1!
b11000 @
b0 %
b0 <
b1000 9
b0 0
0/
14
b11000 *
b11000 8
b10001 5
#170
b11 $
b11 ;
b0 A
b1 &
b1 ?
b10 >
b10 D
b10 E
b10 G
b110 H
b110 K
b110 "
b110 :
b11000 C
b11000 F
b1100 9
0.
b0 -
b1 @
b110 3
b11 1
b10100 *
b10100 8
b10010 5
#180
1)
b10 $
b10 ;
b1 A
b0 &
b0 ?
b1 >
b1 D
b11 E
b11 G
b1010 H
b1010 K
b10 "
b10 :
b10100 C
b10100 F
b1010 9
0.
b0 -
b0 +
b0 @
1/
b10 3
b10 1
b10110 *
b10110 8
b10011 5
#190
b11 $
b11 ;
b0 A
b1 &
b1 ?
b10 >
b10 D
b10 E
b10 G
b0 +
1)
b100 H
b100 K
b110 "
b110 :
b0 ,
b11010 C
b11010 F
b0 %
b0 <
b1101 9
0.
b0 -
b1 @
b110 3
b11 1
b10011 *
b10011 8
b10100 5
#200
b100 $
b100 ;
b11111 A
b10 &
b10 ?
b11 >
b11 D
b1 E
b1 G
0)
b10 H
b10 K
b1110 "
b1110 :
b11100 C
b11100 F
b1110 9
0.
b0 -
b0 +
0!
b10 @
0/
b1110 3
b100 1
04
b1110 *
b1110 8
b10101 5
#210
b0 +
0)
b10 $
b10 ;
b1 =
b1 I
b0 >
b0 D
b11 J
b11 L
b100 E
b100 G
b10 A
b11111 &
b11111 ?
0#
b10110 H
b10110 K
b1 "
b1 :
b1000 C
b1000 F
0.
b0 -
1!
b11111 @
b100 9
b1 3
b10 1
02
14
b11100 *
b11100 8
b10110 5
#220
b1 A
b0 &
b0 ?
b0 =
b0 I
b1 >
b1 D
b100 J
b100 L
b11 E
b11 G
b10 $
b10 ;
1)
b1000 H
b1000 K
1#
b10 "
b10 :
b10110 C
b10110 F
b1 %
b1 <
b1011 9
0.
b0 -
b0 ,
b0 +
b0 @
b1 0
1/
b10 3
12
b10101 *
b10101 8
b10111 5
#230
b1010 H
b1010 K
b10100 C
b10100 F
b0 %
b0 <
b1010 9
0.
b0 ,
0!
b1010 @
b0 0
04
b1010 *
b1010 8
b11000 5
#240
b0 +
1)
b10 A
b11111 &
b11111 ?
b1 =
b1 I
b0 >
b0 D
b11 J
b11 L
b0 ,
b100 E
b100 G
b0 %
b0 <
b10 $
b10 ;
b10010 H
b10010 K
0#
b1 "
b1 :
b1100 C
b1100 F
0.
b0 -
b11111 @
b110 9
b1 3
02
b110 *
b110 8
b11001 5
#250
b0 A
b1 &
b1 ?
b0 =
b0 I
b10 >
b10 D
b100 J
b100 L
b10 E
b10 G
b11 $
b11 ;
b0 +
1)
b100 H
b100 K
1#
b110 "
b110 :
b11010 C
b11010 F
0.
b0 -
b0 ,
b1 @
b0 %
b0 <
b1101 9
b110 3
b11 1
12
b1101 *
b1101 8
b11010 5
#260
b0 +
b1 =
b1 I
1)
b11 J
b11 L
b0 >
b0 D
b100 E
b100 G
b10 A
b1 %
b1 <
b10 $
b10 ;
b11111 &
b11111 ?
0#
b10000 H
b10000 K
b1 "
b1 :
b1110 C
b1110 F
0.
b0 -
b0 ,
1!
b11111 @
b111 9
b1 0
b1 3
b10 1
02
14
b11001 *
b11001 8
b11011 5
#270
b100 $
b100 ;
b101 A
b11100 &
b11100 ?
b100 =
b100 I
b0 J
b0 L
0)
b11110 H
b11110 K
b0 "
b0 :
b0 C
b0 F
b0 %
b0 <
b10000 9
0.
b0 -
b0 ,
b0 +
b11100 @
b0 0
0/
b0 3
bx 1
x2
1(
b10000 *
b10000 8
b11100 5
#280
b0 +
0)
b0 ,
b0 =
b0 I
b0 %
b0 <
b100 $
b100 ;
b11 >
b11 D
b100 J
b100 L
b1 E
b1 G
b11111 A
b10 &
b10 ?
b10 H
b10 K
1#
b1110 "
b1110 :
b11100 C
b11100 F
b1110 9
0.
b0 -
b10 @
b1110 3
b100 1
12
0(
b10010 *
b10010 8
b11101 5
#290
b0 +
0)
b1 %
b1 <
b10 $
b10 ;
b1 =
b1 I
b0 >
b0 D
b11 J
b11 L
b100 E
b100 G
b10 A
b11111 &
b11111 ?
b10100 H
b10100 K
0#
b1 "
b1 :
b1010 C
b1010 F
b101 9
0.
b0 -
b0 ,
0!
b11111 @
b1 0
b1 3
b10 1
02
04
b101 *
b101 8
b11110 5
#300
b1 A
b0 &
b0 ?
b0 =
b0 I
b1 >
b1 D
b100 J
b100 L
b11 E
b11 G
b10 $
b10 ;
b1110 H
b1110 K
1#
b10 "
b10 :
b10000 C
b10000 F
0.
b0 -
b0 @
b0 %
b0 <
b1000 9
b0 0
b10 3
12
b1000 *
b1000 8
b11111 5
