waveforms/tb_posit_decode_P8E0.vcd
$date
	Sun Dec 19 10:01:46 2021
$end
$version
	Icarus Verilog
$end
$timescale
	1s
$end
$scope module tb_posit_decode $end
$var wire 2 ! exp [-1:0] $end
$var wire 1 " sign $end
$var wire 8 # regime_bits [7:0] $end
$var wire 1 $ reg_s $end
$var wire 3 % reg_len [2:0] $end
$var wire 8 & mant [7:0] $end
$var wire 8 ' k [7:0] $end
$var wire 1 ( is_zero $end
$var wire 1 ) is_inf $end
$var reg 8 * bits [7:0] $end
$var reg 8 + diff_exp [7:0] $end
$var reg 8 , diff_mant [7:0] $end
$var reg 8 - diff_regime_bits [7:0] $end
$var reg 1 . err $end
$var reg 2 / exp_expected [-1:0] $end
$var reg 8 0 mant_expected [7:0] $end
$var reg 3 1 reg_len_expected [2:0] $end
$var reg 1 2 reg_s_expected $end
$var reg 8 3 regime_bits_expected [7:0] $end
$var reg 1 4 sign_expected $end
$var reg 1 5 test_no $end
$scope function abs $end
$var reg 8 6 in [7:0] $end
$upscope $end
$scope function c2 $end
$var reg 8 7 a [7:0] $end
$upscope $end
$scope module posit_decode_inst $end
$var wire 8 8 bits [7:0] $end
$var wire 2 9 exp [-1:0] $end
$var wire 8 : u_bits [7:0] $end
$var wire 1 " sign $end
$var wire 8 ; regime_bits [7:0] $end
$var wire 1 $ reg_s $end
$var wire 3 < reg_len [2:0] $end
$var wire 8 = mant [7:0] $end
$var wire 3 > leading_zeros [2:0] $end
$var wire 3 ? leading_ones [2:0] $end
$var wire 8 @ k [7:0] $end
$var wire 1 ( is_zero $end
$var wire 1 ) is_inf $end
$scope function c2 $end
$var reg 8 A a [7:0] $end
$upscope $end
$scope function min $end
$var reg 8 B a [7:0] $end
$var reg 8 C b [7:0] $end
$upscope $end
$scope module clo_inst_o $end
$var wire 8 D bits [7:0] $end
$var wire 3 E leading_ones [2:0] $end
$var wire 3 F index_highest_set [2:0] $end
$scope module highest_set_inst $end
$var wire 8 G bits [7:0] $end
$var wire 3 H index [2:0] $end
$scope begin _gen[0] $end
$upscope $end
$scope begin _gen[1] $end
$upscope $end
$scope begin _gen[2] $end
$upscope $end
$scope begin _gen[3] $end
$upscope $end
$scope begin _gen[4] $end
$upscope $end
$scope begin _gen[5] $end
$upscope $end
$scope begin _gen[6] $end
$upscope $end
$scope begin _gen[7] $end
$upscope $end
$upscope $end
$upscope $end
$scope module clo_inst_z $end
$var wire 8 I bits [7:0] $end
$var wire 3 J leading_ones [2:0] $end
$var wire 3 K index_highest_set [2:0] $end
$scope module highest_set_inst $end
$var wire 8 L bits [7:0] $end
$var wire 3 M index [2:0] $end
$scope begin _gen[0] $end
$upscope $end
$scope begin _gen[1] $end
$upscope $end
$scope begin _gen[2] $end
$upscope $end
$scope begin _gen[3] $end
$upscope $end
$scope begin _gen[4] $end
$upscope $end
$scope begin _gen[5] $end
$upscope $end
$scope begin _gen[6] $end
$upscope $end
$scope begin _gen[7] $end
$upscope $end
$upscope $end
$upscope $end
$upscope $end
$upscope $end
$enddefinitions $end
#0
$dumpvars
b110 M
b10000110 L
b110 K
b1 J
b10000110 I
b111 H
b1111000 G
b111 F
b0 E
b1111000 D
b111 C
b10 B
b11111111 A
b11111111 @
b0 ?
b1 >
b11100 =
b10 <
b1 ;
b111100 :
b0 9
b111100 8
bx 7
b0 6
15
04
b1 3
02
b10 1
b11100 0
b0 /
0.
b0 -
b0 ,
b0 +
b111100 *
0)
0(
b11111111 '
b11100 &
b10 %
0$
b1 #
0"
b0 !
$end
#10
b0 ,
b1 B
b0 '
b0 @
b0 >
b0 J
b1 ?
b1 E
b111 K
b111 M
b110 F
b110 H
b10 %
b10 <
b1100100 I
b1100100 L
1$
b10 #
b10 ;
b10011010 D
b10011010 G
0.
b0 -
b11110100 7
b0 6
b0 A
b1101 &
b1101 =
b1001101 :
b1101 0
b10 3
12
b1001101 *
b1001101 8
05
#20
b11 B
b11111110 '
b11111110 @
b10 >
b10 J
b0 ?
b0 E
b101 K
b101 M
b111 F
b111 H
b11 %
b11 <
b11111000 7
b11001010 I
b11001010 L
0$
b1 #
b1 ;
b110100 D
b110100 G
0.
b0 -
b0 ,
b0 6
b11111110 A
b1010 &
b1010 =
b11010 :
b1010 0
b1 3
b11 1
02
b11010 *
b11010 8
15
#30
b0 >
b0 J
b1 ?
b1 E
b111 K
b111 M
b0 ,
b110 F
b110 H
b1 B
b10 %
b10 <
b0 '
b0 @
1$
b1101110 I
b1101110 L
b10 #
b10 ;
b10010000 D
b10010000 G
0.
b0 -
b11111000 7
b0 6
1"
b0 A
b1000 &
b1000 =
b1001000 :
b1000 0
b10 3
b10 1
12
14
b10111000 *
b10111000 8
05
#40
b11 %
b11 <
b0 B
b1 '
b1 @
b10 ?
b10 E
b101 F
b101 H
b110100 I
b110100 L
b110 #
b110 ;
b11001010 D
b11001010 G
b101 &
b101 =
b1100101 :
0.
b0 -
b11111101 7
b0 ,
b0 6
0"
b1 A
b101 0
b110 3
b11 1
04
b1100101 *
b1100101 8
15
#50
b101 %
b101 <
b11111110 B
b11 '
b11 @
b100 ?
b100 E
b11 F
b11 H
b1010 I
b1010 L
b11110 #
b11110 ;
b11110100 D
b11110100 G
0.
b0 -
b11111110 7
b0 ,
b0 6
b11 A
b10 &
b10 =
b1111010 :
b10 0
b11110 3
b101 1
b1111010 *
b1111010 8
05
#60
b1 >
b1 J
b0 ?
b0 E
b110 K
b110 M
b111 F
b111 H
b10 B
b10 %
b10 <
b11111111 '
b11111111 @
b10110000 I
b10110000 L
0$
b1 #
b1 ;
b1001110 D
b1001110 G
0.
b0 -
b0 ,
b11111111 7
b0 6
b11111111 A
b111 &
b111 =
b100111 :
b111 0
b1 3
b10 1
02
b100111 *
b100111 8
15
#70
b11111100 7
b11 %
b11 <
b11 B
b11111110 '
b11111110 @
b10 >
b10 J
b101 K
b101 M
b0 -
b11010000 I
b11010000 L
b1 #
b1 ;
0.
b0 ,
b0 6
b101110 D
b101110 G
b11111110 A
b111 &
b111 =
b10111 :
b11 1
b10111 *
b10111 8
05
#80
b11011100 I
b11011100 L
b100010 D
b100010 G
b10001 A
b1 &
b1 =
b10001 :
b1 0
b10001 *
b10001 8
15
#90
b101 %
b101 <
b101 B
b11111100 '
b11111100 @
b100 >
b100 J
b11 K
b11 M
b0 -
b11111111 7
b11110100 I
b11110100 L
b1 #
b1 ;
0.
b0 ,
b0 6
b1010 D
b1010 G
b11111100 A
b1 &
b1 =
b101 :
b101 1
b101 *
b101 8
05
#100
b0 >
b0 J
b10 ?
b10 E
b111 K
b111 M
b101 F
b101 H
b0 B
b11 %
b11 <
b1 '
b1 @
b110010 I
b110010 L
1$
b110 #
b110 ;
b11001100 D
b11001100 G
0.
b0 -
b0 ,
b11111101 7
b0 6
b1 A
b110 &
b110 =
b1100110 :
b110 0
b110 3
b11 1
12
b1100110 *
b1100110 8
15
#110
b0 >
b0 J
b11 ?
b11 E
b111 K
b111 M
b100 F
b100 H
b11111111 B
b100 %
b100 <
b10 '
b10 @
b10110 I
b10110 L
1$
b1110 #
b1110 ;
b11101000 D
b11101000 G
0.
b0 -
b11111100 7
b0 ,
b0 6
1"
b10 A
b100 &
b100 =
b1110100 :
b100 0
b1110 3
b100 1
14
b10001100 *
b10001100 8
05
#120
b10 >
b10 J
b0 ?
b0 E
b101 K
b101 M
b111 F
b111 H
b11 B
b11 %
b11 <
b11111110 '
b11111110 @
b11010010 I
b11010010 L
0$
b1 #
b1 ;
b101100 D
b101100 G
b110 &
b110 =
b10110 :
0.
b0 -
b0 ,
b11111111 7
b0 6
b11111110 A
b110 0
b1 3
b11 1
02
b11101010 *
b11101010 8
15
#130
b0 >
b0 J
b1 ?
b1 E
b111 K
b111 M
b110 F
b110 H
b1 B
b10 %
b10 <
b0 '
b0 @
b1101010 I
b1101010 L
1$
b10 #
b10 ;
b10010100 D
b10010100 G
b1010 &
b1010 =
b1001010 :
0.
b0 -
b0 ,
b11111111 7
b0 6
0"
b0 A
b1010 0
b10 3
b10 1
12
04
b1001010 *
b1001010 8
05
#140
b10 B
b11111111 '
b11111111 @
b1 >
b1 J
b0 ?
b0 E
b110 K
b110 M
b111 F
b111 H
b10 %
b10 <
0$
b1 #
b1 ;
b10010110 I
b10010110 L
b1101000 D
b1101000 G
0.
b0 -
b0 ,
b11110000 7
b0 6
1"
b11111111 A
b10100 &
b10100 =
b110100 :
b10100 0
b1 3
02
14
b11001100 *
b11001100 8
15
#150
b10000100 I
b10000100 L
b1111010 D
b1111010 G
b11101 &
b11101 =
b111101 :
0.
b0 ,
b11110111 7
b0 6
b11000011 A
b11101 0
b11000011 *
b11000011 8
05
#160
b100 %
b100 <
b100 B
b11111101 '
b11111101 @
b11 >
b11 J
b100 K
b100 M
b0 -
b11111111 7
b11100000 I
b11100000 L
b1 #
b1 ;
b11110 D
b11110 G
b111 &
b111 =
b1111 :
0.
b0 ,
b0 6
0"
b11111101 A
b111 0
b100 1
04
b1111 *
b1111 8
15
#170
b10 %
b10 <
b10 B
b11111111 '
b11111111 @
b1 >
b1 J
b110 K
b110 M
b0 -
b10001110 I
b10001110 L
b1 #
b1 ;
b1110000 D
b1110000 G
0.
b0 ,
b11101000 7
b0 6
b11111111 A
b11000 &
b11000 =
b111000 :
b11000 0
b10 1
b111000 *
b111000 8
05
#180
b11111110 B
b11 '
b11 @
b0 >
b0 J
b100 ?
b100 E
b111 K
b111 M
b11 F
b11 H
b101 %
b101 <
1$
b1000 I
b1000 L
b11110 #
b11110 ;
b11110110 D
b11110110 G
0.
b0 -
b11111110 7
b0 ,
b0 6
1"
b11 A
b11 &
b11 =
b1111011 :
b11 0
b11110 3
b101 1
12
14
b10000101 *
b10000101 8
15
#190
b111 &
b111 =
b100 %
b100 <
b11111111 B
b10 '
b10 @
b11 ?
b11 E
b100 F
b100 H
b10000 I
b10000 L
b1110 #
b1110 ;
b11101110 D
b11101110 G
b1110111 :
0.
b0 -
b0 ,
b11111100 7
b0 6
b10 A
b111 0
b1110 3
b100 1
b10001001 *
b10001001 8
05
#200
b10 %
b10 <
b1 B
b0 '
b0 @
b1 ?
b1 E
b110 F
b110 H
b1000110 I
b1000110 L
b10 #
b10 ;
b10111000 D
b10111000 G
b11100 &
b11100 =
b1011100 :
0.
b0 -
b0 ,
b11101000 7
b0 6
0"
b0 A
b11100 0
b10 3
b10 1
04
b1011100 *
b1011100 8
15
#210
b1110010 I
b1110010 L
b10001100 D
b10001100 G
b1000110 A
b110 &
b110 =
b1000110 :
b110 0
b1000110 *
b1000110 8
05
#220
b10 B
b11111111 '
b11111111 @
b1 >
b1 J
b0 ?
b0 E
b110 K
b110 M
b111 F
b111 H
b10 %
b10 <
0$
b1 #
b1 ;
b10001100 I
b10001100 L
b1110010 D
b1110010 G
0.
b0 -
b0 ,
b11101000 7
b0 6
1"
b11111111 A
b11001 &
b11001 =
b111001 :
b11001 0
b1 3
02
14
b11000111 *
b11000111 8
15
#230
b10100110 I
b10100110 L
b1011000 D
b1011000 G
b1100 &
b1100 =
b101100 :
0.
b0 ,
b0 6
0"
b101100 A
b1100 0
04
b101100 *
b101100 8
05
#240
b10 B
b11111111 '
b11111111 @
b1 >
b1 J
b0 ?
b0 E
b110 K
b110 M
b111 F
b111 H
b11111000 7
b10 %
b10 <
b0 -
b10100100 I
b10100100 L
0$
b1 #
b1 ;
b1011010 D
b1011010 G
0.
b0 ,
b0 6
1"
b11111111 A
b1101 &
b1101 =
b101101 :
b1101 0
14
b11010011 *
b11010011 8
15
#250
b11 %
b11 <
b11 B
b11111110 '
b11111110 @
b10 >
b10 J
b101 K
b101 M
b0 -
b11111000 7
b11001000 I
b11001000 L
b1 #
b1 ;
b110110 D
b110110 G
b1011 &
b1011 =
b11011 :
0.
b0 ,
b0 6
0"
b11111110 A
b1011 0
b11 1
04
b11011 *
b11011 8
05
#260
b0 >
b0 J
b1 ?
b1 E
b111 K
b111 M
b0 ,
b110 F
b110 H
b1 B
b10 %
b10 <
b0 '
b0 @
b1111000 I
b1111000 L
1$
b10 #
b10 ;
b10000110 D
b10000110 G
0.
b0 -
b11111111 7
b0 6
b0 A
b11 &
b11 =
b1000011 :
b11 0
b10 3
b10 1
12
b1000011 *
b1000011 8
15
#270
b11101010 7
b10 B
b11111111 '
b11111111 @
b1 >
b1 J
b0 ?
b0 E
b110 K
b110 M
b0 ,
b111 F
b111 H
b10 %
b10 <
b10010010 I
b10010010 L
0$
b1 #
b1 ;
b1101100 D
b1101100 G
0.
b0 -
b0 6
b11111111 A
b10110 &
b10110 =
b110110 :
b10110 0
b1 3
02
b110110 *
b110110 8
05
#280
b101 %
b101 <
b101 B
b11111100 '
b11111100 @
b100 >
b100 J
b11 K
b11 M
b0 -
b11111111 7
b11110010 I
b11110010 L
b1 #
b1 ;
b1100 D
b1100 G
0.
b0 ,
b0 6
b11111100 A
b10 &
b10 =
b110 :
b10 0
b101 1
b110 *
b110 8
15
#290
b1 >
b1 J
b0 ?
b0 E
b110 K
b110 M
b111 F
b111 H
b10 B
b10 %
b10 <
b11111111 '
b11111111 @
b0 -
b10100110 I
b10100110 L
0$
b1 #
b1 ;
b1011000 D
b1011000 G
0.
b0 ,
b11110100 7
b0 6
1"
b11111111 A
b1100 &
b1100 =
b101100 :
b1100 0
b10 1
14
b11010100 *
b11010100 8
05
#300
b1 B
b0 '
b0 @
b0 >
b0 J
b1 ?
b1 E
b111 K
b111 M
b110 F
b110 H
b10 %
b10 <
b1000110 I
b1000110 L
1$
b10 #
b10 ;
b10111000 D
b10111000 G
b11100 &
b11100 =
b1011100 :
0.
b0 -
b0 ,
b11110000 7
b0 6
b0 A
b11100 0
b10 3
12
b10100100 *
b10100100 8
15
#310
b10 B
b11111111 '
b11111111 @
b1 >
b1 J
b0 ?
b0 E
b110 K
b110 M
b11110000 7
b111 F
b111 H
b10 %
b10 <
b10011010 I
b10011010 L
0$
b1 #
b1 ;
b1100100 D
b1100100 G
b10010 &
b10010 =
b110010 :
0.
b0 -
b0 ,
b0 6
b11111111 A
b10010 0
b1 3
02
b11001110 *
b11001110 8
05
#320
b1 B
b0 '
b0 @
b0 >
b0 J
b1 ?
b1 E
b111 K
b111 M
b110 F
b110 H
b10 %
b10 <
b1111010 I
b1111010 L
1$
b10 #
b10 ;
b10000100 D
b10000100 G
b10 &
b10 =
b1000010 :
0.
b0 -
b11111111 7
b0 ,
b0 6
0"
b0 A
b10 0
b10 3
12
04
b1000010 *
b1000010 8
15
#330
b11 B
b11111110 '
b11111110 @
b10 >
b10 J
b0 ?
b0 E
b101 K
b101 M
b111 F
b111 H
b11 %
b11 <
0$
b11011110 I
b11011110 L
b1 #
b1 ;
b100000 D
b100000 G
0.
b0 -
b0 ,
b0 6
1"
b11111110 A
b0 &
b0 =
b10000 :
b0 0
b1 3
b11 1
02
14
b11110000 *
b11110000 8
05
#340
b0 >
b0 J
b1 ?
b1 E
b111 K
b111 M
b110 F
b110 H
b1 B
b10 %
b10 <
b0 '
b0 @
b1110100 I
b1110100 L
1$
b10 #
b10 ;
b10001010 D
b10001010 G
b101 &
b101 =
b1000101 :
0.
b0 -
b0 ,
b11111111 7
b0 6
0"
b0 A
b101 0
b10 3
b10 1
12
04
b1000101 *
b1000101 8
15
#350
b11110000 7
b10 B
b11111111 '
b11111111 @
b1 >
b1 J
b0 ?
b0 E
b110 K
b110 M
b0 ,
b111 F
b111 H
b10 %
b10 <
b10011100 I
b10011100 L
0$
b1 #
b1 ;
b1100010 D
b1100010 G
0.
b0 -
b0 6
b11111111 A
b10001 &
b10001 =
b110001 :
b10001 0
b1 3
02
b110001 *
b110001 8
05
#360
b10101010 I
b10101010 L
b1010100 D
b1010100 G
b101010 A
b1010 &
b1010 =
b101010 :
b1010 0
b101010 *
b101010 8
15
#370
b1 B
b0 '
b0 @
b0 >
b0 J
b1 ?
b1 E
b111 K
b111 M
b110 F
b110 H
b10 %
b10 <
b1100000 I
b1100000 L
1$
b10 #
b10 ;
b10011110 D
b10011110 G
0.
b0 -
b11111111 7
b0 6
b0 A
b1111 &
b1111 =
b1001111 :
b1111 0
b10 3
12
b1001111 *
b1001111 8
05
#380
b11111100 7
b100 B
b11111101 '
b11111101 @
b11 >
b11 J
b0 ?
b0 E
b100 K
b100 M
b111 F
b111 H
b100 %
b100 <
0$
b11100000 I
b11100000 L
b1 #
b1 ;
b11110 D
b11110 G
0.
b0 -
b0 ,
b0 6
1"
b11111101 A
b111 &
b111 =
b1111 :
b111 0
b1 3
b100 1
02
14
b11110001 *
b11110001 8
15
#390
b0 >
b0 J
b10 ?
b10 E
b111 K
b111 M
b101 F
b101 H
b0 B
b11 %
b11 <
b1 '
b1 @
b111110 I
b111110 L
1$
b110 #
b110 ;
b11000000 D
b11000000 G
b0 &
b0 =
b1100000 :
0.
b0 -
b11111101 7
b0 ,
b0 6
b1 A
b0 0
b110 3
b11 1
12
b10100000 *
b10100000 8
05
#400
b10 %
b10 <
b1 B
b0 '
b0 @
b1 ?
b1 E
b110 F
b110 H
b1110100 I
b1110100 L
b10 #
b10 ;
b10001010 D
b10001010 G
b101 &
b101 =
b1000101 :
0.
b0 -
b0 ,
b11111011 7
b0 6
b0 A
b101 0
b10 3
b10 1
b10111011 *
b10111011 8
15
#410
b1000000 I
b1000000 L
b10111110 D
b10111110 G
b11111 &
b11111 =
b1011111 :
0.
b0 ,
b11100110 7
b0 6
0"
b1011111 A
b11111 0
04
b1011111 *
b1011111 8
05
#420
b11 B
b11111110 '
b11111110 @
b10 >
b10 J
b0 ?
b0 E
b101 K
b101 M
b111 F
b111 H
b11 %
b11 <
b11111111 7
b11010010 I
b11010010 L
0$
b1 #
b1 ;
b101100 D
b101100 G
0.
b0 -
b0 ,
b0 6
b11111110 A
b110 &
b110 =
b10110 :
b110 0
b1 3
b11 1
02
b10110 *
b10110 8
15
#430
b0 >
b0 J
b10 ?
b10 E
b111 K
b111 M
b101 F
b101 H
b0 B
b11 %
b11 <
b1 '
b1 @
1$
b110 #
b110 ;
b110100 I
b110100 L
b11001010 D
b11001010 G
0.
b0 -
b11111101 7
b0 ,
b0 6
1"
b1 A
b101 &
b101 =
b1100101 :
b101 0
b110 3
12
14
b10011011 *
b10011011 8
05
#440
b10 %
b10 <
b1 B
b0 '
b0 @
b1 ?
b1 E
b110 F
b110 H
b1010010 I
b1010010 L
b10 #
b10 ;
b10101100 D
b10101100 G
b10110 &
b10110 =
b1010110 :
0.
b0 -
b0 ,
b11110000 7
b0 6
0"
b0 A
b10110 0
b10 3
b10 1
04
b1010110 *
b1010110 8
15
#450
b1 B
b0 '
b0 @
b0 >
b0 J
b1 ?
b1 E
b111 K
b111 M
b110 F
b110 H
b10 %
b10 <
b0 -
b1010100 I
b1010100 L
1$
b10 #
b10 ;
b10101010 D
b10101010 G
0.
b0 ,
b11110000 7
b0 6
1"
b0 A
b10101 &
b10101 =
b1010101 :
b10101 0
14
b10101011 *
b10101011 8
05
#460
b11 %
b11 <
b0 B
b1 '
b1 @
b10 ?
b10 E
b101 F
b101 H
b111000 I
b111000 L
b110 #
b110 ;
b11000110 D
b11000110 G
b11 &
b11 =
b1100011 :
0.
b0 -
b11111101 7
b0 ,
b0 6
0"
b1 A
b11 0
b110 3
b11 1
04
b1100011 *
b1100011 8
15
#470
b10000001 7
b0 >
b0 J
b111 ?
b111 E
b111 K
b111 M
b0 F
b0 H
b11111011 B
b111 %
b111 <
b110 '
b110 @
b0 I
b0 L
1$
b1111111 #
b1111111 ;
b11111110 D
b11111110 G
x.
b1111111 -
b0 ,
b10000001 6
1"
b110 A
b0 &
b0 =
b1111111 :
b0 0
b11111110 3
b0 1
14
b10000001 *
b10000001 8
05
#480
0.
b11111 &
b11111 =
b10 %
b10 <
b1 >
b1 J
b0 ?
b0 E
b110 K
b110 M
b111 F
b111 H
b10 B
b11111111 '
b11111111 @
b10000000 I
b10000000 L
0$
b1 #
b1 ;
b1111110 D
b1111110 G
b111111 :
b0 -
b0 ,
b11111111 7
b0 6
0"
b11111111 A
b11111 0
b1 3
b10 1
02
04
b111111 *
b111111 8
15
#490
b10100100 I
b10100100 L
b1011010 D
b1011010 G
b101101 A
b1101 &
b1101 =
b101101 :
b1101 0
b101101 *
b101101 8
05
#500
b10 B
b11111111 '
b11111111 @
b1 >
b1 J
b0 ?
b0 E
b110 K
b110 M
b111 F
b111 H
b10 %
b10 <
b0 -
b10111100 I
b10111100 L
0$
b1 #
b1 ;
b1000010 D
b1000010 G
0.
b0 ,
b0 6
1"
b11111111 A
b1 &
b1 =
b100001 :
b1 0
14
b11011111 *
b11011111 8
15
#510
b11111110 B
b11 '
b11 @
b0 >
b0 J
b100 ?
b100 E
b111 K
b111 M
b11 F
b11 H
b101 %
b101 <
b1100 I
b1100 L
1$
b11110 #
b11110 ;
b0 ,
b11110010 D
b11110010 G
b1 &
b1 =
b1111001 :
0.
b0 -
b11110001 7
b0 6
0"
b11 A
b11110 3
b101 1
12
04
b1111001 *
b1111001 8
05
#520
b10 %
b10 <
b1 B
b0 '
b0 @
b1 ?
b1 E
b110 F
b110 H
b1110000 I
b1110000 L
b10 #
b10 ;
b10001110 D
b10001110 G
0.
b0 -
b0 ,
b11111100 7
b0 6
b0 A
b111 &
b111 =
b1000111 :
b111 0
b10 3
b10 1
b1000111 *
b1000111 8
15
#530
b11 B
b11111110 '
b11111110 @
b10 >
b10 J
b0 ?
b0 E
b101 K
b101 M
b111 F
b111 H
b11 %
b11 <
0$
b11000000 I
b11000000 L
b1 #
b1 ;
b111110 D
b111110 G
0.
b0 -
b0 ,
b11110100 7
b0 6
1"
b11111110 A
b1111 &
b1111 =
b11111 :
b1111 0
b1 3
b11 1
02
14
b11100001 *
b11100001 8
05
#540
b100 %
b100 <
b100 B
b11111101 '
b11111101 @
b11 >
b11 J
b100 K
b100 M
b0 -
b11111111 7
b11100100 I
b11100100 L
b1 #
b1 ;
b11010 D
b11010 G
b101 &
b101 =
b1101 :
0.
b0 ,
b0 6
b11111101 A
b101 0
b100 1
b11110011 *
b11110011 8
15
#550
b0 >
b0 J
b1 ?
b1 E
b111 K
b111 M
b110 F
b110 H
b1 B
b10 %
b10 <
b0 '
b0 @
b1100110 I
b1100110 L
1$
b10 #
b10 ;
b10011000 D
b10011000 G
b1100 &
b1100 =
b1001100 :
0.
b0 -
b0 ,
b11111111 7
b0 6
0"
b0 A
b1100 0
b10 3
b10 1
12
04
b1001100 *
b1001100 8
05
#560
b111 B
b11111010 '
b11111010 @
b110 >
b110 J
b0 ?
b0 E
b1 K
b1 M
b111 F
b111 H
b111 %
b111 <
b11111100 I
b11111100 L
0$
b1 #
b1 ;
b10 D
b10 G
0.
b0 -
b0 ,
b0 6
b11111010 A
b0 &
b0 =
b1 :
b0 0
b1 3
b111 1
02
b1 *
b1 8
15
#570
b1000 &
b1000 =
b10 %
b10 <
b1 >
b1 J
b0 ?
b0 E
b110 K
b110 M
b111 F
b111 H
b10 B
b11111111 '
b11111111 @
b0 -
b10101110 I
b10101110 L
0$
b1 #
b1 ;
b1010000 D
b1010000 G
0.
b0 ,
b11111000 7
b0 6
1"
b11111111 A
b101000 :
b1000 0
b10 1
14
b11011000 *
b11011000 8
05
#580
b0 B
b1 '
b1 @
b0 >
b0 J
b10 ?
b10 E
b111 K
b111 M
b101 F
b101 H
b11 %
b11 <
b100010 I
b100010 L
1$
b110 #
b110 ;
b11011100 D
b11011100 G
b1110 &
b1110 =
b1101110 :
0.
b0 -
b0 ,
b11111011 7
b0 6
b1 A
b1110 0
b110 3
b11 1
12
b10010010 *
b10010010 8
15
#590
b10 %
b10 <
b1 B
b0 '
b0 @
b1 ?
b1 E
b110 F
b110 H
b1100110 I
b1100110 L
b10 #
b10 ;
b10011000 D
b10011000 G
b1100 &
b1100 =
b1001100 :
0.
b0 -
b0 ,
b0 6
b0 A
b1100 0
b10 3
b10 1
b10110100 *
b10110100 8
05
#600
b10 B
b11111111 '
b11111111 @
b1 >
b1 J
b0 ?
b0 E
b110 K
b110 M
b11111111 7
b111 F
b111 H
b10 %
b10 <
b10110000 I
b10110000 L
0$
b1 #
b1 ;
b1001110 D
b1001110 G
b111 &
b111 =
b100111 :
0.
b0 -
b0 ,
b0 6
b11111111 A
b111 0
b1 3
02
b11011001 *
b11011001 8
15
#610
b11111100 B
b101 '
b101 @
b0 >
b0 J
b110 ?
b110 E
b111 K
b111 M
b1 F
b1 H
b111 %
b111 <
b10 I
b10 L
1$
b1111110 #
b1111110 ;
b11111100 D
b11111100 G
b0 &
b0 =
b1111110 :
0.
b0 -
b10010001 7
b0 ,
b0 6
b101 A
b0 0
b1111110 3
b111 1
12
b10000010 *
b10000010 8
05
#620
b101 &
b101 =
b10 %
b10 <
b1 >
b1 J
b0 ?
b0 E
b110 K
b110 M
b111 F
b111 H
b10 B
b11111111 '
b11111111 @
b10110100 I
b10110100 L
0$
b1 #
b1 ;
b1001010 D
b1001010 G
b100101 :
0.
b0 -
b0 ,
b11111111 7
b0 6
b11111111 A
b101 0
b1 3
b10 1
02
b11011011 *
b11011011 8
15
#630
b0 B
b1 '
b1 @
b0 >
b0 J
b10 ?
b10 E
b111 K
b111 M
b101 F
b101 H
b11 %
b11 <
b101100 I
b101100 L
1$
b110 #
b110 ;
b11010010 D
b11010010 G
b1001 &
b1001 =
b1101001 :
0.
b0 -
b0 ,
b11111011 7
b0 6
0"
b1 A
b1001 0
b110 3
b11 1
12
04
b1101001 *
b1101001 8
05
#640
b100110 I
b100110 L
b11011000 D
b11011000 G
b1101100 A
b1100 &
b1100 =
b1101100 :
b1100 0
b1101100 *
b1101100 8
15
#650
b0 >
b0 J
b10 ?
b10 E
b111 K
b111 M
b101 F
b101 H
b11111010 7
b0 B
b11 %
b11 <
b1 '
b1 @
b0 -
b110000 I
b110000 L
1$
b110 #
b110 ;
b11001110 D
b11001110 G
0.
b0 ,
b0 6
1"
b1 A
b111 &
b111 =
b1100111 :
b111 0
14
b10011001 *
b10011001 8
05
#660
b10 %
b10 <
b1 B
b0 '
b0 @
b1 ?
b1 E
b110 F
b110 H
b1101100 I
b1101100 L
b10 #
b10 ;
b10010010 D
b10010010 G
b1001 &
b1001 =
b1001001 :
0.
b0 -
b0 ,
b11111110 7
b0 6
0"
b0 A
b1001 0
b10 3
b10 1
04
b1001001 *
b1001001 8
15
#670
b11 %
b11 <
b0 B
b1 '
b1 @
b10 ?
b10 E
b101 F
b101 H
b100010 I
b100010 L
b110 #
b110 ;
b11011100 D
b11011100 G
0.
b0 -
b11111101 7
b0 6
b1 A
b1110 &
b1110 =
b1101110 :
b1110 0
b110 3
b11 1
b1101110 *
b1101110 8
05
#680
b0 ,
b100 %
b100 <
b11111111 B
b10 '
b10 @
b11 ?
b11 E
b100 F
b100 H
b11000 I
b11000 L
b1110 #
b1110 ;
b11100110 D
b11100110 G
0.
b0 -
b11111101 7
b0 6
b10 A
b11 &
b11 =
b1110011 :
b11 0
b1110 3
b100 1
b1110011 *
b1110011 8
15
#690
b1 >
b1 J
b0 ?
b0 E
b110 K
b110 M
b111 F
b111 H
b10 B
b10 %
b10 <
b11111111 '
b11111111 @
b10101100 I
b10101100 L
0$
b1 #
b1 ;
b1010010 D
b1010010 G
0.
b0 -
b0 ,
b11111111 7
b0 6
b11111111 A
b1001 &
b1001 =
b101001 :
b1001 0
b1 3
b10 1
02
b101001 *
b101001 8
05
#700
b10001000 I
b10001000 L
b1110110 D
b1110110 G
b111011 A
b11011 &
b11011 =
b111011 :
b11011 0
b111011 *
b111011 8
15
#710
b0 ,
b11110100 7
b1 B
b0 '
b0 @
b0 >
b0 J
b1 ?
b1 E
b111 K
b111 M
b110 F
b110 H
b10 %
b10 <
b1100010 I
b1100010 L
1$
b10 #
b10 ;
b10011100 D
b10011100 G
0.
b0 -
b0 6
b0 A
b1110 &
b1110 =
b1001110 :
b1110 0
b10 3
12
b1001110 *
b1001110 8
05
#720
b10 B
b11111111 '
b11111111 @
b1 >
b1 J
b0 ?
b0 E
b110 K
b110 M
b11111111 7
b111 F
b111 H
b10 %
b10 <
0$
b1 #
b1 ;
b10111010 I
b10111010 L
b1000100 D
b1000100 G
0.
b0 -
b0 ,
b0 6
1"
b11111111 A
b10 &
b10 =
b100010 :
b10 0
b1 3
02
14
b11011110 *
b11011110 8
15
#730
b11111110 7
b100 %
b100 <
b100 B
b11111101 '
b11111101 @
b11 >
b11 J
b100 K
b100 M
b0 -
b11101000 I
b11101000 L
b1 #
b1 ;
b10110 D
b10110 G
b11 &
b11 =
b1011 :
0.
b0 ,
b0 6
0"
b11111101 A
b11 0
b100 1
04
b1011 *
b1011 8
05
#740
b11 %
b11 <
b11 B
b11111110 '
b11111110 @
b10 >
b10 J
b101 K
b101 M
0.
b0 -
b0 6
b11010110 I
b11010110 L
b1 #
b1 ;
b101000 D
b101000 G
b11111110 A
b100 &
b100 =
b10100 :
b100 0
b11 1
b10100 *
b10100 8
15
#750
b0 >
b0 J
b1 ?
b1 E
b111 K
b111 M
b110 F
b110 H
b1 B
b10 %
b10 <
b0 '
b0 @
1$
b1101000 I
b1101000 L
b10 #
b10 ;
b10010110 D
b10010110 G
0.
b0 -
b0 ,
b11111000 7
b0 6
1"
b0 A
b1011 &
b1011 =
b1001011 :
b1011 0
b10 3
b10 1
12
14
b10110101 *
b10110101 8
05
#760
b100 %
b100 <
b11111111 B
b10 '
b10 @
b11 ?
b11 E
b100 F
b100 H
b10010 I
b10010 L
b1110 #
b1110 ;
b11101100 D
b11101100 G
b110 &
b110 =
b1110110 :
0.
b0 -
b11111100 7
b0 ,
b0 6
0"
b10 A
b110 0
b1110 3
b100 1
04
b1110110 *
b1110110 8
15
