src/mul8_tb.vcd
$date
	Thu Nov 18 20:21:43 2021
$end
$version
	Icarus Verilog
$end
$timescale
	1s
$end
$scope module mul8_tb $end
$var wire 8 ! p8c [7:0] $end
$var reg 1 " inputs_are_positive $end
$var reg 8 # p8c_exp [7:0] $end
$var reg 8 $ p8x [7:0] $end
$var reg 8 % p8y [7:0] $end
$var reg 1 & z_diff $end
$scope module mul8_inst $end
$var wire 8 ' p8x [7:0] $end
$var wire 8 ( p8y [7:0] $end
$var wire 1 ) sy $end
$var wire 1 * sx $end
$var wire 3 + ry [2:0] $end
$var wire 3 , rx [2:0] $end
$var wire 8 - p8c [7:0] $end
$var wire 8 . ky [7:0] $end
$var wire 8 / kx [7:0] $end
$var wire 8 0 fy [7:0] $end
$var wire 8 1 fx [7:0] $end
$var reg 4 2 Fc [3:0] $end
$var reg 3 3 Fx [2:0] $end
$var reg 3 4 Fy [2:0] $end
$var reg 8 5 alpha [7:0] $end
$var reg 8 6 fc_handle [7:0] $end
$var reg 16 7 fce [15:0] $end
$var reg 8 8 fxe [7:0] $end
$var reg 8 9 fye [7:0] $end
$var reg 8 : kc [7:0] $end
$var reg 8 ; kc_handle [7:0] $end
$var reg 1 < sc $end
$scope module d8x $end
$var wire 8 = p8 [7:0] $end
$var wire 3 > reg_length_w [2:0] $end
$var wire 7 ? k_value_w [6:0] $end
$var reg 8 @ f [7:0] $end
$var reg 8 A k [7:0] $end
$var reg 3 B r [2:0] $end
$var reg 7 C reg_bits_w [6:0] $end
$var reg 1 * s $end
$scope module myreg8 $end
$var wire 7 D regbits [6:0] $end
$var wire 3 E highest1_index [2:0] $end
$var wire 3 F highest0_index [2:0] $end
$var reg 7 G k_val [6:0] $end
$var reg 3 H reg_length [2:0] $end
$scope module high_0 $end
$var wire 7 I bits [6:0] $end
$var wire 3 J index [2:0] $end
$scope begin _gen[0] $end
$upscope $end
$scope begin _gen[1] $end
$upscope $end
$scope begin _gen[2] $end
$upscope $end
$scope begin _gen[3] $end
$upscope $end
$scope begin _gen[4] $end
$upscope $end
$scope begin _gen[5] $end
$upscope $end
$scope begin _gen[6] $end
$upscope $end
$upscope $end
$scope module high_1 $end
$var wire 7 K bits [6:0] $end
$var wire 3 L index [2:0] $end
$scope begin _gen[0] $end
$upscope $end
$scope begin _gen[1] $end
$upscope $end
$scope begin _gen[2] $end
$upscope $end
$scope begin _gen[3] $end
$upscope $end
$scope begin _gen[4] $end
$upscope $end
$scope begin _gen[5] $end
$upscope $end
$scope begin _gen[6] $end
$upscope $end
$upscope $end
$scope begin _ $end
$var reg 7 M leading_count [6:0] $end
$upscope $end
$upscope $end
$scope begin _ $end
$var reg 8 N abs_posit [7:0] $end
$var reg 7 O k_value [6:0] $end
$var reg 1 P pos_sign $end
$var reg 8 Q posit_body [7:0] $end
$var reg 3 R reg_length [2:0] $end
$upscope $end
$upscope $end
$scope module d8y $end
$var wire 8 S p8 [7:0] $end
$var wire 3 T reg_length_w [2:0] $end
$var wire 7 U k_value_w [6:0] $end
$var reg 8 V f [7:0] $end
$var reg 8 W k [7:0] $end
$var reg 3 X r [2:0] $end
$var reg 7 Y reg_bits_w [6:0] $end
$var reg 1 ) s $end
$scope module myreg8 $end
$var wire 7 Z regbits [6:0] $end
$var wire 3 [ highest1_index [2:0] $end
$var wire 3 \ highest0_index [2:0] $end
$var reg 7 ] k_val [6:0] $end
$var reg 3 ^ reg_length [2:0] $end
$scope module high_0 $end
$var wire 7 _ bits [6:0] $end
$var wire 3 ` index [2:0] $end
$scope begin _gen[0] $end
$upscope $end
$scope begin _gen[1] $end
$upscope $end
$scope begin _gen[2] $end
$upscope $end
$scope begin _gen[3] $end
$upscope $end
$scope begin _gen[4] $end
$upscope $end
$scope begin _gen[5] $end
$upscope $end
$scope begin _gen[6] $end
$upscope $end
$upscope $end
$scope module high_1 $end
$var wire 7 a bits [6:0] $end
$var wire 3 b index [2:0] $end
$scope begin _gen[0] $end
$upscope $end
$scope begin _gen[1] $end
$upscope $end
$scope begin _gen[2] $end
$upscope $end
$scope begin _gen[3] $end
$upscope $end
$scope begin _gen[4] $end
$upscope $end
$scope begin _gen[5] $end
$upscope $end
$scope begin _gen[6] $end
$upscope $end
$upscope $end
$scope begin _ $end
$var reg 7 c leading_count [6:0] $end
$upscope $end
$upscope $end
$scope begin _ $end
$var reg 8 d abs_posit [7:0] $end
$var reg 7 e k_value [6:0] $end
$var reg 1 f pos_sign $end
$var reg 8 g posit_body [7:0] $end
$var reg 3 h reg_length [2:0] $end
$upscope $end
$upscope $end
$scope module e8c $end
$var wire 8 i f [7:0] $end
$var wire 8 j k [7:0] $end
$var wire 3 k r [2:0] $end
$var wire 1 < s $end
$var wire 8 l pos_regime [7:0] $end
$var reg 8 m p8 [7:0] $end
$var reg 8 n pos_content [7:0] $end
$var reg 8 o pos_mant [7:0] $end
$var reg 3 p reg_length [2:0] $end
$scope module myger8 $end
$var wire 8 q f_exp [7:0] $end
$var reg 8 r abs_f_exp [7:0] $end
$var reg 8 s regbits [7:0] $end
$scope begin _ $end
$var reg 8 t built_reg [7:0] $end
$var reg 3 u low_exp [2:0] $end
$var reg 8 v reg_placeholder [7:0] $end
$var reg 8 w shifted_reg [7:0] $end
$upscope $end
$upscope $end
$upscope $end
$upscope $end
$upscope $end
$enddefinitions $end
#0
$dumpvars
b11111110 w
b10000000 v
b110 u
b1 t
b1 s
b110 r
b11111010 q
b101 p
b0 o
b1 n
b1 m
b1 l
bz k
b11111010 j
b0 i
b10 h
b1100001 g
0f
b1 e
b1100001 d
b10 c
b110 b
b1100001 a
b100 `
b1100001 _
b10 ^
b1 ]
b100 \
b110 [
b1100001 Z
b1100001 Y
b10 X
b1 W
b10000 V
b1 U
b10 T
b1100001 S
b111 R
b0 Q
0P
b1111001 O
b0 N
b111 M
b111 L
b0 K
b110 J
b0 I
b111 H
b1111001 G
b110 F
b111 E
b0 D
b0 C
b111 B
b11111001 A
b0 @
b1111001 ?
b111 >
b0 =
0<
b11111010 ;
b11111010 :
b10001000 9
b10000000 8
b100010000000000 7
b0 6
b0 5
b100 4
b111 3
b111 2
b0 1
b10000 0
b11111001 /
b1 .
b1 -
b111 ,
b10 +
0*
0)
b1100001 (
b0 '
x&
b1100001 %
b0 $
b0 #
1"
b1 !
$end
#10
b0 n
b0 l
b0 s
b0 t
b11111111 w
b111 u
b111 r
b110 p
b11111001 ;
b11111001 j
b11111001 q
b110 \
b110 `
b101 [
b101 b
b1 5
b101 4
b11111000 :
b11111111 .
b11111111 W
b1 +
b1 X
b1 h
b1111111 e
b0 !
b0 -
b0 m
b1 T
b1 ^
b1111111 U
b1111111 ]
b1 c
b100011000000000 7
b10001100 9
1<
b11000 0
b11000 V
b100011 Y
b100011 Z
b100011 _
b100011 a
b100011 g
b100011 d
1*
b10000000 N
1P
x"
b10000000 #
b100011 %
b100011 (
b100011 S
b10000000 $
b10000000 '
b10000000 =
#20
b11 o
b110100 6
b110100 i
b100110 8
b101 2
b101 3
b11111110 :
b11111111 /
b11111111 A
b1 ,
b1 B
b110000 1
b110000 @
b1 R
b1111111 O
b1 >
b1 H
b1111111 ?
b1111111 G
b101 E
b101 L
b11101101 !
b11101101 -
b11101101 m
b10011 n
b10000 l
b10000 s
b10000 t
b11100000 w
b10 u
b10 r
b1 p
b11111110 ;
b11111110 j
b11111110 q
b0 5
b100100110100 7
b111110 9
b1 c
b1 M
b11110000 0
b11110000 V
b111110 Y
b111110 Z
b111110 _
b111110 a
b111110 g
b111110 d
b100110 C
b100110 D
b100110 I
b100110 K
b100110 Q
b100110 N
b11011011 #
b111110 %
b111110 (
b111110 S
b11011010 $
b11011010 '
b11011010 =
#30
b11 4
b11111101 .
b11111101 W
b11 +
b11 X
b11 h
b1111101 e
b11 T
b11 ^
b1111101 U
b1111101 ]
b11111101 :
b11 [
b11 b
b0 /
b0 A
b0 O
b0 ?
b0 G
b101 F
b101 J
b110 E
b110 L
b100110 8
b101 2
b101 3
b10000 l
b10000 s
b10000 t
b11100000 w
b10 u
b10 r
b11101011 !
b11101011 -
b11101011 m
b10101 n
b101 o
b1 p
b1 ,
b1 B
b110000 1
b110000 @
b1 R
b11111110 ;
b11111110 j
b11111110 q
b1011100 6
b1011100 i
b1 5
b11110111000 7
b110100 9
b11 c
b1 >
b1 H
b1 M
b10100000 0
b10100000 V
b1101 Y
b1101 Z
b1101 _
b1101 a
b1101 g
b1101 d
b1000110 C
b1000110 D
b1000110 I
b1000110 K
b1000110 Q
b1000110 N
b11110001 #
b1101 %
b1101 (
b1101 S
b10111010 $
b10111010 '
b10111010 =
#40
b11111111 /
b11111111 A
b1111111 O
b1111111 ?
b1111111 G
b11 \
b11 `
b110 [
b110 b
b110 F
b110 J
b101 E
b101 L
b101 2
b11 4
b101 3
b1 :
b10 .
b10 W
b11 +
b11 X
b11 h
b10 e
b1100000 l
b1100000 s
b11100000 t
b11000000 w
b1 u
b1 r
b10011110 !
b10011110 -
b10011110 m
b1100010 n
b10 o
b1 p
b1 ,
b1 B
b1 R
b11 T
b11 ^
b10 U
b10 ]
b11 c
b1 ;
b1 j
b1 q
b100000 6
b100000 i
b0 5
b10100100000 7
b100000 9
b101001 8
b1 >
b1 H
b1 M
b0 0
b0 V
b1110000 Y
b1110000 Z
b1110000 _
b1110000 a
b1110000 g
b1110000 d
b1001000 1
b1001000 @
b101001 C
b101001 D
b101001 I
b101001 K
b101001 Q
b101001 N
b10011100 #
b1110000 %
b1110000 (
b1110000 S
b11010111 $
b11010111 '
b11010111 =
#50
b11 3
b11111101 /
b11111101 A
b11 ,
b11 B
b11 R
b1111101 O
b11 >
b11 H
b1111101 ?
b1111101 G
b11 E
b11 L
b110 \
b110 `
b101 [
b101 b
b101 2
b101 4
b11111100 :
b11111111 .
b11111111 W
b1 +
b1 X
b1 h
b1111111 e
b1000 l
b1000 s
b1000 t
b11110000 w
b11 u
b11 r
b1010 !
b1010 -
b1010 m
b1010 n
b10 o
b10 p
b1 T
b1 ^
b1111111 U
b1111111 ]
b1 c
b11111101 ;
b11111101 j
b11111101 q
b1011100 6
b1011100 i
b1 5
b101110111000 7
b110010 9
b111100 8
0<
b11 M
b10010000 0
b10010000 V
b110010 Y
b110010 Z
b110010 _
b110010 a
b110010 g
b110010 d
0*
b11100000 1
b11100000 @
b1111 C
b1111 D
b1111 I
b1111 K
b1111 Q
b1111 N
0P
1"
b1100 #
b110010 %
b110010 (
b110010 S
b1111 $
b1111 '
b1111 =
#60
b101 3
b11111111 /
b11111111 A
b1 ,
b1 B
b1 R
b1111111 O
b0 :
b1 >
b1 H
b1111111 ?
b1111111 G
b1 .
b1 W
b1 e
b101 E
b101 L
b1 U
b1 ]
b1100000 l
b1100000 s
b11100000 t
b11000000 w
b1 u
b1 r
b1 p
b100 \
b100 `
b110 [
b110 b
b1 ;
b1 j
b1 q
b1 5
b101 2
b100 4
b10 +
b10 X
b10 h
b1100111 !
b1100111 -
b1100111 m
b1100111 n
b111 o
b10 T
b10 ^
b10 c
b1111100 6
b1111100 i
b11111111000 7
b100010 9
b111100 8
b1 M
1)
b10000 0
b10000 V
b1100001 Y
b1100001 Z
b1100001 _
b1100001 a
b1100001 g
b1100001 d
1f
1*
b11100000 1
b11100000 @
b111100 C
b111100 D
b111100 I
b111100 K
b111100 Q
b111100 N
1P
x"
b1100000 #
b10011111 %
b10011111 (
b10011111 S
b11000100 $
b11000100 '
b11000100 =
#70
b0 5
b0 /
b0 A
b0 O
b0 ?
b0 G
b1000 l
b1000 s
b1000 t
b11110000 w
b11 u
b11 r
b10 p
b110 \
b110 `
b11 [
b11 b
b101 F
b101 J
b110 E
b110 L
b11111101 ;
b11111101 j
b11111101 q
b101 2
b11 4
b101 3
b11111101 :
b11111101 .
b11111101 W
b11 +
b11 X
b11 h
b1111101 e
b1100 !
b1100 -
b1100 m
b1100 n
b100 o
b1 ,
b1 B
b1 R
b11 T
b11 ^
b1111101 U
b1111101 ]
b11 c
b10000000 6
b10000000 i
b10010000000 7
b100000 9
b100100 8
b1 >
b1 H
b1 M
b0 0
b0 V
b1000 Y
b1000 Z
b1000 _
b1000 a
b1000 g
b1000 d
b100000 1
b100000 @
b1000100 C
b1000100 D
b1000100 I
b1000100 K
b1000100 Q
b1000100 N
b1001 #
b11111000 %
b11111000 (
b11111000 S
b10111100 $
b10111100 '
b10111100 =
#80
b10 4
b11111100 .
b11111100 W
b100 +
b100 X
b100 h
b1111100 e
b100 T
b100 ^
b1111100 U
b1111100 ]
b10 [
b10 b
b0 l
b0 s
b0 t
b11111111 w
b111 u
b111 r
b110 p
b11111001 ;
b11111001 j
b11111001 q
b11111001 :
b11111101 /
b11111101 A
b1111101 O
b1111101 ?
b1111101 G
b110 F
b110 J
b11 E
b11 L
b11 2
b11 3
b0 !
b0 -
b0 m
b0 n
b0 o
b11 ,
b11 B
b11 R
b100 c
b10011100 6
b10011100 i
b10011100 7
b1100 9
b1101 8
b11 >
b11 H
b11 M
0)
b10000000 0
b10000000 V
b110 Y
b110 Z
b110 _
b110 a
b110 g
b110 d
0f
0*
b10100000 1
b10100000 @
b1101 C
b1101 D
b1101 I
b1101 K
b1101 Q
b1101 N
0P
1"
b1 #
b110 %
b110 (
b110 S
b1101 $
b1101 '
b1101 =
#90
b0 5
b1111000 l
b1111000 s
b11111000 t
b11110000 w
b11 u
b11 r
b10000110 !
b10000110 -
b10000110 m
b1111010 n
b10 o
b11 p
b11 \
b11 `
b110 [
b110 b
b100 F
b100 J
b110 E
b110 L
b11 ;
b11 j
b11 q
b10100100 6
b10100100 i
b110100100 7
b10100 9
b10101 8
b100 2
b11 4
b100 3
b11 :
b10 .
b10 W
b11 +
b11 X
b1000000 0
b1000000 V
b11 h
b10 e
b1 /
b1 A
b10 ,
b10 B
b1010000 1
b1010000 @
b10 R
b1 O
1<
b11 T
b11 ^
b10 U
b10 ]
b11 c
b10 >
b10 H
b1 ?
b1 G
b10 M
1)
b1110010 Y
b1110010 Z
b1110010 _
b1110010 a
b1110010 g
b1110010 d
1f
b1100101 C
b1100101 D
b1100101 I
b1100101 K
b1100101 Q
b1100101 N
x"
b10000101 #
b10001110 %
b10001110 (
b10001110 S
b1100101 $
b1100101 '
b1100101 =
#100
b100 4
b1 .
b1 W
b10 +
b10 X
b10 h
b1 e
b10 T
b10 ^
b1 U
b1 ]
b100 \
b100 `
b1100000 l
b1100000 s
b11100000 t
b11000000 w
b1 u
b1 r
b1 p
b1 ;
b1 j
b1 q
b110 F
b110 J
b101 E
b101 L
b1 5
b101 2
b101 3
b0 :
b1100111 !
b1100111 -
b1100111 m
b1100111 n
b111 o
b11111111 /
b11111111 A
b1 ,
b1 B
b1 R
b1111111 O
b10 c
b1111100 6
b1111100 i
b11111111000 7
b111100 9
b100010 8
0<
b1 >
b1 H
b1111111 ?
b1111111 G
b1 M
0)
b11100000 0
b11100000 V
b1101110 Y
b1101110 Z
b1101110 _
b1101110 a
b1101110 g
b1101110 d
0f
b10000 1
b10000 @
b100010 C
b100010 D
b100010 I
b100010 K
b100010 Q
b100010 N
1"
b1100000 #
b1101110 %
b1101110 (
b1101110 S
b100010 $
b100010 '
b100010 =
#110
b100 2
b0 3
b11111011 :
b11111010 /
b11111010 A
b110 ,
b110 B
b110 R
b1111010 O
b110 >
b110 H
b1111010 ?
b1111010 G
b0 E
b0 L
b10 l
b10 s
b10 t
b11111100 w
b101 u
b101 r
b10 !
b10 -
b10 m
b10 n
b0 o
b100 p
b10 c
b11111011 ;
b11111011 j
b11111011 q
b1100000 6
b1100000 i
b0 5
b101100000 7
b10110 9
b10000 8
b110 M
1)
b1100000 0
b1100000 V
b1100110 Y
b1100110 Z
b1100110 _
b1100110 a
b1100110 g
b1100110 d
1f
1*
b0 1
b0 @
b1 C
b1 D
b1 I
b1 K
b1 Q
b1 N
1P
x"
b11 #
b10011010 %
b10011010 (
b10011010 S
b11111111 $
b11111111 '
b11111111 =
#120
b1000000 n
b1000000 l
b1000000 s
b11000000 t
b10000000 w
b0 u
b0 r
b111 p
b0 ;
b0 j
b0 q
b100010 8
b101 2
b101 3
b0 :
b11111111 /
b11111111 A
b1 ,
b1 B
b10000 1
b10000 @
b1 R
b1111111 O
b1 >
b1 H
b1111111 ?
b1111111 G
b101 E
b101 L
b11000000 !
b11000000 -
b11000000 m
b11001000 6
b11001000 i
b10011001000 7
b100100 9
1<
b10 c
b1 M
0)
b100000 0
b100000 V
b1100010 Y
b1100010 Z
b1100010 _
b1100010 a
b1100010 g
b1100010 d
0f
b100010 C
b100010 D
b100010 I
b100010 K
b100010 Q
b100010 N
b10111010 #
b1100010 %
b1100010 (
b1100010 S
b11011110 $
b11011110 '
b11011110 =
#130
b0 o
b110 \
b110 `
b100 [
b100 b
b101 2
b100 4
b11111101 :
b11110000 !
b11110000 -
b11110000 m
b10000 n
b11111110 .
b11111110 W
b10 +
b10 X
b10 h
b1111110 e
b10000 l
b10000 s
b10000 t
b11100000 w
b10 u
b10 r
b1 p
b10 T
b10 ^
b1111110 U
b1111110 ]
b10 c
b11111110 ;
b11111110 j
b11111110 q
b1000 6
b1000 i
b1 5
b111000010000 7
b111100 9
b111100 8
b1 M
1)
b11100000 0
b11100000 V
b11110 Y
b11110 Z
b11110 _
b11110 a
b11110 g
b11110 d
1f
0*
b11100000 1
b11100000 @
b111100 C
b111100 D
b111100 I
b111100 K
b111100 Q
b111100 N
0P
b11100100 #
b11100010 %
b11100010 (
b11100010 S
b111100 $
b111100 '
b111100 =
#140
b1 5
b0 /
b0 A
b0 O
b0 ?
b0 G
b1110000 l
b1110000 s
b11110000 t
b11100000 w
b10 u
b10 r
b10 p
b100 \
b100 `
b110 [
b110 b
b101 F
b101 J
b110 E
b110 L
b10 ;
b10 j
b10 q
b111100 9
b101 2
b100 4
b101 3
b1 :
b1 .
b1 W
b10 +
b10 X
b11100000 0
b11100000 V
b10 h
b1 e
b1110001 !
b1110001 -
b1110001 m
b1110001 n
b1 o
b1 ,
b1 B
b1 R
b10 T
b10 ^
b1 U
b1 ]
b10 c
b100000 6
b100000 i
b101101000000 7
b110000 8
0<
b1 >
b1 H
b1 M
0)
b1101110 Y
b1101110 Z
b1101110 _
b1101110 a
b1101110 g
b1101110 d
0f
b10000000 1
b10000000 @
b1010000 C
b1010000 D
b1010000 I
b1010000 K
b1010000 Q
b1010000 N
1"
b1110011 #
b1101110 %
b1101110 (
b1101110 S
b1010000 $
b1010000 '
b1010000 =
#150
0&
b11111101 :
b11111100 /
b11111100 A
b1111100 O
b1111100 ?
b1111100 G
b10000 l
b10000 s
b10000 t
b11100000 w
b10 u
b10 r
b1 p
b110 F
b110 J
b10 E
b10 L
b11111110 ;
b11111110 j
b11111110 q
b1 5
b100 2
b10 3
b10001 !
b10001 -
b10001 m
b10001 n
b1 o
b100 ,
b100 B
b100 R
b10 c
b10100 6
b10100 i
b1000101000 7
b10111 9
b11000 8
b100 >
b100 H
b100 M
b1110000 0
b1110000 V
b1100111 Y
b1100111 Z
b1100111 _
b1100111 a
b1100111 g
b1100111 d
b10000000 1
b10000000 @
b110 C
b110 D
b110 I
b110 K
b110 Q
b110 N
b10001 #
b1100111 %
b1100111 (
b1100111 S
b110 $
b110 '
b110 =
#160
b101 4
b0 .
b0 W
b1 +
b1 X
b1 h
b0 e
b1 T
b1 ^
b0 U
b0 ]
b101 \
b101 `
b100 F
b100 J
b110 E
b110 L
b101 2
b100 3
b1 :
b1100000 l
b1100000 s
b11100000 t
b11000000 w
b1 u
b1 r
b1101100 !
b1101100 -
b1101100 m
b1101100 n
b1100 o
b1 p
b1 /
b1 A
b10 ,
b10 B
b10 R
b1 O
b1 c
b1 ;
b1 j
b1 q
b11001000 6
b11001000 i
b0 5
b10111001000 7
b100101 9
b101000 8
b10 >
b10 H
b1 ?
b1 G
b10 M
b101000 0
b101000 V
b1000101 Y
b1000101 Z
b1000101 _
b1000101 a
b1000101 g
b1000101 d
b1000000 1
b1000000 @
b1100100 C
b1100100 D
b1100100 I
b1100100 K
b1100100 Q
b1100100 N
x&
b1100111 #
b1000101 %
b1000101 (
b1000101 S
b1100100 $
b1100100 '
b1100100 =
#170
b10000000 w
b0 u
b0 r
b100 4
b1 .
b1 W
b10 +
b10 X
b1010000 0
b1010000 V
b10 h
b1 e
b1000000 l
b1000000 s
b11000000 t
b111 p
b10 T
b10 ^
b1 U
b1 ]
b0 ;
b0 j
b0 q
b100 \
b100 `
b110 F
b110 J
b101 E
b101 L
b0 5
b101010 9
b101 2
b101 3
b0 :
b1000000 !
b1000000 -
b1000000 m
b1000000 n
b0 o
b11111111 /
b11111111 A
b1 ,
b1 B
b1 R
b1111111 O
b10 c
b1000000 6
b1000000 i
b10101000000 7
b100000 8
b1 >
b1 H
b1111111 ?
b1111111 G
b1 M
1)
b1100101 Y
b1100101 Z
b1100101 _
b1100101 a
b1100101 g
b1100101 d
1f
1*
b0 1
b0 @
b100000 C
b100000 D
b100000 I
b100000 K
b100000 Q
b100000 N
1P
x"
b1001010 #
b10011011 %
b10011011 (
b10011011 S
b11100000 $
b11100000 '
b11100000 =
#180
0&
b10 :
b1 /
b1 A
b1 O
b1 ?
b1 G
b100 F
b100 J
b110 E
b110 L
b100 2
b100 3
b1111000 l
b1111000 s
b11111000 t
b11110000 w
b11 u
b11 r
b1111000 !
b1111000 -
b1111000 m
b1111000 n
b0 o
b11 p
b10 ,
b10 B
b10 R
b10 c
b11 ;
b11 j
b11 q
b11101 6
b11101 i
b1 5
b1000111010 7
b10011 9
b11110 8
b10 >
b10 H
b10 M
b110000 0
b110000 V
b1100011 Y
b1100011 Z
b1100011 _
b1100011 a
b1100011 g
b1100011 d
b11100000 1
b11100000 @
b1101110 C
b1101110 D
b1101110 I
b1101110 K
b1101110 Q
b1101110 N
b1111000 #
b10011101 %
b10011101 (
b10011101 S
b10010010 $
b10010010 '
b10010010 =
#190
b0 5
b10 4
b11 .
b11 W
b100 +
b100 X
b100 h
b11 e
b100 T
b100 ^
b11 U
b11 ]
b10 \
b10 `
b100000 l
b100000 s
b100000 t
b11000000 w
b1 u
b1 r
b100011 n
b11 o
b0 p
b110 F
b110 J
b10 E
b10 L
b11111111 ;
b11111111 j
b11111111 q
b10 2
b10 3
b11111111 :
b11011101 !
b11011101 -
b11011101 m
b11111100 /
b11111100 A
b100 ,
b100 B
b100 R
b1111100 O
b100 c
b11110 6
b11110 i
b11110 7
b101 9
b110 8
1<
b100 >
b100 H
b1111100 ?
b1111100 G
b100 M
0)
b1000000 0
b1000000 V
b1111001 Y
b1111001 Z
b1111001 _
b1111001 a
b1111001 g
b1111001 d
0f
b10000000 1
b10000000 @
b110 C
b110 D
b110 I
b110 K
b110 Q
b110 N
x&
b11000100 #
b1111001 %
b1111001 (
b1111001 S
b11111010 $
b11111010 '
b11111010 =
#200
b1000000 l
b1000000 s
b11000000 t
b10000000 w
b0 u
b0 r
b111 p
b0 ;
b0 j
b0 q
b0 :
b110 \
b110 `
b101 [
b101 b
b100 F
b100 J
b110 E
b110 L
b101 2
b101 4
b100 3
b11111111 .
b11111111 W
b1 +
b1 X
b1 h
b1111111 e
b11000000 !
b11000000 -
b11000000 m
b1000000 n
b0 o
b1 /
b1 A
b10 ,
b10 B
b10 R
b1 O
b1 T
b1 ^
b1111111 U
b1111111 ]
b1 c
b0 6
b0 i
b10100000000 7
b100000 9
b101000 8
b10 >
b10 H
b1 ?
b1 G
b10 M
1)
b0 0
b0 V
b100000 Y
b100000 Z
b100000 _
b100000 a
b100000 g
b100000 d
1f
0*
b1000000 1
b1000000 @
b1100100 C
b1100100 D
b1100100 I
b1100100 K
b1100100 Q
b1100100 N
0P
b10111000 #
b11100000 %
b11100000 (
b11100000 S
b1100100 $
b1100100 '
b1100100 =
#210
b0 .
b0 W
b0 e
b0 U
b0 ]
b101 \
b101 `
b110 [
b110 b
b110 F
b110 J
b101 E
b101 L
b101 2
b101 4
b101 3
b11111111 :
b1 +
b1 X
b1 h
b100000 l
b100000 s
b100000 t
b11000000 w
b1 u
b1 r
b11011111 !
b11011111 -
b11011111 m
b100001 n
b1 o
b0 p
b11111111 /
b11111111 A
b1 ,
b1 B
b1 R
b1111111 O
b1 T
b1 ^
b1 c
b11111111 ;
b11111111 j
b11111111 q
b1110 6
b1110 i
b0 5
b100100001110 7
b111101 9
b100110 8
b1 >
b1 H
b1111111 ?
b1111111 G
b1 M
b11101000 0
b11101000 V
b1011101 Y
b1011101 Z
b1011101 _
b1011101 a
b1011101 g
b1011101 d
b110000 1
b110000 @
b100110 C
b100110 D
b100110 I
b100110 K
b100110 Q
b100110 N
b10111100 #
b10100011 %
b10100011 (
b10100011 S
b100110 $
b100110 '
b100110 =
#220
b1 :
b1 /
b1 A
b1 O
b1 ?
b1 G
b100 F
b100 J
b110 E
b110 L
b101 2
b100 3
b1100000 l
b1100000 s
b11100000 t
b11000000 w
b1 u
b1 r
b1101001 !
b1101001 -
b1101001 m
b1101001 n
b1001 o
b1 p
b10 ,
b10 B
b10 R
b1 c
b1 ;
b1 j
b1 q
b10011000 6
b10011000 i
b0 5
b110110011000 7
b111010 9
b111100 8
0<
b10 >
b10 H
b10 M
b11010000 0
b11010000 V
b1011010 Y
b1011010 Z
b1011010 _
b1011010 a
b1011010 g
b1011010 d
1*
b11100000 1
b11100000 @
b1101110 C
b1101110 D
b1101110 I
b1101110 K
b1101110 Q
b1101110 N
1P
b1110110 #
b10100110 %
b10100110 (
b10100110 S
b10010010 $
b10010010 '
b10010010 =
#230
b110 F
b110 J
b100 E
b100 L
b101 2
b100 3
b11111110 :
b100000 l
b100000 s
b100000 t
b11000000 w
b1 u
b1 r
b101110 !
b101110 -
b101110 m
b101110 n
b1110 o
b0 p
b11111110 /
b11111110 A
b10 ,
b10 B
b10 R
b1111110 O
b1 c
b11111111 ;
b11111111 j
b11111111 q
b1110000 6
b1110000 i
b1 5
b101011100000 7
b110000 9
b111010 8
b10 >
b10 H
b1111110 ?
b1111110 G
b10 M
0)
b10000000 0
b10000000 V
b1010000 Y
b1010000 Z
b1010000 _
b1010000 a
b1010000 g
b1010000 d
0f
0*
b11010000 1
b11010000 @
b11101 C
b11101 D
b11101 I
b11101 K
b11101 Q
b11101 N
0P
1"
b101100 #
b1010000 %
b1010000 (
b1010000 S
b11101 $
b11101 '
b11101 =
#240
b100 2
b100 4
b11111111 :
b1 .
b1 W
b10 +
b10 X
b10 h
b1 e
b10 T
b10 ^
b1 U
b1 ]
b100 \
b100 `
b1000000 l
b1000000 s
b11000000 t
b10000000 w
b0 u
b0 r
b1000000 !
b1000000 -
b1000000 m
b1000000 n
b0 o
b111 p
b10 c
b0 ;
b0 j
b0 q
b10101 6
b10101 i
b1 5
b1100101010 7
b11110 9
b11011 8
b10 M
1)
b11100000 0
b11100000 V
b1101110 Y
b1101110 Z
b1101110 _
b1101110 a
b1101110 g
b1101110 d
1f
1*
b10110000 1
b10110000 @
b11011 C
b11011 D
b11011 I
b11011 K
b11011 Q
b11011 N
1P
x"
b1010011 #
b10010010 %
b10010010 (
b10010010 S
b11100101 $
b11100101 '
b11100101 =
#250
b11111110 :
b110 \
b110 `
b100 [
b100 b
b101 F
b101 J
b110 E
b110 L
b101 2
b100 4
b101 3
b11111110 .
b11111110 W
b10 +
b10 X
b10 h
b1111110 e
b100000 l
b100000 s
b100000 t
b11000000 w
b1 u
b1 r
b101111 !
b101111 -
b101111 m
b101111 n
b1111 o
b0 p
b0 /
b0 A
b1 ,
b1 B
b1 R
b0 O
b10 T
b10 ^
b1111110 U
b1111110 ]
b10 c
b11111111 ;
b11111111 j
b11111111 q
b1111000 6
b1111000 i
b1 5
b101011110000 7
b111000 9
b110010 8
b1 >
b1 H
b0 ?
b0 G
b1 M
b11000000 0
b11000000 V
b11100 Y
b11100 Z
b11100 _
b11100 a
b11100 g
b11100 d
b10010000 1
b10010000 @
b1010010 C
b1010010 D
b1010010 I
b1010010 K
b1010010 Q
b1010010 N
b101100 #
b11100100 %
b11100100 (
b11100100 S
b10101110 $
b10101110 '
b10101110 =
#260
b101 \
b101 `
b110 [
b110 b
b101 2
b101 4
b0 :
b0 .
b0 W
b1 +
b1 X
b1 h
b0 e
b1000000 l
b1000000 s
b11000000 t
b10000000 w
b0 u
b0 r
b11000000 !
b11000000 -
b11000000 m
b1000000 n
b0 o
b111 p
b1 T
b1 ^
b0 U
b0 ]
b1 c
b0 ;
b0 j
b0 q
b100111 6
b100111 i
b0 5
b110000100111 7
b110011 9
b111101 8
1<
b1 M
0)
b10011000 0
b10011000 V
b1010011 Y
b1010011 Z
b1010011 _
b1010011 a
b1010011 g
b1010011 d
0f
b11101000 1
b11101000 @
b1011101 C
b1011101 D
b1011101 I
b1011101 K
b1011101 Q
b1011101 N
b10011000 #
b1010011 %
b1010011 (
b1010011 S
b10100011 $
b10100011 '
b10100011 =
#270
b11111111 :
b11111111 /
b11111111 A
b1111111 O
b1111111 ?
b1111111 G
b110 F
b110 J
b101 E
b101 L
b101 2
b101 3
b1000000 l
b1000000 s
b11000000 t
b10000000 w
b0 u
b0 r
b11000000 !
b11000000 -
b11000000 m
b1000000 n
b0 o
b111 p
b1 ,
b1 B
b1 R
b1 c
b0 ;
b0 j
b0 q
b101001 6
b101001 i
b1 5
b101101010010 7
b101110 9
b111111 8
b1 >
b1 H
b1 M
1)
b1110000 0
b1110000 V
b1001110 Y
b1001110 Z
b1001110 _
b1001110 a
b1001110 g
b1001110 d
1f
0*
b11111000 1
b11111000 @
b111111 C
b111111 D
b111111 I
b111111 K
b111111 Q
b111111 N
0P
b10110011 #
b10110010 %
b10110010 (
b10110010 S
b111111 $
b111111 '
b111111 =
